
27488, 1172, 152, 1014, 18891, 1178, 398, 776, 47974, 13412, 208729, 77197, 228, 1285, 28661, 52, 22117, 231, 12150, 750, 9008, 0, 49508, 67860, 40149, 216889, 1319, 881, 78, 41, 786, 0, 39161, 25805, 0, 0, 79826, 181, 809, 591, 322, 456, 549, 293, 252, 25806, 196, 508, 1456, 5238, 9165, 13304, 13410, 20692, 24087, 66, 100768, 7269, 3667, 19825, 0, 1, 0, 12702, 364, 540, 574, 665, 468, 221, 49, 35, 53, 0, 209, 95, 80, 331, 242, 255, 426, 607, 884, 12542, 0, 7944, 232, 259, 328, 462, 337, 158, 81, 49, 13, 0, 61, 72, 109, 201, 98, 162, 260, 356, 633, 7911, 0, 274, 1405, 2979, 2436, 1403, 491, 15, 5, 0, 17881, 17541, 13262, 5137, 3414, 899, 1164, 101, 46, 21, 3, 0, 0, 0, 0, 0, 0, 0, 0, 0, 2768, 3504, 2736, 4245, 0, 0, 1, 9, 145, 403, 516, 327, 27, 0, 0, 0, 0, 0, 0, 0, 0, 0, 0, 0, 504, 255, 38, 3, 22, 106, 14, 5, 1, 0, 0, 0, 1567, 156, 69, 69, 32, 21, 18, 27, 31, 92, 60, 53, 47, 13, 33, 43, 51, 69, 21, 26, 25, 27, 47, 30, 14, 16, 14, 27, 31, 43, 6, 11, 11, 7, 2, 1, 4, 2, 9, 7, 20, 81, 605, 358, 203, 102, 17, 0, 0, 570, 265, 219, 171, 103, 56, 6, 0, 2, 42360, 25, 0, 0, 0, 0, 0, 0, 0, 0, 0, 0, 0, 0, 0, 0, 0, 0, 0, 0, 0, 0, 0, 0, 0, 0, 0, 0, 0, 14767, 9122, 0, 0, 1347, 591, 1523, 914, 577, 913, 0, 571, 66565750, 46674499, 1512, 125376, 64, 674, 0, 33119101483500
12702, 1574, 188, 1386, 9825, 2169, 1513, 654, 22573, 7065, 169880, 83946, 132, 880, 14327, 53, 12920, 123, 5113, 273, 3806, 0, 26790, 38402, 21240, 143318, 639, 164, 43, 11, 3093, 0, 27352, 15414, 0, 0, 40336, 85, 211, 474, 212, 145, 154, 118, 148, 15414, 116, 288, 706, 4240, 4801, 7024, 6597, 7622, 12757, 43, 69478, 4265, 1964, 10224, 0, 0, 0, 5245, 224, 233, 329, 376, 302, 97, 28, 0, 0, 0, 20, 27, 93, 194, 106, 98, 90, 111, 155, 5940, 0, 6417, 128, 168, 201, 204, 239, 138, 48, 26, 192, 0, 48, 21, 98, 104, 55, 48, 78, 74, 83, 7152, 0, 176, 561, 1022, 810, 671, 526, 39, 1, 0, 11130, 8989, 4909, 4908, 2005, 319, 195, 7, 3, 1, 3, 0, 0, 0, 0, 0, 0, 0, 0, 0, 1572, 1060, 1174, 1316, 0, 0, 1, 14, 78, 169, 332, 136, 12, 0, 0, 0, 0, 0, 0, 0, 0, 0, 0, 0, 302, 106, 28, 4, 9, 51, 13, 4, 0, 0, 0, 0, 1074, 112, 52, 48, 36, 23, 11, 36, 19, 72, 21, 17, 8, 4, 10, 8, 18, 17, 9, 15, 17, 10, 14, 5, 6, 1, 6, 5, 4, 2, 2, 6, 4, 0, 1, 1, 3, 1, 4, 0, 1, 56, 366, 225, 156, 58, 24, 0, 0, 462, 170, 117, 97, 43, 38, 9, 0, 1, 21256, 25, 0, 0, 0, 0, 0, 0, 0, 0, 0, 0, 0, 0, 0, 0, 0, 0, 0, 0, 0, 0, 0, 0, 0, 2, 0, 0, 0, 6422, 7377, 0, 0, 682, 930, 1356, 972, 351, 970, 0, 343, 69500750, 29217757, 1353, 118080, 5632, -1, 0, 33119186423500
866, 58, 12, 46, 597, 54, 22, 32, 1059, 720, 6506, 1941, 162, 63, 926, 4, 749, 5, 351, 11, 179, 0, 1219, 1923, 1198, 7212, 19, 22, 6, 3, 59, 0, 1541, 705, 0, 0, 2646, 4, 18, 2, 8, 5, 3, 18, 14, 705, 9, 23, 50, 118, 297, 503, 637, 428, 811, 5, 3608, 290, 126, 541, 0, 0, 0, 445, 17, 25, 18, 15, 8, 0, 0, 0, 0, 0, 2, 2, 6, 31, 8, 9, 9, 9, 0, 452, 0, 331, 11, 7, 15, 11, 9, 1, 0, 0, 0, 0, 2, 4, 14, 16, 7, 9, 7, 2, 2, 322, 0, 7, 18, 47, 58, 35, 12, 2, 0, 0, 612, 460, 297, 228, 153, 20, 71, 0, 0, 0, 0, 0, 0, 0, 0, 0, 0, 0, 0, 0, 50, 56, 73, 76, 0, 0, 0, 1, 5, 11, 12, 3, 1, 0, 0, 0, 0, 0, 0, 0, 0, 0, 0, 0, 27, 11, 5, 1, 1, 8, 0, 0, 0, 0, 0, 0, 70, 5, 1, 1, 1, 1, 1, 0, 1, 2, 2, 1, 0, 1, 1, 1, 0, 0, 1, 1, 2, 1, 1, 1, 0, 0, 1, 0, 0, 0, 0, 0, 2, 0, 0, 2, 0, 0, 0, 0, 0, 3, 30, 16, 10, 3, 1, 0, 0, 25, 9, 11, 10, 4, 6, 0, 0, 0, 1005, 2, 0, 0, 0, 0, 0, 0, 0, 0, 0, 0, 0, 0, 0, 0, 0, 0, 0, 0, 0, 0, 0, 0, 0, 2, 0, 0, 0, 467, 327, 0, 0, 32, 46, 48, 27, 21, 27, 0, 21, 2003500, 1604500, 48, 3968, 512, 0, 0, 33119189676500
3823, 611, 73, 538, 3057, 246, 78, 168, 6145, 2245, 60475, 34363, 101, 268, 4436, 4, 3569, 25, 1835, 75, 1067, 0, 6963, 10018, 6268, 46281, 153, 35, 20, 13, 12, 0, 8200, 3284, 0, 0, 12489, 30, 64, 66, 75, 56, 44, 53, 31, 3284, 40, 103, 243, 475, 1548, 2323, 1683, 2686, 4512, 15, 21369, 1609, 530, 2603, 0, 0, 0, 1971, 68, 90, 124, 140, 104, 22, 0, 0, 0, 0, 5, 14, 32, 71, 59, 15, 25, 7, 32, 2259, 0, 1258, 46, 58, 54, 103, 72, 44, 8, 0, 0, 0, 14, 14, 31, 18, 11, 15, 6, 12, 23, 1499, 0, 60, 137, 293, 289, 201, 77, 10, 0, 0, 3381, 2219, 1010, 481, 339, 65, 98, 2, 2, 0, 0, 0, 0, 0, 0, 0, 0, 0, 0, 0, 312, 372, 383, 478, 0, 0, 0, 4, 20, 56, 58, 50, 5, 0, 0, 0, 0, 0, 0, 0, 0, 0, 0, 0, 107, 38, 5, 1, 4, 32, 1, 0, 0, 0, 0, 0, 337, 39, 15, 12, 8, 9, 5, 5, 4, 12, 23, 9, 8, 8, 9, 8, 6, 3, 2, 2, 2, 4, 5, 2, 3, 2, 2, 1, 2, 1, 1, 1, 2, 0, 0, 0, 0, 2, 0, 0, 1, 20, 155, 54, 27, 14, 1, 0, 0, 120, 65, 41, 31, 15, 8, 1, 0, 0, 5425, 35, 0, 0, 0, 0, 0, 0, 0, 0, 0, 0, 0, 0, 0, 0, 0, 0, 0, 0, 0, 0, 0, 0, 0, 2, 0, 0, 0, 2331, 1520, 0, 0, 234, 229, 516, 380, 135, 379, 0, 126, 27992750, 10172500, 510, 2120960, 4160, -1, 0, 33128146670500
1043, 128, 26, 102, 850, 53, 29, 23, 1746, 587, 10280, 4171, 169, 60, 1171, 0, 1015, 5, 506, 32, 294, 0, 1917, 2666, 1593, 9704, 55, 11, 2, 0, 111, 0, 2423, 875, 0, 0, 3375, 3, 23, 5, 18, 5, 5, 16, 12, 875, 5, 18, 29, 100, 567, 655, 479, 740, 1073, 5, 4839, 400, 147, 723, 0, 0, 0, 491, 22, 24, 23, 28, 28, 13, 1, 0, 0, 0, 0, 1, 5, 5, 5, 11, 6, 2, 6, 589, 0, 424, 14, 13, 23, 26, 25, 5, 0, 0, 0, 0, 2, 1, 3, 9, 7, 11, 9, 8, 3, 477, 0, 12, 31, 81, 88, 65, 15, 2, 0, 0, 843, 595, 292, 239, 92, 40, 18, 0, 0, 0, 0, 0, 0, 0, 0, 0, 0, 0, 0, 0, 81, 104, 109, 144, 0, 0, 1, 0, 7, 15, 20, 10, 0, 0, 0, 0, 0, 0, 0, 0, 0, 0, 0, 0, 29, 14, 3, 0, 0, 1, 0, 0, 0, 0, 0, 0, 78, 7, 8, 7, 2, 2, 0, 1, 0, 10, 2, 2, 1, 2, 2, 1, 2, 0, 3, 1, 2, 2, 0, 0, 0, 0, 1, 0, 0, 0, 1, 0, 0, 0, 0, 0, 0, 1, 0, 0, 0, 4, 32, 17, 7, 2, 0, 0, 0, 24, 14, 10, 12, 4, 0, 0, 0, 0, 1427, 3, 0, 0, 0, 0, 0, 0, 0, 0, 0, 0, 0, 0, 0, 0, 0, 0, 0, 0, 0, 0, 0, 0, 0, 2, 0, 0, 0, 611, 462, 0, 0, 65, 61, 73, 56, 17, 56, 0, 17, 4101250, 1384750, 73, 5824, 512, 0, 0, 33128151810500
3292, 355, 18, 337, 2980, 60, 15, 45, 5779, 1692, 20620, 6450, 280, 174, 3647, 4, 3281, 16, 1725, 69, 982, 0, 6550, 9128, 5692, 28798, 131, 54, 15, 15, 121, 0, 3077, 2739, 0, 0, 10240, 11, 53, 50, 68, 69, 48, 47, 39, 2739, 28, 57, 152, 354, 1288, 2089, 1412, 2115, 3751, 15, 10054, 1267, 465, 2383, 0, 0, 0, 1756, 46, 69, 96, 106, 82, 33, 3, 0, 0, 0, 5, 9, 24, 31, 42, 22, 17, 4, 13, 2024, 0, 1241, 39, 50, 44, 77, 68, 25, 15, 0, 0, 0, 10, 10, 20, 20, 8, 13, 4, 6, 6, 1462, 0, 51, 124, 275, 256, 194, 73, 9, 0, 0, 2935, 2123, 934, 490, 313, 78, 73, 2, 2, 1, 1, 5, 0, 0, 0, 0, 0, 0, 0, 0, 288, 337, 357, 438, 0, 0, 0, 3, 26, 52, 55, 42, 3, 0, 0, 0, 0, 0, 0, 0, 0, 0, 0, 0, 74, 34, 14, 0, 3, 4, 0, 0, 0, 0, 0, 0, 231, 32, 15, 15, 8, 6, 3, 3, 7, 13, 13, 3, 7, 3, 5, 6, 8, 6, 3, 6, 3, 4, 2, 2, 2, 1, 3, 2, 1, 1, 1, 0, 2, 0, 1, 0, 1, 0, 1, 0, 0, 11, 105, 37, 18, 8, 0, 0, 0, 70, 38, 42, 20, 8, 6, 0, 0, 0, 4891, 33, 0, 0, 0, 0, 0, 0, 0, 0, 0, 0, 0, 0, 0, 0, 0, 0, 0, 0, 0, 0, 0, 0, 0, 2, 0, 0, 0, 2054, 1432, 0, 0, 200, 330, 79, 67, 12, 66, 0, 12, 5286500, 1096500, 80, 2388736, 640, -1, 0, 33138129819500
1082, 78, 7, 71, 834, 24, 14, 10, 1642, 549, 4446, 617, 369, 54, 1160, 0, 976, 5, 482, 28, 284, 0, 1808, 2522, 1533, 7319, 56, 13, 8, 0, 0, 0, 1024, 845, 0, 0, 3217, 4, 29, 7, 20, 6, 7, 17, 15, 845, 7, 22, 32, 96, 445, 697, 426, 760, 1053, 1, 2641, 363, 142, 683, 0, 0, 0, 472, 19, 24, 18, 19, 23, 24, 4, 0, 0, 0, 1, 1, 0, 4, 6, 9, 7, 0, 3, 572, 0, 380, 13, 15, 18, 20, 9, 8, 10, 0, 0, 0, 5, 0, 3, 3, 19, 10, 9, 0, 5, 419, 0, 14, 32, 78, 81, 62, 15, 2, 0, 0, 826, 550, 292, 197, 90, 18, 10, 0, 0, 0, 0, 0, 0, 0, 0, 0, 0, 0, 0, 0, 83, 95, 106, 132, 0, 0, 0, 1, 3, 10, 29, 8, 0, 0, 0, 0, 0, 0, 0, 0, 0, 0, 0, 0, 24, 15, 3, 1, 0, 0, 0, 0, 0, 0, 0, 0, 74, 9, 9, 8, 0, 2, 0, 1, 2, 10, 2, 2, 2, 3, 2, 2, 3, 1, 0, 0, 1, 0, 0, 1, 0, 0, 0, 0, 0, 0, 0, 0, 0, 0, 1, 0, 0, 0, 1, 0, 0, 6, 31, 9, 8, 1, 0, 0, 0, 16, 10, 18, 9, 3, 0, 0, 0, 0, 1379, 3, 0, 0, 0, 0, 0, 0, 0, 0, 0, 0, 0, 0, 0, 0, 0, 0, 0, 0, 0, 0, 0, 0, 0, 2, 0, 0, 0, 583, 432, 0, 0, 70, 79, 10, 10, 0, 10, 0, 0, 665500, 0, 10, 1280, 128, 0, 0, 33138132042500
6451, 571, 31, 540, 5821, 197, 50, 147, 11767, 2785, 40311, 10597, 291, 253, 7023, 6, 6493, 23, 3540, 136, 2022, 0, 13184, 18118, 11222, 67063, 282, 147, 57, 30, 79, 0, 9801, 5157, 0, 0, 19475, 37, 103, 127, 162, 129, 115, 78, 43, 5157, 54, 137, 356, 621, 1982, 4010, 2950, 4456, 6956, 32, 21834, 2340, 862, 4676, 0, 0, 0, 3492, 94, 106, 157, 193, 184, 77, 17, 0, 0, 0, 8, 12, 35, 68, 47, 47, 52, 17, 35, 3999, 0, 2366, 61, 78, 68, 134, 145, 80, 17, 0, 0, 0, 22, 9, 37, 61, 17, 8, 23, 16, 19, 2737, 0, 109, 275, 558, 541, 372, 151, 16, 0, 0, 5408, 4325, 2018, 1306, 621, 245, 203, 6, 6, 28, 4, 10, 0, 0, 0, 0, 0, 0, 0, 0, 588, 754, 680, 916, 0, 0, 1, 5, 42, 102, 115, 97, 4, 0, 0, 0, 0, 0, 0, 0, 0, 0, 0, 0, 109, 59, 12, 5, 4, 5, 0, 0, 0, 0, 0, 0, 348, 68, 23, 17, 15, 10, 2, 12, 16, 29, 23, 10, 14, 9, 9, 14, 16, 7, 6, 7, 6, 6, 4, 4, 8, 3, 5, 7, 7, 2, 1, 1, 6, 1, 2, 4, 2, 1, 6, 0, 0, 14, 130, 64, 36, 20, 3, 0, 0, 115, 50, 46, 38, 13, 13, 0, 0, 0, 9694, 57, 0, 0, 0, 0, 0, 0, 0, 0, 0, 0, 0, 0, 0, 0, 0, 0, 0, 0, 0, 0, 0, 0, 0, 2, 0, 0, 0, 4095, 2741, 0, 0, 391, 557, 172, 110, 62, 109, 0, 61, 8528000, 5087750, 176, 4741760, 896, -1, 0, 33158128349500
975, 90, 9, 81, 845, 45, 28, 17, 1745, 448, 5133, 1241, 339, 35, 1065, 0, 994, 2, 506, 32, 294, 0, 1916, 2595, 1545, 7308, 55, 11, 6, 0, 50, 0, 1130, 746, 0, 0, 2931, 2, 34, 10, 14, 9, 7, 20, 12, 746, 6, 16, 32, 85, 475, 585, 463, 555, 1034, 5, 2752, 319, 128, 693, 0, 0, 0, 484, 18, 21, 18, 21, 19, 20, 10, 0, 0, 0, 1, 2, 4, 7, 9, 6, 3, 1, 4, 574, 0, 379, 7, 6, 20, 15, 22, 17, 9, 0, 0, 0, 2, 1, 3, 10, 6, 8, 9, 3, 2, 431, 0, 12, 31, 81, 88, 65, 15, 2, 0, 0, 797, 590, 252, 207, 105, 33, 13, 0, 0, 0, 0, 0, 0, 0, 0, 0, 0, 0, 0, 0, 81, 104, 109, 144, 0, 0, 0, 2, 8, 14, 18, 10, 1, 0, 0, 0, 0, 0, 0, 0, 0, 0, 0, 0, 19, 7, 5, 0, 0, 0, 0, 0, 0, 0, 0, 0, 53, 7, 8, 7, 0, 2, 0, 0, 3, 7, 2, 0, 1, 3, 0, 1, 3, 0, 5, 3, 2, 1, 0, 1, 1, 0, 0, 0, 0, 0, 0, 0, 0, 0, 0, 0, 1, 0, 2, 0, 0, 2, 20, 9, 6, 1, 0, 0, 0, 10, 12, 2, 8, 5, 2, 0, 0, 0, 1368, 3, 0, 0, 0, 0, 0, 0, 0, 0, 0, 0, 0, 0, 0, 0, 0, 0, 0, 0, 0, 0, 0, 0, 0, 2, 0, 0, 0, 588, 436, 0, 0, 63, 90, 11, 10, 1, 10, 0, 1, 763250, 31500, 11, 1344, 128, 0, 0, 33158130916000
2666, 280, 9, 271, 2860, 56, 13, 43, 5712, 746, 13538, 2276, 421, 69, 2947, 0, 3113, 3, 1714, 65, 972, 0, 6477, 8567, 5300, 26581, 127, 71, 21, 23, 23, 0, 2962, 2132, 0, 0, 8064, 8, 64, 45, 66, 60, 47, 48, 26, 2132, 19, 44, 155, 274, 941, 1566, 1150, 1786, 3038, 12, 7696, 1104, 402, 2059, 0, 0, 0, 1531, 34, 40, 55, 69, 92, 71, 19, 0, 0, 0, 1, 4, 10, 11, 19, 15, 2, 2, 5, 1842, 0, 1120, 25, 30, 28, 50, 72, 47, 28, 2, 0, 0, 7, 3, 5, 13, 9, 6, 2, 4, 6, 1347, 0, 51, 122, 273, 255, 189, 73, 9, 0, 0, 2489, 1788, 931, 539, 365, 131, 81, 4, 6, 10, 1, 5, 0, 0, 0, 0, 0, 0, 0, 0, 286, 334, 352, 434, 0, 0, 0, 4, 23, 48, 65, 35, 4, 0, 0, 0, 0, 0, 0, 0, 0, 0, 0, 0, 24, 18, 4, 2, 1, 0, 0, 0, 0, 0, 0, 0, 120, 25, 11, 12, 9, 4, 2, 2, 5, 17, 7, 5, 2, 5, 5, 4, 4, 5, 5, 7, 3, 3, 0, 0, 3, 2, 4, 2, 2, 0, 2, 2, 1, 1, 0, 3, 1, 0, 2, 0, 0, 5, 36, 19, 9, 4, 1, 0, 0, 22, 17, 22, 6, 3, 4, 0, 0, 0, 4436, 33, 0, 0, 0, 0, 0, 0, 0, 0, 0, 0, 0, 0, 0, 0, 0, 0, 0, 0, 0, 0, 0, 0, 0, 2, 0, 0, 0, 1882, 1341, 0, 0, 173, 289, 27, 25, 2, 25, 0, 2, 1857750, 163750, 29, 2343104, 192, -1, 0, 33168126214000
1041, 61, 4, 57, 820, 23, 14, 9, 1642, 438, 3697, 188, 444, 40, 1102, 0, 958, 2, 482, 28, 284, 0, 1808, 2482, 1506, 6879, 56, 14, 7, 0, 5, 0, 1059, 770, 0, 0, 2965, 3, 33, 9, 18, 10, 12, 17, 12, 770, 9, 15, 30, 86, 489, 509, 443, 666, 1049, 4, 2407, 313, 143, 646, 0, 0, 0, 453, 17, 18, 16, 14, 30, 18, 10, 1, 0, 0, 1, 2, 1, 3, 7, 2, 1, 0, 1, 559, 0, 359, 12, 12, 16, 18, 13, 9, 9, 0, 0, 0, 4, 2, 5, 1, 11, 7, 10, 0, 1, 407, 0, 14, 32, 78, 81, 62, 15, 2, 0, 0, 773, 553, 230, 188, 99, 54, 19, 0, 0, 0, 0, 0, 0, 0, 0, 0, 0, 0, 0, 0, 83, 95, 106, 132, 0, 0, 1, 0, 1, 16, 26, 6, 0, 0, 0, 0, 0, 0, 0, 0, 0, 0, 0, 0, 16, 15, 1, 1, 0, 0, 0, 0, 0, 0, 0, 0, 60, 9, 9, 8, 0, 1, 0, 1, 1, 9, 2, 2, 3, 3, 3, 1, 2, 1, 1, 2, 0, 0, 1, 2, 1, 0, 0, 0, 0, 1, 0, 0, 0, 0, 0, 0, 0, 0, 1, 0, 0, 5, 25, 5, 6, 1, 0, 0, 0, 11, 7, 12, 8, 5, 0, 0, 0, 0, 1340, 2, 0, 0, 0, 0, 0, 0, 0, 0, 0, 0, 0, 0, 0, 0, 0, 0, 0, 0, 0, 0, 0, 0, 0, 2, 0, 0, 0, 561, 420, 0, 0, 69, 64, 4, 4, 0, 4, 0, 0, 299500, 0, 4, 768, 128, 0, 0, 33168128062500
7214, 567, 45, 522, 6290, 136, 33, 103, 13212, 3120, 39003, 10974, 338, 283, 7783, 1, 6957, 10, 3652, 131, 2270, 0, 14501, 20476, 12371, 59750, 235, 172, 58, 37, 61, 0, 7462, 5513, 0, 0, 21402, 28, 193, 167, 168, 134, 150, 97, 61, 5513, 56, 138, 354, 1259, 2648, 4543, 3124, 4448, 7156, 23, 19171, 2750, 1034, 5072, 0, 0, 0, 3637, 69, 105, 139, 143, 198, 132, 22, 3, 0, 0, 8, 13, 79, 68, 45, 26, 41, 41, 12, 4115, 0, 2521, 59, 86, 58, 102, 144, 78, 43, 12, 0, 0, 23, 8, 28, 57, 27, 12, 12, 16, 8, 2912, 0, 100, 303, 666, 621, 397, 164, 19, 0, 0, 6122, 5217, 3333, 1297, 648, 234, 93, 9, 11, 52, 6, 10, 0, 0, 0, 0, 0, 0, 0, 0, 684, 835, 751, 1096, 0, 0, 2, 10, 60, 112, 125, 79, 16, 0, 0, 0, 0, 0, 0, 0, 0, 0, 0, 0, 101, 51, 17, 4, 2, 10, 2, 0, 0, 0, 0, 0, 396, 64, 20, 21, 10, 7, 5, 5, 9, 27, 14, 9, 9, 6, 6, 10, 3, 5, 8, 12, 9, 6, 2, 9, 3, 3, 4, 4, 1, 2, 2, 4, 11, 3, 1, 1, 2, 1, 3, 2, 0, 16, 148, 71, 37, 19, 4, 0, 0, 139, 51, 40, 34, 17, 11, 4, 0, 0, 11003, 103, 0, 0, 0, 0, 0, 0, 0, 0, 0, 0, 0, 0, 0, 0, 0, 0, 0, 0, 0, 0, 0, 0, 0, 2, 0, 0, 0, 4296, 2941, 0, 0, 338, 476, 165, 121, 44, 121, 0, 41, 9132000, 3356500, 166, 35522368, 1152, -1, 0, 33318130215000
1914, 199, 29, 170, 1412, 110, 40, 68, 3622, 841, 21253, 10545, 170, 113, 2114, 0, 1724, 14, 918, 27, 573, 0, 3728, 5552, 3120, 16676, 58, 59, 1, 0, 28, 0, 3155, 1529, 0, 0, 6101, 16, 47, 109, 36, 20, 18, 51, 11, 1529, 14, 50, 120, 979, 737, 1245, 913, 1106, 1508, 5, 8356, 771, 229, 1352, 0, 0, 0, 914, 30, 36, 36, 55, 43, 34, 26, 0, 0, 0, 0, 42, 8, 44, 14, 30, 27, 30, 13, 966, 0, 575, 15, 21, 26, 36, 30, 27, 7, 0, 0, 0, 46, 16, 3, 5, 15, 7, 18, 3, 3, 621, 0, 19, 55, 170, 153, 150, 22, 4, 0, 0, 1699, 916, 721, 147, 129, 24, 29, 0, 0, 0, 0, 0, 0, 0, 0, 0, 0, 0, 0, 0, 201, 208, 164, 242, 0, 0, 0, 2, 12, 33, 41, 12, 4, 0, 0, 0, 0, 0, 0, 0, 0, 0, 0, 0, 41, 16, 5, 0, 0, 5, 3, 1, 0, 0, 0, 0, 137, 8, 8, 9, 3, 1, 1, 1, 2, 12, 3, 0, 1, 1, 1, 0, 1, 2, 0, 0, 2, 1, 2, 0, 0, 1, 1, 0, 1, 0, 0, 0, 0, 0, 0, 0, 0, 0, 2, 0, 0, 10, 52, 23, 21, 11, 1, 0, 0, 63, 20, 15, 10, 8, 2, 0, 0, 0, 3013, 16, 0, 0, 0, 0, 0, 0, 0, 0, 0, 0, 0, 0, 0, 0, 0, 0, 0, 0, 0, 0, 0, 0, 0, 2, 0, 0, 0, 1137, 686, 0, 0, 69, 87, 175, 117, 56, 117, 0, 55, 8568500, 4700000, 174, 13760, 1856, 0, 0, 33318140841500
4745, 401, 17, 384, 4177, 96, 32, 64, 9282, 1981, 22371, 4649, 414, 164, 5146, 1, 4645, 1, 2430, 86, 1592, 0, 10042, 14193, 8480, 37254, 147, 182, 60, 124, 16, 0, 3960, 3588, 0, 0, 13987, 19, 167, 138, 118, 68, 101, 74, 41, 3588, 36, 87, 180, 1181, 1478, 3394, 1706, 2836, 4674, 16, 11652, 1962, 710, 3397, 0, 0, 0, 2370, 45, 81, 89, 104, 149, 82, 14, 0, 0, 0, 12, 8, 26, 47, 15, 19, 14, 27, 12, 2754, 0, 1684, 29, 67, 38, 74, 91, 76, 23, 3, 0, 0, 8, 10, 15, 36, 30, 10, 7, 6, 6, 1957, 0, 69, 201, 475, 445, 274, 117, 11, 0, 0, 4000, 3636, 2807, 856, 491, 155, 100, 6, 5, 37, 1, 5, 0, 0, 0, 0, 0, 0, 0, 0, 491, 590, 511, 788, 0, 0, 1, 4, 49, 68, 94, 51, 13, 0, 0, 0, 0, 0, 0, 0, 0, 0, 0, 0, 58, 36, 23, 2, 5, 0, 0, 0, 0, 0, 0, 0, 242, 38, 13, 18, 7, 3, 4, 2, 2, 18, 10, 5, 5, 9, 3, 4, 4, 3, 5, 7, 3, 1, 4, 10, 2, 2, 4, 1, 2, 3, 1, 1, 5, 1, 2, 1, 0, 0, 1, 0, 0, 7, 89, 43, 16, 15, 0, 0, 0, 68, 39, 22, 20, 12, 11, 0, 0, 0, 7621, 71, 0, 0, 0, 0, 0, 0, 0, 0, 0, 0, 0, 0, 0, 0, 0, 0, 0, 0, 0, 0, 0, 0, 0, 2, 0, 0, 0, 2825, 1986, 0, 0, 215, 387, 65, 52, 13, 52, 0, 13, 3941000, 966750, 67, 47317952, 384, -1, 0, 33518125052500
1824, 169, 18, 151, 1526, 36, 13, 23, 3742, 762, 8951, 2032, 418, 99, 1993, 2, 1776, 3, 970, 27, 583, 0, 3824, 5643, 3139, 12766, 58, 76, 0, 0, 31, 0, 1267, 1402, 0, 0, 5672, 6, 38, 115, 49, 14, 19, 40, 9, 1402, 12, 33, 82, 992, 986, 1106, 752, 844, 1430, 5, 4588, 722, 239, 1370, 0, 0, 0, 961, 25, 32, 23, 32, 48, 49, 21, 15, 0, 0, 0, 61, 19, 35, 17, 13, 9, 10, 12, 1030, 0, 600, 9, 17, 28, 40, 21, 23, 19, 0, 0, 0, 54, 7, 12, 7, 16, 3, 18, 4, 2, 634, 0, 19, 54, 169, 151, 165, 21, 4, 0, 0, 1776, 927, 844, 126, 108, 15, 29, 0, 0, 0, 0, 0, 0, 0, 0, 0, 0, 0, 0, 0, 215, 209, 159, 248, 0, 0, 0, 5, 10, 37, 45, 9, 2, 0, 0, 0, 0, 0, 0, 0, 0, 0, 0, 0, 38, 18, 4, 0, 0, 0, 0, 0, 0, 0, 0, 0, 120, 8, 8, 8, 4, 0, 1, 1, 0, 10, 3, 0, 1, 2, 3, 0, 2, 2, 0, 0, 2, 0, 1, 0, 1, 0, 2, 0, 0, 1, 0, 0, 0, 0, 0, 0, 0, 0, 1, 0, 0, 6, 45, 18, 23, 10, 1, 0, 0, 55, 17, 17, 10, 3, 1, 0, 0, 0, 3016, 15, 0, 0, 0, 0, 0, 0, 0, 0, 0, 0, 0, 0, 0, 0, 0, 0, 0, 0, 0, 0, 0, 0, 0, 2, 0, 0, 0, 1179, 694, 0, 0, 66, 155, 27, 22, 5, 22, 0, 5, 2155750, 497000, 27, 3008, 384, 0, 0, 33518129528000
4460, 388, 12, 376, 4084, 92, 29, 63, 9304, 1439, 17946, 1553, 518, 105, 4848, 1, 4535, 1, 2432, 86, 1593, 0, 10063, 13918, 8284, 35230, 147, 118, 69, 42, 26, 0, 4365, 3375, 0, 0, 13081, 20, 178, 136, 113, 62, 97, 73, 39, 3375, 38, 79, 155, 1197, 1347, 3004, 1830, 2521, 4453, 17, 10678, 1768, 682, 3264, 0, 0, 0, 2267, 40, 80, 75, 90, 142, 76, 16, 0, 0, 0, 23, 1, 30, 45, 8, 8, 10, 23, 8, 2630, 0, 1639, 30, 62, 32, 67, 90, 79, 35, 0, 0, 0, 7, 2, 12, 27, 25, 8, 5, 5, 8, 1935, 0, 69, 201, 475, 445, 274, 118, 11, 0, 0, 3653, 3644, 2821, 842, 500, 169, 74, 8, 7, 61, 3, 5, 0, 0, 0, 0, 0, 0, 0, 0, 491, 592, 510, 790, 0, 0, 0, 6, 60, 66, 79, 60, 9, 0, 0, 0, 0, 0, 0, 0, 0, 0, 0, 0, 30, 34, 16, 2, 1, 0, 0, 0, 0, 0, 0, 0, 178, 37, 13, 18, 8, 3, 4, 2, 2, 15, 8, 5, 6, 7, 3, 4, 3, 3, 4, 5, 4, 1, 4, 9, 4, 1, 4, 1, 2, 1, 3, 1, 5, 2, 1, 0, 0, 1, 2, 0, 0, 7, 54, 27, 12, 10, 1, 0, 0, 39, 20, 19, 18, 6, 8, 1, 0, 0, 7391, 71, 0, 0, 0, 0, 0, 0, 0, 0, 0, 0, 0, 0, 0, 0, 0, 0, 0, 0, 0, 0, 0, 0, 0, 2, 0, 0, 0, 2721, 1958, 0, 0, 201, 418, 25, 17, 8, 17, 0, 8, 1325750, 640750, 27, 47284544, 64, -1, 0, 33718121217500
1604, 153, 4, 149, 1443, 34, 13, 21, 3622, 549, 6210, 474, 583, 51, 1758, 2, 1664, 5, 918, 27, 573, 0, 3728, 5356, 2986, 11150, 58, 82, 2, 3, 21, 0, 1052, 1232, 0, 0, 4972, 6, 41, 114, 40, 14, 18, 34, 8, 1232, 11, 23, 65, 988, 700, 720, 725, 788, 1463, 4, 3663, 570, 217, 1286, 0, 0, 0, 866, 20, 31, 26, 24, 41, 42, 22, 15, 0, 0, 3, 61, 4, 14, 8, 8, 7, 10, 16, 956, 0, 542, 15, 13, 21, 23, 16, 36, 23, 0, 0, 0, 61, 1, 8, 6, 7, 6, 15, 6, 1, 578, 0, 19, 55, 170, 153, 150, 22, 4, 0, 0, 1511, 938, 884, 141, 117, 78, 31, 1, 1, 1, 1, 0, 0, 0, 0, 0, 0, 0, 0, 0, 201, 208, 164, 242, 0, 0, 0, 4, 12, 33, 45, 10, 1, 0, 0, 0, 0, 0, 0, 0, 0, 0, 0, 0, 26, 12, 1, 0, 0, 1, 0, 0, 0, 0, 0, 0, 73, 7, 8, 8, 3, 0, 1, 1, 3, 5, 2, 0, 3, 1, 5, 0, 2, 1, 1, 1, 1, 0, 1, 1, 1, 0, 2, 0, 0, 0, 0, 1, 0, 0, 0, 0, 0, 0, 2, 0, 0, 2, 26, 8, 12, 5, 0, 0, 0, 25, 7, 13, 5, 1, 2, 0, 0, 0, 2845, 15, 0, 0, 0, 0, 0, 0, 0, 0, 0, 0, 0, 0, 0, 0, 0, 0, 0, 0, 0, 0, 0, 0, 0, 2, 0, 0, 0, 1085, 649, 0, 0, 61, 171, 9, 7, 2, 7, 0, 2, 552000, 149500, 9, 576, 256, 0, 0, 33718124322500
4487, 381, 9, 372, 4143, 101, 32, 69, 9407, 1386, 18516, 2212, 508, 94, 4868, 0, 4605, 1, 2460, 82, 1607, 0, 10170, 14091, 8355, 37070, 143, 117, 63, 42, 34, 0, 3977, 3402, 0, 0, 13217, 16, 187, 128, 107, 69, 106, 74, 36, 3402, 40, 70, 161, 1198, 1422, 2892, 1715, 2547, 4699, 19, 10565, 1773, 674, 3291, 0, 0, 0, 2262, 46, 77, 69, 86, 138, 96, 22, 0, 0, 0, 23, 2, 26, 46, 12, 14, 10, 18, 8, 2637, 0, 1688, 31, 60, 37, 67, 77, 85, 34, 0, 0, 0, 8, 4, 8, 38, 29, 13, 3, 13, 8, 1955, 0, 69, 204, 476, 454, 272, 121, 11, 0, 0, 3566, 3525, 2923, 905, 541, 176, 76, 8, 25, 59, 3, 5, 0, 0, 0, 0, 0, 0, 0, 0, 496, 598, 513, 792, 0, 0, 0, 7, 51, 69, 84, 63, 9, 0, 0, 0, 0, 0, 0, 0, 0, 0, 0, 0, 38, 21, 12, 1, 2, 1, 0, 0, 0, 0, 0, 0, 169, 32, 13, 18, 7, 3, 3, 2, 2, 17, 7, 6, 6, 6, 3, 4, 3, 3, 5, 5, 3, 1, 3, 9, 4, 1, 3, 1, 2, 2, 3, 1, 6, 1, 0, 1, 0, 0, 3, 0, 0, 3, 49, 19, 13, 14, 0, 0, 0, 40, 15, 21, 11, 6, 6, 1, 0, 0, 7434, 72, 0, 0, 0, 0, 0, 0, 0, 0, 0, 0, 0, 0, 0, 0, 0, 0, 0, 0, 0, 0, 0, 0, 0, 2, 0, 0, 0, 2751, 2000, 0, 0, 195, 410, 33, 21, 12, 21, 0, 12, 1723750, 833500, 35, 47305536, 256, -1, 0, 33918119369000
1607, 159, 11, 148, 1479, 31, 8, 23, 3742, 439, 7101, 890, 526, 49, 1766, 2, 1687, 3, 970, 27, 583, 0, 3824, 5440, 3038, 11675, 58, 88, 2, 3, 21, 0, 1237, 1217, 0, 0, 4962, 6, 36, 121, 44, 12, 17, 32, 7, 1217, 12, 27, 44, 1063, 715, 795, 760, 733, 1342, 0, 4125, 587, 216, 1283, 0, 0, 0, 895, 17, 26, 23, 28, 41, 44, 20, 20, 0, 0, 0, 63, 23, 15, 9, 6, 5, 0, 0, 993, 0, 518, 12, 15, 21, 28, 18, 34, 25, 1, 0, 0, 60, 2, 4, 2, 7, 3, 9, 0, 1, 584, 0, 19, 54, 169, 151, 165, 21, 4, 0, 0, 1591, 860, 843, 133, 116, 78, 31, 1, 1, 1, 1, 0, 0, 0, 0, 0, 0, 0, 0, 0, 215, 209, 159, 248, 0, 0, 0, 3, 11, 35, 43, 15, 0, 0, 0, 0, 0, 0, 0, 0, 0, 0, 0, 0, 21, 9, 2, 0, 0, 0, 0, 0, 0, 0, 0, 0, 70, 7, 8, 8, 2, 0, 1, 1, 4, 5, 2, 0, 3, 1, 4, 0, 2, 1, 1, 1, 1, 0, 1, 1, 1, 0, 1, 0, 0, 0, 0, 1, 0, 0, 0, 0, 0, 0, 2, 0, 0, 2, 18, 10, 11, 9, 1, 0, 0, 29, 5, 11, 5, 1, 0, 0, 0, 0, 2880, 15, 0, 0, 0, 0, 0, 0, 0, 0, 0, 0, 0, 0, 0, 0, 0, 0, 0, 0, 0, 0, 0, 0, 0, 2, 0, 0, 0, 1102, 636, 0, 0, 59, 167, 12, 9, 3, 8, 0, 3, 704750, 253500, 11, 1600, 320, 0, 0, 33918122919500
4660, 368, 7, 361, 4228, 111, 40, 71, 9627, 1524, 18873, 2233, 510, 92, 5028, 0, 4726, 1, 2519, 90, 1648, 0, 10394, 14504, 8620, 38138, 154, 120, 61, 40, 26, 0, 4297, 3545, 0, 0, 13673, 16, 189, 123, 114, 73, 101, 68, 37, 3545, 33, 66, 174, 1172, 1378, 3134, 2177, 2509, 4605, 20, 10732, 1803, 706, 3398, 0, 0, 0, 2351, 44, 86, 60, 97, 133, 99, 32, 0, 0, 0, 14, 2, 28, 52, 24, 13, 8, 12, 13, 2736, 0, 1724, 29, 66, 36, 75, 87, 78, 24, 0, 0, 0, 10, 7, 11, 35, 22, 5, 6, 4, 12, 2007, 0, 72, 210, 494, 453, 285, 123, 11, 0, 0, 3708, 3803, 2952, 826, 537, 156, 75, 6, 12, 50, 3, 5, 0, 0, 0, 0, 0, 0, 0, 0, 505, 621, 522, 818, 0, 0, 0, 9, 48, 75, 88, 61, 9, 0, 0, 0, 0, 0, 0, 0, 0, 0, 0, 0, 29, 24, 16, 1, 1, 3, 0, 0, 0, 0, 0, 0, 175, 34, 14, 20, 6, 6, 3, 2, 3, 15, 6, 5, 5, 8, 3, 5, 4, 2, 6, 6, 3, 2, 6, 9, 4, 1, 3, 1, 3, 2, 3, 2, 5, 1, 0, 0, 0, 0, 2, 1, 0, 3, 55, 19, 12, 8, 0, 0, 0, 30, 18, 11, 14, 12, 11, 1, 0, 0, 7676, 78, 0, 0, 0, 0, 0, 0, 0, 0, 0, 0, 0, 0, 0, 0, 0, 0, 0, 0, 0, 0, 0, 0, 0, 2, 0, 0, 0, 2837, 2043, 0, 0, 207, 411, 23, 14, 9, 14, 0, 9, 1552000, 873750, 25, 47317824, 256, -1, 0, 34118117430000
2466, 202, 19, 183, 1805, 48, 6, 41, 4998, 693, 12038, 2499, 415, 104, 2668, 2, 2063, 4, 1127, 34, 812, 0, 5080, 7059, 3975, 17220, 142, 90, 0, 3, 36, 0, 2784, 1828, 0, 0, 7545, 33, 70, 175, 91, 31, 25, 36, 13, 1828, 23, 52, 213, 1162, 1207, 1496, 1352, 1053, 1808, 7, 6640, 790, 379, 1730, 0, 0, 0, 1005, 39, 50, 44, 49, 63, 52, 23, 20, 0, 0, 1, 74, 4, 38, 21, 11, 10, 0, 0, 1186, 0, 698, 27, 23, 28, 46, 42, 29, 23, 4, 0, 0, 60, 5, 12, 10, 7, 6, 9, 2, 1, 808, 0, 25, 70, 263, 221, 198, 30, 5, 0, 0, 2208, 1157, 979, 186, 121, 113, 34, 0, 0, 0, 0, 0, 0, 0, 0, 0, 0, 0, 0, 0, 293, 263, 256, 316, 0, 0, 1, 4, 13, 43, 50, 32, 1, 0, 0, 0, 0, 0, 0, 0, 0, 0, 0, 0, 37, 14, 3, 2, 0, 2, 0, 0, 0, 0, 0, 0, 129, 45, 10, 15, 4, 11, 24, 14, 9, 10, 9, 0, 6, 1, 5, 1, 6, 1, 2, 2, 2, 1, 0, 1, 1, 0, 2, 0, 0, 0, 1, 1, 0, 0, 0, 1, 0, 0, 2, 0, 0, 3, 41, 46, 12, 4, 1, 0, 0, 63, 19, 14, 7, 2, 3, 0, 0, 0, 4089, 19, 0, 0, 0, 0, 0, 0, 0, 0, 0, 0, 0, 0, 0, 0, 0, 0, 0, 0, 0, 0, 0, 0, 0, 2, 0, 0, 0, 1341, 855, 0, 0, 199, 199, 35, 28, 7, 28, 0, 7, 1993250, 562500, 35, 3648, 448, 0, 0, 34118123449000
4253, 371, 8, 363, 4039, 94, 31, 63, 9246, 1033, 17658, 2478, 523, 60, 4624, 0, 4459, 1, 2423, 82, 1585, 0, 9997, 13659, 8113, 35424, 143, 144, 63, 40, 26, 0, 3814, 3204, 0, 0, 12387, 19, 186, 135, 113, 61, 97, 71, 41, 3204, 28, 68, 155, 1187, 1232, 2903, 1626, 2385, 4306, 17, 9734, 1658, 647, 3140, 0, 0, 0, 2175, 31, 58, 58, 77, 128, 110, 46, 2, 0, 0, 24, 2, 24, 45, 12, 14, 1, 9, 6, 2548, 0, 1580, 22, 55, 29, 68, 82, 89, 39, 3, 0, 0, 7, 2, 5, 47, 20, 5, 2, 3, 7, 1869, 0, 69, 201, 472, 445, 269, 118, 11, 0, 0, 3431, 3339, 3022, 790, 511, 169, 67, 6, 12, 44, 3, 5, 0, 0, 0, 0, 0, 0, 0, 0, 489, 591, 505, 786, 0, 0, 1, 7, 52, 71, 76, 62, 10, 0, 0, 0, 0, 0, 0, 0, 0, 0, 0, 0, 16, 19, 8, 2, 1, 0, 0, 0, 0, 0, 0, 0, 134, 32, 13, 19, 9, 2, 1, 0, 3, 16, 7, 5, 6, 7, 4, 5, 4, 2, 7, 5, 3, 1, 3, 9, 3, 2, 3, 1, 2, 1, 2, 1, 5, 2, 0, 0, 0, 0, 1, 0, 0, 3, 32, 14, 9, 3, 1, 0, 0, 21, 10, 13, 7, 5, 5, 1, 0, 0, 7192, 71, 0, 0, 0, 0, 0, 0, 0, 0, 0, 0, 0, 0, 0, 0, 0, 0, 0, 0, 0, 0, 0, 0, 0, 2, 0, 0, 0, 2654, 1915, 0, 0, 190, 408, 20, 17, 3, 17, 0, 3, 1582250, 238750, 22, 47316864, 192, -1, 0, 34318114638500
1581, 145, 5, 140, 1479, 30, 8, 22, 3744, 420, 6254, 508, 598, 35, 1726, 1, 1686, 5, 970, 27, 584, 0, 3825, 5435, 3026, 11183, 58, 82, 0, 1, 21, 0, 1246, 1182, 0, 0, 4839, 5, 39, 131, 41, 10, 18, 30, 7, 1182, 15, 25, 45, 1121, 653, 730, 801, 741, 1223, 6, 3673, 588, 215, 1270, 0, 0, 0, 880, 13, 20, 19, 31, 51, 39, 22, 20, 0, 0, 0, 61, 35, 12, 11, 6, 4, 0, 0, 966, 0, 531, 12, 8, 11, 19, 37, 37, 26, 4, 0, 0, 63, 1, 3, 2, 0, 7, 11, 0, 1, 597, 0, 19, 55, 169, 151, 165, 21, 4, 0, 0, 1578, 878, 849, 134, 115, 81, 31, 1, 1, 1, 1, 0, 0, 0, 0, 0, 0, 0, 0, 0, 216, 208, 160, 246, 0, 0, 0, 2, 8, 39, 43, 14, 1, 0, 0, 0, 0, 0, 0, 0, 0, 0, 0, 0, 16, 11, 1, 0, 0, 0, 0, 0, 0, 0, 0, 0, 56, 7, 8, 8, 2, 0, 1, 0, 4, 5, 2, 0, 3, 1, 5, 0, 1, 1, 1, 1, 1, 0, 1, 0, 1, 0, 2, 0, 0, 0, 0, 1, 0, 0, 0, 0, 0, 0, 2, 0, 0, 1, 16, 5, 8, 6, 0, 0, 0, 16, 5, 8, 6, 1, 0, 0, 0, 0, 2851, 15, 0, 0, 0, 0, 0, 0, 0, 0, 0, 0, 0, 0, 0, 0, 0, 0, 0, 0, 0, 0, 0, 0, 0, 2, 0, 0, 0, 1089, 643, 0, 0, 58, 164, 6, 5, 1, 4, 0, 1, 377750, 89250, 5, 1216, 320, 0, 0, 34318117765500
5919, 325, 22, 303, 4542, 120, 40, 80, 10509, 1410, 65222, 4211, 161, 103, 6244, 4, 5156, 5, 2854, 76, 1729, 0, 11145, 15632, 9220, 84489, 131, 81, 59, 21, 29, 0, 48036, 4290, 0, 0, 17500, 10, 171, 236, 118, 138, 73, 54, 28, 4290, 40, 91, 194, 1338, 1358, 5983, 3722, 2752, 3832, 17, 54629, 2114, 754, 3513, 0, 0, 0, 2521, 47, 58, 73, 69, 125, 101, 33, 28, 109, 0, 26, 1, 28, 32, 20, 27, 8, 9, 6, 3007, 0, 1788, 26, 48, 34, 73, 68, 62, 23, 11, 22, 0, 6, 2, 15, 50, 22, 9, 3, 5, 6, 2037, 0, 53, 214, 454, 593, 315, 77, 23, 0, 0, 4192, 3499, 2906, 1032, 443, 116, 52, 5, 23, 25, 3, 5, 0, 0, 0, 0, 0, 0, 0, 0, 494, 706, 529, 882, 0, 0, 2, 0, 33, 128, 74, 62, 12, 0, 0, 0, 0, 0, 0, 0, 0, 0, 0, 0, 29, 18, 10, 2, 3, 2, 0, 0, 0, 0, 0, 0, 264, 28, 12, 16, 11, 4, 43, 1, 7, 16, 12, 5, 6, 5, 5, 3, 2, 3, 5, 4, 4, 1, 6, 8, 0, 2, 45, 0, 2, 0, 0, 0, 4, 3, 0, 0, 0, 1, 1, 0, 1, 12, 37, 26, 23, 7, 0, 0, 0, 51, 10, 19, 13, 6, 5, 1, 0, 0, 8164, 69, 0, 0, 0, 0, 0, 0, 0, 0, 0, 0, 0, 0, 0, 0, 0, 0, 0, 0, 0, 0, 0, 0, 0, 2, 0, 0, 0, 3193, 2074, 0, 0, 272, 326, 72, 47, 24, 47, 0, 22, 3288000, 2010500, 165, 20249408, 704, -1, 0, 34403720381500
2078, 203, 21, 182, 1872, 59, 16, 43, 4352, 808, 15044, 6005, 289, 98, 2281, 0, 2074, 3, 1202, 45, 705, 0, 4507, 5973, 3688, 15919, 70, 237, 27, 97, 100, 0, 1848, 1765, 0, 0, 6714, 14, 33, 61, 33, 69, 14, 26, 28, 1765, 15, 49, 95, 141, 641, 2396, 943, 916, 2089, 8, 6413, 751, 289, 1586, 0, 0, 0, 1203, 30, 40, 42, 55, 35, 24, 12, 8, 6, 0, 0, 4, 3, 29, 13, 6, 17, 6, 0, 1377, 0, 614, 19, 15, 27, 47, 39, 32, 15, 0, 0, 0, 2, 4, 9, 1, 10, 1, 2, 0, 1, 778, 0, 22, 49, 187, 227, 183, 33, 4, 0, 0, 1399, 1910, 1034, 562, 226, 19, 45, 1, 0, 0, 0, 0, 0, 0, 0, 0, 0, 0, 0, 0, 170, 312, 223, 398, 0, 0, 1, 0, 10, 30, 62, 25, 0, 0, 0, 0, 0, 0, 0, 0, 0, 0, 0, 0, 44, 18, 5, 3, 1, 4, 0, 0, 0, 0, 0, 0, 124, 10, 8, 8, 1, 4, 0, 4, 1, 7, 5, 1, 2, 1, 2, 2, 3, 2, 0, 1, 0, 1, 1, 2, 0, 2, 1, 0, 1, 0, 0, 0, 1, 0, 0, 1, 1, 0, 2, 0, 0, 3, 48, 29, 12, 8, 1, 0, 0, 45, 25, 13, 10, 7, 2, 1, 0, 0, 3482, 7, 0, 0, 0, 0, 0, 0, 0, 0, 0, 0, 0, 0, 0, 0, 0, 0, 0, 0, 0, 0, 0, 0, 0, 2, 0, 0, 0, 1389, 763, 0, 0, 79, 134, 96, 78, 18, 78, 0, 17, 5194000, 1337250, 95, 7872, 704, 674, 0, 34403727903500
141016, 8891, 303, 8588, 114247, 3496, 1305, 2191, 262015, 30573, 699056, 25719, 374, 2904, 150458, 191, 127056, 122, 68893, 5340, 49245, 0, 287579, 362356, 222637, 1496019, 11064, 2853, 319, 98, 395, 0, 358328, 130240, 0, 0, 392309, 1622, 3482, 2345, 3192, 1842, 1984, 2458, 1319, 130240, 997, 2042, 4366, 10153, 51277, 84949, 76550, 83948, 131130, 508, 524000, 33685, 17164, 98488, 0, 0, 0, 59111, 1409, 1643, 2485, 3527, 3745, 3675, 136, 1, 0, 0, 230, 193, 204, 612, 842, 384, 152, 53, 1334, 71728, 0, 46993, 685, 1068, 1497, 2449, 4078, 3211, 700, 0, 0, 0, 241, 18, 449, 123, 779, 183, 108, 406, 338, 58036, 0, 1991, 8447, 13532, 13325, 9509, 2182, 259, 0, 0, 94307, 86297, 40696, 22501, 12364, 5658, 2981, 300, 131, 176, 0, 0, 0, 0, 0, 0, 0, 0, 0, 0, 18112, 14014, 17119, 18852, 0, 0, 4, 99, 922, 2466, 2699, 1810, 110, 0, 0, 0, 0, 0, 0, 0, 0, 0, 0, 0, 1191, 518, 151, 45, 90, 13, 1, 0, 0, 0, 0, 0, 6160, 1638, 1130, 1124, 315, 273, 5, 369, 366, 1044, 276, 326, 48, 139, 227, 310, 406, 358, 277, 137, 140, 401, 350, 179, 48, 135, 47, 3, 134, 43, 88, 3, 88, 180, 220, 47, 88, 45, 44, 0, 45, 151, 1446, 506, 340, 248, 9, 0, 0, 1113, 823, 377, 532, 110, 16, 3, 0, 0, 212262, 97, 0, 0, 0, 0, 0, 0, 0, 0, 0, 0, 0, 0, 0, 0, 0, 0, 0, 0, 0, 0, 0, 0, 0, 2, 0, 0, 0, 74505, 57916, 0, 0, 11207, 11083, 350, 281, 67, 279, 0, 67, 21448500, 5452250, 618, 107584, 2432, 0, 0, 34404077431500
3982, 556, 43, 513, 3987, 141, 42, 99, 9014, 1278, 34902, 14338, 258, 96, 4538, 5, 4441, 1, 2402, 84, 1539, 0, 9829, 13475, 8051, 38165, 145, 65, 67, 37, 9, 0, 5159, 3141, 0, 0, 12250, 19, 171, 100, 112, 63, 102, 69, 43, 3141, 33, 86, 180, 997, 1248, 2555, 1656, 2282, 4633, 20, 14986, 1828, 653, 3096, 0, 0, 0, 2178, 37, 76, 63, 98, 139, 118, 22, 1, 0, 0, 7, 1, 20, 53, 11, 11, 2, 6, 6, 2615, 0, 1554, 29, 58, 32, 84, 100, 94, 39, 2, 0, 0, 7, 5, 6, 29, 9, 10, 3, 3, 8, 1912, 0, 70, 202, 451, 417, 270, 118, 11, 0, 0, 3656, 3191, 2604, 730, 415, 147, 48, 5, 11, 28, 0, 0, 0, 0, 0, 0, 0, 0, 0, 0, 465, 582, 492, 776, 0, 0, 1, 7, 54, 67, 75, 58, 11, 0, 0, 0, 0, 0, 0, 0, 0, 0, 0, 0, 33, 22, 11, 2, 0, 3, 0, 0, 0, 0, 0, 0, 172, 35, 12, 17, 8, 4, 3, 4, 2, 18, 14, 6, 2, 8, 3, 3, 4, 1, 3, 5, 6, 1, 1, 9, 2, 2, 3, 2, 0, 0, 0, 1, 5, 2, 2, 2, 1, 0, 0, 1, 0, 6, 45, 32, 10, 4, 1, 0, 0, 38, 18, 20, 12, 7, 5, 0, 0, 0, 7078, 72, 0, 0, 0, 0, 0, 0, 0, 0, 0, 0, 0, 0, 0, 0, 0, 0, 0, 0, 0, 0, 0, 0, 0, 2, 0, 0, 0, 2671, 1924, 0, 0, 198, 454, 171, 145, 26, 143, 0, 25, 10551750, 2137500, 170, 26996672, 1216, -1, 0, 34518119284500
1490, 185, 15, 170, 1386, 55, 17, 38, 3622, 365, 11172, 4070, 324, 34, 1675, 0, 1618, 1, 918, 27, 573, 0, 3728, 5251, 2933, 12305, 58, 98, 0, 0, 21, 0, 1336, 1159, 0, 0, 4702, 4, 39, 120, 40, 16, 15, 32, 7, 1159, 10, 25, 50, 1048, 618, 749, 618, 630, 1453, 6, 5123, 547, 202, 1230, 0, 0, 0, 788, 13, 22, 24, 44, 55, 38, 26, 18, 0, 0, 3, 65, 0, 6, 14, 3, 3, 6, 6, 922, 0, 516, 8, 10, 15, 34, 29, 28, 25, 4, 0, 0, 58, 1, 0, 2, 5, 1, 9, 0, 1, 592, 0, 19, 55, 170, 153, 150, 22, 4, 0, 0, 1451, 881, 841, 105, 100, 96, 36, 0, 0, 0, 0, 0, 0, 0, 0, 0, 0, 0, 0, 0, 201, 208, 164, 242, 0, 0, 0, 4, 8, 39, 43, 10, 1, 0, 0, 0, 0, 0, 0, 0, 0, 0, 0, 0, 19, 11, 1, 0, 0, 0, 0, 0, 0, 0, 0, 0, 55, 7, 8, 9, 2, 1, 1, 0, 3, 6, 3, 0, 4, 1, 4, 0, 2, 1, 1, 1, 1, 0, 0, 0, 0, 0, 1, 0, 0, 0, 0, 1, 0, 0, 0, 0, 0, 0, 1, 0, 0, 1, 18, 11, 6, 1, 0, 0, 0, 18, 5, 8, 5, 1, 0, 0, 0, 0, 2784, 15, 0, 0, 0, 0, 0, 0, 0, 0, 0, 0, 0, 0, 0, 0, 0, 0, 0, 0, 0, 0, 0, 0, 0, 2, 0, 0, 0, 1030, 632, 0, 0, 58, 156, 54, 44, 9, 44, 0, 9, 3309000, 693000, 54, 4672, 896, 0, 0, 34518124870500
4279, 360, 14, 346, 4045, 90, 34, 56, 9261, 1079, 20087, 4490, 461, 68, 4639, 0, 4456, 1, 2421, 82, 1585, 0, 10012, 13705, 8153, 35893, 143, 115, 47, 34, 26, 0, 3980, 3200, 0, 0, 12448, 19, 189, 132, 112, 60, 101, 71, 35, 3200, 31, 67, 152, 1206, 1317, 2763, 1659, 2240, 4516, 16, 10068, 1746, 651, 3131, 0, 0, 0, 2186, 35, 66, 57, 80, 120, 111, 35, 3, 0, 0, 23, 3, 22, 39, 9, 12, 1, 9, 6, 2569, 0, 1572, 26, 60, 28, 67, 78, 95, 32, 0, 0, 0, 7, 2, 8, 26, 18, 6, 2, 3, 7, 1879, 0, 69, 201, 472, 444, 269, 119, 11, 0, 0, 3454, 3531, 2847, 784, 476, 183, 68, 6, 11, 36, 3, 5, 0, 0, 0, 0, 0, 0, 0, 0, 489, 592, 504, 786, 0, 0, 0, 10, 50, 74, 72, 63, 10, 0, 0, 0, 0, 0, 0, 0, 0, 0, 0, 0, 22, 17, 11, 0, 1, 1, 0, 0, 0, 0, 0, 0, 143, 31, 13, 19, 9, 4, 2, 0, 4, 16, 5, 5, 5, 6, 3, 6, 3, 1, 6, 4, 3, 1, 4, 9, 3, 1, 2, 2, 2, 2, 3, 1, 5, 2, 0, 0, 0, 0, 2, 0, 0, 4, 37, 16, 8, 7, 0, 0, 0, 27, 14, 13, 6, 6, 6, 1, 0, 0, 7235, 71, 0, 0, 0, 0, 0, 0, 0, 0, 0, 0, 0, 0, 0, 0, 0, 0, 0, 0, 0, 0, 0, 0, 0, 2, 0, 0, 0, 2663, 1906, 0, 0, 189, 356, 48, 41, 6, 41, 0, 6, 3297000, 498500, 50, 47317760, 128, -1, 0, 34718111540000
1574, 146, 7, 139, 1465, 33, 12, 21, 3742, 395, 6273, 522, 596, 31, 1720, 1, 1678, 3, 970, 27, 583, 0, 3824, 5428, 3022, 11152, 58, 89, 0, 1, 21, 0, 1067, 1167, 0, 0, 4811, 5, 40, 133, 44, 13, 16, 30, 7, 1167, 14, 25, 42, 1113, 657, 749, 762, 658, 1311, 5, 3699, 577, 217, 1258, 0, 0, 0, 870, 12, 20, 16, 24, 48, 49, 29, 20, 0, 0, 0, 61, 30, 12, 10, 4, 4, 0, 0, 967, 0, 522, 8, 7, 12, 28, 38, 36, 16, 4, 0, 0, 62, 1, 3, 2, 5, 1, 9, 0, 1, 587, 0, 19, 54, 169, 151, 165, 21, 4, 0, 0, 1563, 866, 829, 158, 119, 81, 31, 1, 1, 1, 1, 0, 0, 0, 0, 0, 0, 0, 0, 0, 215, 209, 159, 248, 0, 0, 1, 3, 15, 34, 43, 10, 1, 0, 0, 0, 0, 0, 0, 0, 0, 0, 0, 0, 13, 10, 1, 0, 0, 0, 0, 0, 0, 0, 0, 0, 52, 7, 8, 8, 2, 0, 1, 0, 4, 5, 2, 0, 3, 1, 5, 0, 1, 2, 1, 1, 1, 0, 1, 0, 1, 0, 2, 0, 0, 0, 0, 1, 0, 0, 0, 0, 0, 0, 1, 0, 0, 1, 13, 5, 7, 5, 1, 0, 0, 13, 4, 8, 5, 2, 0, 0, 0, 0, 2848, 16, 0, 0, 0, 0, 0, 0, 0, 0, 0, 0, 0, 0, 0, 0, 0, 0, 0, 0, 0, 0, 0, 0, 0, 2, 0, 0, 0, 1081, 641, 0, 0, 58, 157, 9, 7, 2, 7, 0, 2, 552000, 178000, 9, 1216, 256, 0, 0, 34718114676500
4361, 355, 7, 348, 4078, 87, 26, 61, 9311, 1195, 17723, 1601, 525, 67, 4716, 0, 4501, 1, 2442, 82, 1593, 0, 10073, 13824, 8212, 36515, 143, 118, 69, 40, 155, 0, 4215, 3283, 0, 0, 12712, 16, 190, 131, 114, 62, 102, 74, 37, 3283, 34, 69, 152, 1179, 1250, 2862, 1568, 2558, 4561, 14, 10506, 1760, 666, 3189, 0, 0, 0, 2231, 36, 74, 60, 85, 132, 107, 16, 0, 0, 0, 24, 5, 24, 49, 14, 12, 7, 11, 4, 2591, 0, 1612, 25, 60, 35, 68, 82, 82, 34, 0, 0, 0, 6, 4, 10, 34, 18, 8, 2, 3, 7, 1906, 0, 69, 202, 472, 448, 272, 119, 11, 0, 0, 3504, 3520, 2994, 816, 515, 183, 97, 8, 13, 59, 3, 5, 0, 0, 0, 0, 0, 0, 0, 0, 492, 593, 508, 788, 0, 0, 1, 7, 48, 75, 81, 59, 10, 0, 0, 0, 0, 0, 0, 0, 0, 0, 0, 0, 20, 20, 11, 1, 1, 2, 0, 0, 0, 0, 0, 0, 141, 30, 13, 19, 8, 5, 2, 3, 4, 13, 6, 6, 5, 7, 3, 3, 4, 1, 5, 6, 2, 2, 4, 9, 3, 1, 4, 2, 2, 2, 3, 1, 5, 1, 0, 0, 0, 0, 1, 0, 0, 3, 34, 15, 10, 8, 0, 0, 0, 21, 14, 15, 8, 7, 5, 1, 0, 0, 7285, 73, 0, 0, 0, 0, 0, 0, 0, 0, 0, 0, 0, 0, 0, 0, 0, 0, 0, 0, 0, 0, 0, 0, 0, 2, 0, 0, 0, 2693, 1937, 0, 0, 189, 384, 27, 17, 10, 16, 0, 10, 1254500, 966000, 28, 47318016, 64, -1, 0, 34918108385500
1503, 150, 8, 142, 1413, 23, 4, 19, 3622, 373, 5994, 580, 604, 27, 1653, 1, 1618, 3, 918, 27, 573, 0, 3728, 5272, 2940, 10626, 58, 86, 0, 1, 21, 0, 1079, 1132, 0, 0, 4634, 4, 42, 119, 41, 15, 16, 31, 7, 1132, 9, 24, 40, 962, 630, 697, 684, 625, 1463, 6, 3433, 552, 207, 1222, 0, 0, 0, 805, 13, 20, 16, 22, 47, 52, 29, 20, 0, 0, 0, 61, 1, 8, 13, 2, 0, 0, 0, 939, 0, 515, 10, 8, 15, 30, 32, 37, 16, 4, 0, 0, 49, 1, 3, 2, 5, 2, 9, 0, 1, 595, 0, 19, 55, 170, 153, 150, 22, 4, 0, 0, 1450, 887, 836, 162, 115, 81, 31, 1, 1, 1, 1, 0, 0, 0, 0, 0, 0, 0, 0, 0, 201, 208, 164, 242, 0, 0, 0, 5, 13, 27, 46, 12, 1, 0, 0, 0, 0, 0, 0, 0, 0, 0, 0, 0, 14, 9, 1, 0, 0, 0, 0, 0, 0, 0, 0, 0, 48, 7, 8, 8, 2, 0, 1, 0, 4, 5, 2, 0, 3, 1, 5, 0, 1, 1, 1, 1, 1, 0, 1, 1, 1, 0, 2, 0, 1, 0, 0, 1, 0, 0, 0, 0, 0, 0, 1, 0, 0, 1, 13, 5, 6, 3, 0, 0, 0, 10, 4, 7, 5, 2, 0, 0, 0, 0, 2779, 16, 0, 0, 0, 0, 0, 0, 0, 0, 0, 0, 0, 0, 0, 0, 0, 0, 0, 0, 0, 0, 0, 0, 0, 2, 0, 0, 0, 1026, 637, 0, 0, 59, 162, 5, 5, 0, 5, 0, 0, 416250, 0, 5, 832, 256, 0, 0, 34918111382500
3722, 289, 10, 279, 2949, 94, 30, 64, 7172, 1123, 17409, 1719, 411, 88, 4011, 4, 3303, 2, 1805, 76, 1271, 0, 7741, 10756, 6436, 31046, 133, 99, 60, 20, 26, 0, 6060, 2774, 0, 0, 10770, 13, 174, 114, 78, 51, 71, 42, 33, 2774, 26, 63, 142, 1234, 1138, 2222, 1567, 1796, 3857, 15, 11267, 1339, 563, 2520, 0, 0, 0, 1622, 29, 59, 62, 73, 113, 72, 16, 0, 0, 0, 23, 3, 20, 32, 23, 20, 10, 8, 5, 1902, 0, 1186, 25, 32, 29, 64, 70, 60, 17, 0, 0, 0, 7, 2, 13, 24, 17, 8, 5, 3, 5, 1399, 0, 52, 165, 368, 378, 227, 74, 7, 0, 0, 2792, 2628, 2606, 596, 362, 113, 50, 3, 21, 2, 3, 5, 0, 0, 0, 0, 0, 0, 0, 0, 395, 484, 392, 618, 0, 0, 1, 2, 27, 49, 77, 48, 13, 0, 0, 0, 0, 0, 0, 0, 0, 0, 0, 0, 26, 17, 11, 2, 1, 2, 0, 0, 0, 0, 0, 0, 157, 30, 12, 16, 7, 5, 3, 1, 6, 13, 10, 6, 4, 6, 6, 4, 2, 2, 6, 4, 2, 1, 5, 9, 1, 1, 3, 0, 2, 0, 0, 0, 5, 2, 0, 0, 0, 1, 1, 2, 0, 9, 39, 28, 10, 6, 0, 0, 0, 43, 15, 11, 12, 5, 6, 1, 0, 0, 5898, 73, 0, 0, 0, 0, 0, 0, 0, 0, 0, 0, 0, 0, 0, 0, 0, 0, 0, 0, 0, 0, 0, 0, 0, 2, 0, 0, 0, 2005, 1418, 0, 0, 183, 329, 27, 19, 8, 19, 0, 8, 1440500, 587500, 34, 37873408, 192, -1, 0, 35078183119000
1547, 195, 16, 179, 1442, 45, 7, 38, 2881, 685, 10631, 3401, 271, 73, 1744, 0, 1603, 2, 861, 45, 493, 0, 3177, 4344, 2647, 12650, 70, 32, 25, 4, 1, 0, 1576, 1271, 0, 0, 4984, 7, 37, 22, 32, 22, 9, 26, 21, 1271, 14, 28, 79, 135, 552, 944, 756, 1132, 1821, 7, 5282, 612, 222, 1114, 0, 0, 0, 872, 29, 13, 33, 41, 36, 32, 10, 0, 0, 0, 0, 3, 13, 7, 12, 0, 27, 3, 7, 994, 0, 582, 18, 16, 22, 35, 29, 16, 1, 0, 0, 0, 3, 4, 8, 0, 16, 1, 2, 0, 2, 683, 0, 22, 51, 150, 138, 93, 35, 4, 0, 0, 1274, 1003, 497, 385, 231, 20, 45, 1, 0, 0, 0, 0, 0, 0, 0, 0, 0, 0, 0, 0, 128, 183, 182, 226, 0, 0, 0, 2, 14, 16, 35, 20, 1, 0, 0, 0, 0, 0, 0, 0, 0, 0, 0, 0, 24, 16, 6, 2, 1, 1, 0, 0, 0, 0, 0, 0, 95, 10, 8, 8, 1, 3, 0, 2, 0, 8, 5, 2, 2, 2, 1, 2, 3, 3, 1, 0, 0, 2, 0, 1, 1, 2, 2, 0, 0, 0, 1, 0, 1, 1, 0, 1, 2, 0, 2, 0, 0, 4, 29, 20, 17, 6, 1, 0, 0, 36, 14, 11, 9, 5, 2, 0, 0, 0, 2308, 7, 0, 0, 0, 0, 0, 0, 0, 0, 0, 0, 0, 0, 0, 0, 0, 0, 0, 0, 0, 0, 0, 0, 0, 2, 0, 0, 0, 1002, 674, 0, 0, 79, 174, 46, 38, 8, 38, 0, 8, 2710250, 469000, 46, 4416, 64, 674, 0, 35078188434500
52638, 3619, 398, 3221, 50139, 12535, 9394, 2947, 100033, 21129, 539504, 170278, 185, 2163, 56333, 57, 67694, 313, 28991, 880, 17946, 160, 126938, 176918, 94744, 590965, 2143, 10814, 262, 234, 41103, 0, 147811, 57552, 0, 0, 152315, 756, 1966, 1280, 1483, 1165, 723, 398, 515, 57552, 435, 1196, 3817, 9621, 19789, 35577, 26712, 28495, 44213, 159, 299199, 17469, 7764, 44788, 2, 1, 0, 26368, 826, 724, 1061, 1442, 1222, 820, 391, 401, 1147, 0, 283, 129, 540, 686, 454, 423, 379, 504, 766, 30238, 0, 32487, 424, 489, 544, 835, 808, 661, 182, 135, 811, 0, 239, 180, 356, 1082, 316, 173, 169, 255, 726, 33880, 0, 832, 2760, 4982, 4297, 3019, 1784, 45, 227, 0, 44462, 37888, 18218, 10602, 5185, 1825, 1392, 251, 63, 42, 31, 12, 4, 4, 4, 3, 3, 4, 0, 0, 6933, 5706, 5307, 6888, 0, 1, 45, 221, 550, 1280, 916, 448, 53, 0, 0, 0, 0, 0, 0, 0, 0, 0, 0, 0, 778, 347, 138, 26, 20, 92, 10, 3, 0, 0, 0, 0, 2899, 341, 145, 141, 57, 57, 126, 95, 89, 172, 66, 48, 32, 64, 31, 77, 104, 57, 18, 30, 25, 36, 44, 20, 54, 16, 97, 23, 58, 33, 10, 20, 2, 16, 4, 8, 20, 10, 9, 3, 4, 144, 798, 661, 422, 205, 20, 0, 0, 1146, 384, 297, 246, 150, 83, 17, 0, 3, 86235, 78, 0, 0, 0, 0, 0, 0, 0, 0, 0, 0, 0, 0, 0, 0, 0, 0, 0, 0, 0, 0, 0, 0, 0, 14, 0, 0, 0, 34817, 35777, 0, 0, 2312, 3202, 3414, 1994, 1384, 1988, 0, 1356, 148704000, 111704361, 3550, 343552, 50048, -1, 0, 35078458167500
11597, 284, 37, 247, 8623, 230, 87, 143, 21676, 1718, 99034, 15245, 218, 157, 11881, 19, 9440, 16, 5861, 218, 4202, 64, 22044, 26951, 16613, 133864, 546, 1162, 263, 5, 573, 0, 57981, 7768, 0, 0, 31937, 259, 460, 104, 581, 431, 39, 446, 16, 7768, 75, 180, 390, 649, 7723, 5779, 9104, 9299, 3263, 11, 72243, 2991, 1477, 7078, 0, 0, 0, 5180, 116, 50, 101, 222, 229, 57, 38, 37, 174, 0, 8, 10, 7, 24, 58, 107, 31, 40, 100, 5819, 0, 2856, 21, 33, 28, 53, 66, 81, 52, 73, 316, 0, 12, 5, 17, 9, 2, 23, 18, 42, 78, 3373, 0, 109, 744, 1490, 821, 841, 191, 5, 1, 0, 6803, 6042, 6074, 2107, 878, 213, 445, 79, 1700, 1, 1, 1, 1, 1, 1, 1, 1, 0, 0, 0, 1145, 1537, 1520, 2066, 0, 0, 0, 3, 52, 104, 239, 219, 12, 0, 0, 0, 0, 0, 0, 0, 0, 0, 0, 0, 59, 30, 10, 2, 6, 7, 4, 0, 0, 0, 0, 0, 452, 109, 104, 96, 5, 6, 4, 5, 12, 92, 8, 6, 5, 4, 9, 4, 6, 71, 3, 2, 1, 3, 3, 4, 2, 82, 3, 0, 2, 0, 0, 2, 0, 2, 2, 1, 6, 1, 73, 1, 1, 12, 76, 43, 17, 16, 1, 0, 0, 66, 30, 22, 31, 13, 8, 1, 0, 0, 16688, 4, 0, 0, 0, 0, 0, 0, 0, 0, 0, 0, 0, 0, 0, 0, 0, 0, 0, 0, 0, 0, 0, 0, 0, 4, 0, 0, 0, 6122, 3529, 0, 0, 743, 182, 268, 181, 83, 181, 0, 81, 14212000, 6968000, 276, 29824, 5120, 678, 0, 35078507684500
96162, 4582, 553, 4029, 82382, 13246, 9482, 3623, 194772, 32069, 732366, 234526, 265, 2931, 100784, 164, 102507, 513, 48734, 2590, 34290, 0, 221207, 302564, 165818, 860447, 5782, 15888, 732, 251, 42714, 0, 145758, 86790, 0, 0, 270986, 1473, 4528, 2799, 1835, 1522, 2101, 1132, 557, 86790, 710, 2813, 7863, 22968, 31293, 45716, 43278, 57391, 91660, 330, 376715, 30014, 13387, 77717, 4, 0, 0, 44286, 1314, 1346, 1796, 2304, 2362, 1663, 728, 495, 835, 0, 608, 561, 908, 1038, 937, 668, 898, 716, 1632, 49163, 0, 44658, 805, 788, 1113, 1645, 1550, 1184, 497, 207, 831, 0, 441, 905, 310, 1090, 427, 381, 572, 580, 1372, 47200, 0, 1369, 5234, 10473, 8616, 5553, 2705, 171, 163, 0, 78310, 65594, 38385, 17611, 13173, 3145, 2026, 354, 417, 122, 51, 14, 8, 8, 8, 6, 6, 6, 0, 0, 11159, 12989, 10142, 15696, 0, 0, 33, 197, 704, 1723, 2139, 1335, 101, 0, 0, 0, 0, 0, 0, 0, 0, 0, 0, 0, 1068, 555, 178, 28, 35, 169, 17, 6, 0, 0, 0, 0, 4091, 708, 306, 334, 340, 232, 59, 199, 180, 299, 160, 80, 72, 86, 61, 109, 215, 206, 95, 106, 161, 85, 120, 31, 134, 84, 44, 58, 72, 59, 14, 64, 50, 38, 33, 20, 16, 14, 31, 24, 95, 178, 1072, 889, 570, 247, 46, 0, 0, 1634, 458, 397, 364, 202, 113, 12, 0, 6, 164109, 101, 0, 0, 0, 0, 0, 0, 0, 0, 0, 0, 0, 0, 0, 0, 0, 0, 0, 0, 0, 0, 0, 0, 0, 4, 0, 0, 0, 56228, 51367, 0, 0, 5139, 3771, 4345, 2610, 1702, 2605, 0, 1669, 195122246, 150491170, 4370, 425536, 94016, -1, 0, 35078873867500
2258, 245, 35, 210, 1815, 114, 45, 69, 3969, 761, 30326, 14537, 130, 82, 2503, 3, 2082, 9, 1156, 56, 739, 0, 4343, 5765, 3564, 30790, 123, 58, 4, 9, 173, 0, 7415, 1707, 0, 0, 6778, 31, 73, 32, 51, 37, 19, 40, 12, 1707, 26, 48, 113, 196, 1016, 1359, 1045, 1519, 2243, 9, 13276, 734, 307, 1472, 0, 0, 0, 1067, 33, 24, 33, 49, 64, 39, 35, 11, 0, 0, 3, 11, 1, 15, 12, 17, 8, 1, 15, 1272, 0, 662, 8, 24, 18, 35, 44, 65, 20, 0, 0, 0, 10, 1, 13, 1, 0, 2, 2, 2, 5, 840, 0, 26, 112, 231, 190, 141, 34, 5, 0, 0, 1550, 1487, 595, 390, 219, 90, 86, 4, 3, 3, 0, 0, 0, 0, 0, 0, 0, 0, 0, 0, 190, 285, 264, 338, 0, 0, 1, 3, 7, 33, 46, 28, 4, 0, 0, 0, 0, 0, 0, 0, 0, 0, 0, 0, 36, 13, 8, 1, 4, 4, 0, 0, 0, 0, 0, 0, 130, 19, 15, 13, 5, 5, 2, 3, 5, 15, 6, 3, 0, 1, 5, 3, 6, 3, 2, 3, 3, 1, 2, 2, 1, 2, 2, 0, 2, 0, 2, 1, 0, 4, 3, 0, 1, 1, 2, 1, 1, 4, 36, 24, 10, 9, 1, 0, 0, 36, 15, 12, 11, 6, 4, 4, 0, 0, 3235, 4, 0, 0, 0, 0, 0, 0, 0, 0, 0, 0, 0, 0, 0, 0, 0, 0, 0, 0, 0, 0, 0, 0, 0, 2, 0, 0, 0, 1329, 834, 0, 0, 146, 95, 204, 164, 38, 164, 0, 38, 11818250, 3410250, 210, 16768, 2816, 678, 0, 35078889030500
121241, 5582, 579, 5003, 111457, 12055, 7807, 4213, 276690, 58661, 747976, 188215, 364, 4186, 126878, 45, 131165, 720, 72046, 1644, 49503, 176, 280254, 402324, 213592, 994237, 3801, 16387, 1591, 1088, 33889, 0, 91814, 189477, 0, 0, 328976, 7181, 5378, 3780, 2313, 2241, 2114, 2462, 1807, 189477, 995, 2154, 25057, 31714, 36230, 49107, 58414, 64652, 103381, 378, 398303, 31105, 23278, 107071, 3, 0, 1, 73121, 1772, 1982, 2034, 2605, 2480, 1735, 618, 397, 939, 0, 2604, 4100, 2058, 1521, 1477, 1432, 1555, 1346, 1934, 69656, 0, 47101, 1029, 872, 1062, 1580, 1707, 1355, 604, 151, 445, 0, 579, 1335, 484, 1331, 595, 385, 339, 714, 1300, 48844, 0, 1424, 9558, 16204, 12949, 6409, 2342, 208, 395, 14, 80911, 140871, 72223, 18990, 13277, 7842, 4341, 507, 229, 56, 50, 5, 0, 0, 0, 0, 0, 0, 0, 0, 24888, 13160, 11455, 15622, 0, 0, 22, 160, 1206, 2291, 2617, 1646, 227, 0, 0, 0, 0, 0, 0, 0, 0, 0, 0, 0, 1676, 1029, 329, 56, 33, 264, 47, 5, 0, 0, 0, 0, 5007, 483, 226, 209, 189, 101, 61, 157, 143, 226, 109, 39, 52, 52, 42, 91, 123, 123, 73, 84, 64, 83, 53, 21, 91, 64, 36, 26, 40, 31, 17, 32, 12, 13, 21, 16, 10, 5, 14, 13, 60, 159, 1323, 1781, 788, 329, 63, 0, 0, 2025, 606, 694, 507, 412, 325, 39, 0, 0, 222081, 297, 0, 0, 0, 0, 0, 0, 0, 0, 0, 0, 0, 0, 0, 0, 0, 0, 0, 0, 0, 0, 0, 0, 0, 14, 0, 0, 0, 84439, 53444, 0, 0, 3346, 5829, 4167, 2085, 2048, 2084, 0, 2027, 157290750, 159125413, 4180, 389888, 64256, -1, 0, 35079263018500
2256, 267, 27, 240, 1749, 176, 87, 88, 3751, 902, 34110, 17008, 109, 89, 2523, 5, 2104, 13, 1092, 54, 693, 64, 4215, 5695, 3458, 34079, 120, 44, 7, 3, 60, 0, 7670, 1750, 0, 0, 6775, 34, 62, 29, 46, 29, 25, 38, 24, 1750, 25, 55, 90, 179, 1028, 1476, 980, 1432, 2311, 8, 14566, 756, 295, 1484, 0, 1, 0, 1049, 37, 35, 47, 57, 51, 33, 32, 0, 0, 0, 2, 8, 6, 10, 28, 10, 18, 6, 22, 1231, 0, 766, 16, 33, 31, 45, 44, 41, 10, 0, 0, 0, 7, 3, 20, 1, 6, 2, 5, 12, 8, 922, 0, 25, 104, 215, 180, 126, 37, 5, 1, 0, 1571, 1360, 541, 435, 139, 72, 85, 6, 4, 3, 3, 1, 1, 1, 1, 1, 1, 0, 0, 0, 180, 271, 242, 306, 0, 0, 0, 2, 8, 33, 44, 30, 0, 1, 0, 0, 0, 0, 0, 0, 0, 0, 0, 0, 37, 20, 5, 0, 2, 5, 0, 0, 0, 0, 0, 0, 138, 19, 12, 12, 5, 5, 0, 3, 5, 16, 8, 4, 4, 1, 6, 2, 2, 3, 3, 2, 3, 1, 3, 0, 2, 4, 2, 0, 2, 0, 1, 1, 0, 3, 1, 1, 3, 1, 0, 1, 1, 6, 39, 27, 12, 7, 0, 0, 0, 44, 13, 15, 11, 7, 5, 1, 0, 0, 3123, 4, 0, 0, 0, 0, 0, 0, 0, 0, 0, 0, 0, 0, 0, 0, 0, 0, 0, 0, 0, 0, 0, 0, 0, 4, 0, 0, 0, 1297, 917, 0, 0, 144, 115, 231, 180, 49, 180, 0, 47, 13461500, 4230250, 235, 15168, 2752, 678, 0, 35079280073500
70688, 2688, 307, 2381, 36497, 3652, 2151, 1501, 92002, 15799, 424792, 146751, 214, 1210, 73399, 54, 42219, 240, 22528, 704, 21308, 16, 99335, 133188, 76481, 1354508, 1547, 1807, 323, 276, 6872, 0, 104254, 46710, 0, 0, 153123, 1287, 1193, 5443, 511, 544, 683, 523, 293, 46710, 3458, 1086, 5241, 8921, 87446, 15257, 14985, 19522, 31087, 114, 220529, 17042, 6826, 33642, 1, 1, 0, 20829, 493, 502, 655, 832, 908, 578, 199, 131, 1201, 0, 231, 837, 442, 235, 246, 232, 266, 338, 532, 22969, 0, 14689, 299, 288, 412, 601, 662, 553, 197, 152, 1362, 0, 123, 47, 79, 178, 133, 83, 109, 127, 269, 18067, 0, 420, 5379, 8380, 4413, 1779, 838, 71, 27, 1, 31185, 33536, 22680, 5304, 4306, 1665, 558, 97, 87, 17, 3, 3, 3, 4, 0, 0, 0, 0, 0, 0, 9447, 5466, 6395, 7622, 0, 1, 9, 807, 180, 648, 687, 451, 37, 1, 0, 0, 0, 0, 0, 0, 0, 0, 0, 0, 425, 272, 98, 20, 13, 127, 24, 3, 0, 0, 0, 0, 3077, 199, 88, 87, 88, 58, 34, 52, 45, 102, 54, 28, 38, 23, 1505, 35, 44, 65, 31, 38, 24, 22, 27, 10, 36, 35, 10, 5, 9, 12, 9, 10, 5, 3, 5, 16, 3, 7, 3, 9, 32, 67, 444, 420, 235, 85, 17, 0, 0, 518, 224, 150, 169, 131, 102, 27, 0, 0, 79243, 87, 0, 0, 0, 0, 0, 0, 0, 0, 0, 0, 0, 0, 0, 0, 0, 0, 0, 0, 0, 0, 0, 0, 0, 5, 0, 0, 0, 25494, 18646, 0, 0, 2928, 1655, 2499, 1642, 818, 1639, 0, 796, 119033250, 65925555, 2512, 190016, 30208, -1, 0, 35079492469500
2787, 255, 33, 222, 2197, 156, 75, 81, 4925, 793, 32155, 12148, 153, 88, 3042, 2, 2545, 13, 1402, 64, 924, 64, 5355, 6958, 4237, 38412, 143, 111, 9, 2, 117, 0, 10492, 2022, 0, 0, 8038, 44, 90, 38, 93, 57, 24, 63, 17, 2022, 26, 56, 116, 238, 1463, 1503, 1506, 1724, 2455, 8, 16999, 852, 355, 1801, 0, 0, 0, 1278, 39, 27, 44, 73, 79, 30, 20, 11, 0, 0, 3, 7, 6, 11, 10, 28, 8, 7, 24, 1497, 0, 859, 14, 26, 23, 35, 36, 50, 25, 36, 11, 0, 10, 6, 12, 2, 6, 7, 1, 11, 7, 1053, 0, 30, 146, 296, 226, 177, 43, 5, 1, 0, 1859, 1672, 930, 500, 204, 105, 58, 9, 95, 2, 4, 1, 1, 1, 1, 1, 1, 0, 0, 0, 241, 351, 332, 430, 0, 0, 0, 2, 11, 39, 56, 41, 2, 0, 0, 0, 0, 0, 0, 0, 0, 0, 0, 0, 50, 9, 6, 0, 4, 4, 2, 0, 0, 0, 0, 0, 149, 23, 18, 17, 6, 6, 2, 4, 4, 21, 3, 4, 3, 3, 5, 2, 4, 8, 3, 1, 1, 0, 4, 3, 2, 7, 2, 1, 1, 0, 1, 0, 0, 4, 3, 1, 3, 1, 6, 1, 1, 7, 38, 25, 14, 11, 1, 0, 0, 43, 16, 12, 12, 10, 5, 0, 0, 0, 3945, 4, 0, 0, 0, 0, 0, 0, 0, 0, 0, 0, 0, 0, 0, 0, 0, 0, 0, 0, 0, 0, 0, 0, 0, 4, 0, 0, 0, 1574, 1064, 0, 0, 183, 142, 181, 140, 39, 140, 0, 39, 10267750, 3110250, 187, 15872, 2240, 678, 0, 35079508547000
45335, 1217, 113, 1104, 16057, 799, 475, 324, 39533, 4116, 168889, 49118, 234, 363, 46554, 27, 17331, 29, 10085, 148, 11373, 0, 45089, 56095, 35201, 471878, 295, 94, 12, 13, 1249, 0, 57245, 14834, 0, 0, 82875, 102, 218, 4617, 139, 168, 77, 82, 54, 14834, 3196, 529, 1110, 2436, 80320, 3987, 3033, 4410, 8485, 24, 93663, 10606, 2495, 13007, 0, 0, 0, 8236, 131, 160, 211, 279, 227, 167, 119, 133, 1217, 0, 19, 21, 46, 45, 28, 28, 36, 83, 146, 10428, 0, 5018, 72, 76, 91, 172, 219, 187, 99, 81, 1373, 0, 32, 5, 32, 16, 35, 16, 28, 61, 118, 7045, 0, 53, 3325, 5176, 2102, 483, 207, 27, 0, 0, 15536, 11827, 7913, 886, 593, 376, 140, 23, 65, 29, 9, 6, 8, 3, 4, 3, 0, 0, 0, 0, 5152, 2447, 3774, 4114, 0, 0, 1, 793, 45, 164, 162, 76, 5, 0, 0, 0, 0, 0, 0, 0, 0, 0, 0, 0, 143, 62, 20, 4, 5, 9, 3, 0, 0, 0, 0, 0, 1971, 56, 23, 24, 10, 6, 17, 11, 11, 28, 21, 13, 16, 13, 1489, 12, 7, 15, 7, 5, 4, 2, 10, 1, 12, 5, 2, 0, 2, 1, 1, 0, 2, 0, 3, 0, 1, 2, 1, 4, 3, 23, 156, 90, 72, 26, 6, 0, 0, 178, 80, 52, 41, 18, 10, 0, 0, 0, 35266, 22, 0, 0, 0, 0, 0, 0, 0, 0, 0, 0, 0, 0, 0, 0, 0, 0, 0, 0, 0, 0, 0, 0, 0, 2, 0, 0, 0, 10732, 7237, 0, 0, 1854, 851, 673, 549, 120, 547, 0, 120, 40711000, 8920249, 692, 66304, 6336, -1, 0, 35079592991500
2037, 263, 18, 245, 1710, 103, 41, 62, 3733, 638, 21917, 8150, 170, 67, 2300, 2, 1983, 9, 1090, 54, 689, 0, 4132, 5458, 3324, 27950, 120, 27, 1, 0, 12, 0, 6321, 1603, 0, 0, 6201, 34, 48, 31, 50, 29, 22, 30, 14, 1603, 17, 52, 75, 226, 908, 1207, 866, 1055, 2520, 7, 11423, 681, 286, 1377, 0, 0, 0, 971, 30, 22, 44, 44, 70, 36, 29, 0, 0, 0, 2, 5, 12, 13, 5, 3, 10, 1, 20, 1175, 0, 668, 14, 21, 20, 46, 42, 49, 16, 0, 0, 0, 7, 2, 15, 1, 0, 4, 2, 9, 5, 831, 0, 26, 102, 215, 178, 126, 37, 5, 0, 0, 1543, 1264, 530, 384, 140, 75, 18, 1, 1, 1, 2, 0, 0, 0, 0, 0, 0, 0, 0, 0, 179, 269, 241, 304, 0, 0, 1, 1, 10, 30, 42, 29, 3, 0, 0, 0, 0, 0, 0, 0, 0, 0, 0, 0, 27, 12, 8, 3, 1, 0, 0, 0, 0, 0, 0, 0, 113, 19, 14, 12, 5, 3, 1, 4, 4, 17, 6, 7, 1, 3, 5, 0, 3, 5, 4, 2, 1, 0, 3, 1, 2, 3, 2, 2, 1, 0, 1, 1, 0, 2, 2, 1, 2, 1, 0, 0, 1, 4, 28, 23, 8, 6, 1, 0, 0, 34, 9, 8, 10, 7, 3, 0, 0, 0, 3019, 4, 0, 0, 0, 0, 0, 0, 0, 0, 0, 0, 0, 0, 0, 0, 0, 0, 0, 0, 0, 0, 0, 0, 0, 2, 0, 0, 0, 1240, 829, 0, 0, 143, 219, 103, 88, 14, 88, 0, 14, 6608000, 805250, 109, 9280, 1216, 678, 0, 35079603950000
88275, 1969, 160, 1809, 29544, 1476, 901, 574, 74476, 7192, 264967, 51223, 281, 479, 90244, 44, 31797, 45, 18477, 252, 22080, 0, 84739, 104704, 65719, 447858, 495, 157, 39, 27, 2978, 0, 104615, 27464, 0, 0, 157383, 187, 421, 9130, 263, 240, 141, 175, 109, 27464, 6367, 919, 2085, 4408, 159959, 6267, 5464, 7734, 12764, 41, 164894, 19949, 4695, 24206, 0, 0, 0, 14831, 201, 215, 307, 428, 472, 322, 194, 261, 2434, 0, 48, 22, 65, 97, 41, 66, 99, 173, 302, 18752, 0, 9294, 137, 120, 150, 261, 338, 297, 213, 165, 2740, 0, 76, 7, 51, 28, 44, 47, 45, 130, 243, 13044, 0, 121, 6612, 10140, 4002, 792, 371, 42, 0, 0, 28299, 22188, 15333, 2203, 1033, 563, 147, 33, 39, 31, 12, 9, 12, 3, 4, 3, 0, 0, 0, 0, 10113, 4653, 7314, 7944, 0, 1, 4, 1575, 111, 285, 229, 130, 9, 0, 0, 0, 0, 0, 0, 0, 0, 0, 0, 0, 198, 79, 37, 6, 5, 17, 2, 1, 0, 0, 0, 0, 3642, 73, 39, 35, 18, 8, 16, 18, 12, 38, 33, 15, 32, 21, 2969, 26, 13, 26, 8, 9, 10, 8, 10, 3, 14, 7, 3, 3, 6, 4, 2, 3, 0, 4, 0, 3, 1, 0, 4, 3, 5, 36, 216, 140, 84, 19, 10, 0, 0, 233, 98, 75, 60, 35, 9, 1, 0, 0, 66903, 54, 0, 0, 0, 0, 0, 0, 0, 0, 0, 0, 0, 0, 0, 0, 0, 0, 0, 0, 0, 0, 0, 0, 0, 2, 0, 0, 0, 19425, 13420, 0, 0, 3513, 1843, 689, 515, 171, 514, 0, 169, 39413750, 14000999, 709, 82240, 8384, 0, 0, 35079736433500
2659, 441, 27, 414, 2643, 196, 81, 115, 5765, 897, 28197, 8424, 204, 100, 3101, 7, 3078, 9, 1813, 70, 932, 0, 6539, 8941, 5418, 45397, 151, 30, 13, 54, 16, 0, 7465, 2240, 0, 0, 8498, 36, 72, 61, 62, 80, 22, 42, 23, 2240, 21, 88, 188, 269, 1028, 1797, 1177, 1863, 3005, 14, 16148, 1091, 385, 2149, 0, 0, 0, 1665, 49, 46, 67, 100, 109, 43, 4, 7, 0, 0, 3, 8, 10, 29, 25, 22, 20, 29, 39, 1905, 0, 1002, 19, 34, 33, 61, 79, 81, 20, 0, 0, 0, 7, 3, 6, 8, 10, 16, 8, 4, 7, 1260, 0, 29, 121, 283, 225, 200, 56, 18, 0, 0, 2605, 1682, 716, 411, 332, 208, 76, 9, 24, 11, 6, 3, 4, 3, 4, 3, 0, 0, 0, 0, 262, 358, 312, 410, 0, 0, 0, 4, 10, 49, 78, 37, 2, 0, 0, 0, 0, 0, 0, 0, 0, 0, 0, 0, 39, 27, 8, 1, 0, 3, 2, 0, 0, 0, 0, 0, 149, 28, 14, 17, 7, 3, 4, 4, 0, 21, 3, 6, 2, 3, 8, 8, 2, 6, 3, 2, 2, 1, 5, 2, 1, 2, 2, 2, 1, 1, 0, 4, 0, 2, 0, 2, 0, 0, 1, 1, 0, 11, 45, 24, 12, 6, 3, 0, 0, 33, 24, 23, 12, 6, 5, 1, 0, 0, 4545, 4, 0, 0, 0, 0, 0, 0, 0, 0, 0, 0, 0, 0, 0, 0, 0, 0, 0, 0, 0, 0, 0, 0, 0, 2, 0, 0, 0, 2020, 1264, 0, 0, 173, 407, 154, 109, 44, 108, 0, 42, 8216000, 3897250, 159, 13248, 1280, 678, 0, 35079750532000
261277, 3714, 163, 3551, 83640, 1357, 501, 854, 218254, 16518, 621396, 49925, 351, 837, 264993, 111, 87016, 56, 54450, 651, 65594, 0, 243361, 295274, 190190, 1189258, 1388, 758, 387, 154, 3265, 0, 302463, 77494, 0, 0, 456995, 562, 735, 27602, 792, 685, 357, 417, 237, 77494, 18999, 2672, 5546, 11272, 480183, 16898, 13113, 19658, 32761, 108, 433321, 56215, 13190, 68745, 0, 0, 0, 43189, 432, 428, 648, 1047, 1160, 785, 721, 842, 7321, 0, 72, 68, 320, 127, 120, 122, 338, 639, 975, 53792, 0, 21935, 240, 253, 310, 520, 847, 755, 621, 505, 8050, 0, 81, 23, 87, 44, 93, 110, 97, 374, 844, 32283, 0, 258, 19779, 30673, 11929, 2111, 702, 142, 0, 0, 80088, 63695, 45097, 8247, 3500, 1771, 831, 154, 161, 82, 39, 28, 32, 9, 12, 9, 0, 0, 0, 0, 29888, 14341, 21365, 23616, 0, 1, 3, 4720, 255, 663, 715, 384, 17, 0, 0, 0, 0, 0, 0, 0, 0, 0, 0, 0, 324, 161, 52, 22, 7, 16, 3, 0, 0, 0, 0, 0, 10228, 202, 102, 112, 46, 23, 38, 62, 35, 109, 40, 48, 63, 39, 8912, 107, 45, 87, 38, 34, 24, 25, 27, 11, 45, 31, 12, 14, 23, 11, 5, 20, 4, 8, 5, 8, 4, 6, 9, 8, 4, 65, 334, 275, 134, 59, 22, 0, 0, 432, 168, 115, 85, 78, 20, 1, 0, 0, 194777, 120, 0, 0, 0, 0, 0, 0, 0, 0, 0, 0, 0, 0, 0, 0, 0, 0, 0, 0, 0, 0, 0, 0, 0, 2, 0, 0, 0, 56156, 33538, 0, 0, 10454, 4011, 711, 536, 172, 535, 0, 172, 39959750, 13598500, 798, 122752, 13632, 0, 0, 35080061230000
2639, 398, 15, 383, 2638, 183, 77, 106, 5794, 835, 23340, 6571, 248, 87, 3037, 5, 3052, 8, 1819, 70, 939, 0, 6572, 8934, 5438, 37098, 153, 47, 15, 4, 58, 0, 6108, 2178, 0, 0, 8394, 36, 70, 58, 58, 70, 23, 45, 18, 2178, 24, 95, 163, 292, 880, 1934, 1314, 1557, 3071, 11, 13206, 1029, 362, 2172, 0, 0, 0, 1636, 44, 54, 53, 86, 116, 46, 3, 18, 0, 0, 2, 7, 5, 14, 25, 23, 14, 35, 29, 1902, 0, 1007, 18, 28, 28, 56, 83, 67, 33, 4, 0, 0, 6, 1, 7, 7, 16, 21, 4, 2, 5, 1255, 0, 30, 119, 284, 232, 201, 55, 18, 0, 0, 2570, 1806, 697, 406, 408, 169, 92, 7, 6, 10, 5, 3, 4, 3, 4, 3, 0, 0, 0, 0, 266, 360, 313, 414, 0, 0, 0, 0, 15, 50, 75, 38, 3, 0, 0, 0, 0, 0, 0, 0, 0, 0, 0, 0, 32, 25, 8, 3, 0, 1, 0, 0, 0, 0, 0, 0, 136, 28, 14, 16, 6, 3, 3, 3, 1, 23, 3, 8, 2, 5, 8, 5, 3, 5, 5, 2, 3, 1, 6, 0, 2, 1, 2, 1, 0, 0, 0, 3, 0, 2, 0, 1, 0, 2, 1, 0, 1, 7, 41, 22, 14, 5, 2, 0, 0, 33, 19, 21, 10, 6, 4, 0, 0, 0, 4562, 4, 0, 0, 0, 0, 0, 0, 0, 0, 0, 0, 0, 0, 0, 0, 0, 0, 0, 0, 0, 0, 0, 0, 0, 2, 0, 0, 0, 1995, 1260, 0, 0, 171, 433, 85, 65, 20, 65, 0, 19, 5211000, 1642500, 92, 8128, 704, 678, 0, 35080072900000
39484, 1696, 179, 1517, 31111, 1803, 623, 1180, 81685, 13493, 280435, 88851, 289, 1020, 41198, 37, 35651, 186, 20553, 1204, 15493, 0, 83905, 110632, 64707, 321767, 2057, 2189, 289, 208, 1013, 0, 57523, 36019, 0, 0, 107733, 821, 1788, 1457, 710, 843, 1129, 402, 260, 36019, 275, 654, 4089, 10498, 11693, 15134, 18314, 28447, 32569, 102, 145282, 9756, 5895, 30647, 2, 0, 0, 19367, 569, 519, 655, 952, 1031, 595, 199, 38, 53, 0, 544, 451, 203, 282, 290, 304, 592, 742, 938, 19632, 0, 12186, 377, 380, 421, 594, 599, 386, 214, 83, 28, 0, 154, 33, 77, 281, 106, 257, 414, 454, 768, 12724, 0, 475, 2464, 5232, 4201, 2250, 825, 33, 13, 0, 25996, 28711, 20711, 8620, 6069, 2019, 1787, 204, 152, 55, 48, 0, 0, 0, 0, 0, 0, 0, 0, 0, 5080, 5952, 4461, 7188, 0, 0, 2, 28, 270, 689, 836, 567, 33, 0, 0, 0, 0, 0, 0, 0, 0, 0, 0, 0, 360, 235, 56, 12, 16, 115, 23, 5, 0, 0, 0, 0, 1415, 229, 97, 98, 43, 37, 32, 60, 50, 77, 71, 44, 18, 37, 31, 56, 67, 112, 29, 40, 38, 38, 32, 41, 31, 37, 38, 20, 44, 55, 5, 19, 25, 10, 6, 8, 1, 6, 14, 12, 41, 51, 406, 323, 201, 96, 18, 0, 0, 441, 184, 162, 154, 116, 57, 16, 0, 2, 67818, 29, 0, 0, 0, 0, 0, 0, 0, 0, 0, 0, 0, 0, 0, 0, 0, 0, 0, 0, 0, 0, 0, 0, 0, 2, 0, 0, 0, 23198, 14405, 0, 0, 1763, 1179, 1739, 1006, 704, 1004, 0, 697, 74982750, 55086748, 1738, 150464, 16384, 674, 0, 35080213117500
313689, 18959, 881, 18078, 260797, 20775, 13287, 7297, 590666, 73574, 1806654, 247971, 326, 6622, 333743, 281, 304639, 594, 156244, 10715, 110436, 160, 665976, 858419, 509901, 3307633, 22671, 17081, 1158, 397, 42466, 0, 737191, 298962, 0, 0, 860125, 4817, 9858, 6658, 7542, 4664, 5009, 4851, 4009, 298962, 2155, 5481, 13325, 32339, 114070, 196083, 162495, 173739, 280947, 1029, 1213180, 78136, 39463, 227893, 3, 0, 2, 133574, 3369, 3198, 4944, 7390, 8362, 8728, 1736, 459, 1026, 0, 964, 397, 1018, 1761, 1834, 959, 703, 677, 2805, 161668, 0, 121526, 1907, 2436, 3090, 5080, 7705, 7090, 1605, 170, 1056, 0, 585, 399, 1000, 1588, 1614, 462, 459, 954, 801, 143803, 0, 4810, 18790, 30606, 28742, 20482, 6235, 543, 228, 0, 214694, 208077, 91530, 57850, 29733, 12307, 6980, 888, 238, 475, 44, 14, 4, 4, 4, 3, 3, 4, 0, 0, 42157, 31167, 37112, 41292, 0, 1, 50, 417, 2289, 5811, 6044, 3811, 291, 0, 0, 0, 0, 0, 0, 0, 0, 0, 0, 0, 2630, 1111, 490, 100, 103, 121, 32, 1, 0, 0, 0, 0, 13262, 3353, 2238, 2140, 628, 639, 133, 759, 759, 2022, 491, 628, 120, 471, 377, 660, 870, 742, 520, 287, 299, 766, 768, 268, 161, 173, 30, 105, 352, 135, 91, 19, 84, 261, 426, 94, 192, 14, 115, 149, 89, 375, 3103, 1370, 951, 438, 40, 0, 0, 2755, 1767, 773, 991, 402, 163, 18, 0, 4, 484135, 264, 0, 0, 0, 0, 0, 0, 0, 0, 0, 0, 0, 0, 0, 0, 0, 0, 0, 0, 0, 0, 0, 0, 0, 14, 0, 0, 0, 171395, 145323, 0, 0, 22613, 22216, 4517, 2786, 1662, 2778, 0, 1632, 209780468, 143205015, 4988, 579584, 68608, -1, 0, 35081116444500
974, 77, 10, 67, 728, 108, 57, 51, 1665, 382, 11100, 4154, 150, 38, 1052, 1, 929, 5, 468, 25, 277, 64, 1839, 2506, 1466, 10797, 65, 30, 8, 8, 205, 0, 2850, 799, 0, 0, 3026, 5, 32, 12, 19, 10, 6, 11, 16, 799, 8, 21, 94, 72, 370, 755, 445, 641, 910, 3, 5826, 359, 134, 627, 0, 0, 0, 456, 15, 21, 20, 24, 23, 8, 4, 0, 0, 0, 2, 3, 8, 14, 11, 0, 0, 2, 2, 529, 0, 390, 12, 17, 14, 16, 10, 10, 1, 0, 0, 0, 3, 5, 12, 11, 4, 4, 0, 5, 0, 426, 0, 12, 33, 90, 66, 57, 15, 3, 1, 0, 691, 567, 299, 236, 117, 14, 79, 3, 1, 1, 1, 1, 1, 1, 1, 1, 1, 0, 0, 0, 73, 115, 89, 140, 0, 0, 1, 2, 3, 17, 16, 12, 1, 0, 0, 0, 0, 0, 0, 0, 0, 0, 0, 0, 14, 7, 1, 1, 0, 4, 0, 0, 0, 0, 0, 0, 58, 13, 5, 6, 2, 1, 2, 1, 0, 6, 3, 1, 3, 2, 1, 1, 2, 0, 2, 0, 2, 1, 0, 0, 1, 0, 2, 0, 0, 0, 0, 0, 0, 1, 0, 0, 1, 0, 1, 0, 0, 5, 15, 11, 3, 4, 1, 0, 0, 15, 11, 5, 5, 3, 1, 0, 0, 0, 1315, 5, 0, 0, 0, 0, 0, 0, 0, 0, 0, 0, 0, 0, 0, 0, 0, 0, 0, 0, 0, 0, 0, 0, 0, 4, 0, 0, 0, 546, 434, 0, 0, 63, 42, 89, 55, 34, 55, 0, 34, 4526000, 2851250, 89, 7296, 1984, 679, 0, 35081121994500
248016, 5278, 596, 4682, 117615, 10532, 7114, 3285, 292238, 34821, 1055580, 295302, 276, 2471, 253324, 182, 135269, 321, 72546, 2444, 70564, 0, 327248, 420745, 248411, 1462157, 5405, 8054, 742, 171, 26692, 0, 320594, 112437, 0, 0, 508076, 1289, 4520, 20922, 1850, 1683, 2007, 1063, 502, 112437, 13131, 4016, 9415, 27607, 339628, 42709, 43363, 57905, 92055, 313, 579224, 57861, 18711, 104477, 1, 0, 0, 62239, 1326, 1143, 1796, 2449, 2562, 1948, 840, 704, 5255, 0, 667, 519, 722, 716, 695, 512, 940, 1196, 2139, 72156, 0, 48404, 836, 890, 1086, 1729, 1817, 1481, 664, 548, 5685, 0, 276, 92, 222, 851, 441, 349, 974, 1756, 1835, 56344, 0, 1280, 17269, 28600, 14517, 5819, 2814, 199, 66, 0, 107274, 92787, 62287, 17678, 13907, 3840, 2312, 604, 430, 155, 108, 124, 22, 18, 16, 9, 6, 7, 0, 0, 28099, 20133, 22332, 28728, 0, 0, 35, 3303, 717, 1738, 2057, 1227, 102, 0, 0, 0, 0, 0, 0, 0, 0, 0, 0, 0, 904, 494, 147, 31, 28, 195, 33, 2, 0, 0, 0, 0, 9626, 692, 291, 371, 318, 160, 60, 186, 152, 312, 136, 91, 96, 91, 5957, 148, 238, 225, 75, 116, 102, 120, 114, 28, 151, 84, 60, 26, 48, 51, 17, 68, 45, 37, 27, 19, 18, 15, 17, 18, 88, 145, 929, 769, 498, 187, 44, 0, 0, 1307, 395, 317, 307, 233, 114, 23, 0, 5, 252490, 160, 0, 0, 0, 0, 0, 0, 0, 0, 0, 0, 0, 0, 0, 0, 0, 0, 0, 0, 0, 0, 0, 0, 0, 4, 0, 0, 0, 79414, 61553, 0, 0, 10898, 3590, 4830, 3168, 1630, 3163, 0, 1605, 237791531, 130467508, 4892, 485568, 112064, 0, 0, 35081649784500
2658, 484, 47, 437, 2593, 255, 93, 162, 5794, 968, 49794, 26396, 116, 120, 3142, 6, 3089, 13, 1819, 70, 939, 0, 6572, 9007, 5479, 56169, 153, 43, 3, 3, 10, 0, 8834, 2237, 0, 0, 8737, 38, 58, 53, 60, 66, 18, 46, 20, 2237, 26, 88, 171, 332, 1098, 1757, 1368, 1828, 2976, 11, 19714, 1143, 379, 2162, 0, 0, 0, 1628, 52, 57, 59, 96, 106, 59, 4, 12, 9, 0, 3, 11, 2, 31, 14, 23, 1, 5, 1, 1991, 0, 996, 23, 35, 29, 71, 74, 65, 36, 12, 0, 0, 7, 4, 7, 18, 7, 11, 0, 2, 6, 1279, 0, 30, 119, 284, 232, 201, 55, 18, 0, 0, 2641, 1790, 631, 305, 327, 155, 64, 4, 2, 0, 0, 0, 0, 0, 0, 0, 0, 0, 0, 0, 266, 360, 313, 414, 0, 0, 1, 2, 16, 49, 63, 47, 3, 0, 0, 0, 0, 0, 0, 0, 0, 0, 0, 0, 48, 19, 10, 2, 1, 4, 2, 0, 0, 0, 0, 0, 169, 28, 13, 16, 6, 4, 1, 8, 2, 18, 7, 4, 3, 5, 8, 12, 3, 3, 0, 0, 2, 2, 2, 2, 2, 2, 3, 4, 1, 0, 1, 2, 2, 2, 1, 0, 0, 0, 1, 2, 2, 10, 54, 32, 13, 6, 2, 0, 0, 51, 25, 22, 7, 11, 6, 0, 0, 0, 4622, 4, 0, 0, 0, 0, 0, 0, 0, 0, 0, 0, 0, 0, 0, 0, 0, 0, 0, 0, 0, 0, 0, 0, 0, 2, 0, 0, 0, 2023, 1278, 0, 0, 176, 243, 397, 305, 88, 304, 0, 82, 23139250, 7146000, 397, 30848, 5760, 679, 0, 35081674681500
41836, 596, 40, 556, 12952, 249, 91, 158, 33887, 2665, 116214, 23117, 291, 136, 42432, 13, 13456, 5, 8291, 75, 10429, 0, 37875, 45638, 29530, 193887, 173, 88, 21, 0, 408, 0, 48986, 12037, 0, 0, 72158, 97, 106, 4513, 106, 100, 41, 60, 28, 12037, 3098, 482, 801, 1776, 77932, 1889, 1599, 3118, 4719, 17, 71429, 8967, 2063, 10637, 0, 0, 0, 6543, 62, 64, 97, 156, 165, 157, 92, 126, 1191, 0, 30, 7, 58, 23, 35, 15, 53, 70, 144, 8218, 0, 3405, 34, 46, 36, 93, 130, 103, 91, 74, 1310, 0, 17, 2, 3, 11, 11, 22, 26, 62, 223, 4945, 0, 38, 3172, 4898, 1901, 294, 114, 12, 0, 0, 12462, 9956, 7520, 532, 526, 112, 101, 20, 8, 8, 6, 3, 4, 0, 0, 0, 0, 0, 0, 0, 4806, 2205, 3418, 3766, 0, 0, 1, 765, 40, 96, 97, 50, 3, 0, 0, 0, 0, 0, 0, 0, 0, 0, 0, 0, 52, 25, 11, 0, 0, 4, 0, 0, 0, 0, 0, 0, 1643, 24, 9, 9, 6, 3, 7, 8, 5, 12, 5, 5, 11, 8, 1447, 12, 7, 15, 6, 4, 2, 1, 2, 3, 6, 7, 2, 1, 7, 2, 1, 0, 0, 0, 0, 2, 1, 0, 0, 1, 0, 9, 52, 47, 18, 13, 2, 0, 0, 78, 22, 21, 7, 10, 6, 0, 0, 0, 30511, 19, 0, 0, 0, 0, 0, 0, 0, 0, 0, 0, 0, 0, 0, 0, 0, 0, 0, 0, 0, 0, 0, 0, 0, 2, 0, 0, 0, 8559, 5250, 0, 0, 1643, 466, 280, 226, 53, 225, 0, 53, 17775250, 3918750, 287, 32448, 4992, 0, 0, 35081732788500
2490, 396, 24, 372, 2676, 127, 34, 93, 5794, 691, 25578, 9230, 226, 73, 2886, 3, 3019, 9, 1819, 70, 939, 0, 6576, 8844, 5366, 35178, 153, 41, 9, 4, 112, 0, 5833, 2063, 0, 0, 7968, 24, 67, 56, 54, 68, 24, 42, 18, 2063, 22, 64, 136, 246, 914, 1766, 1132, 1602, 2972, 13, 12829, 1053, 373, 2093, 0, 0, 0, 1610, 45, 42, 61, 95, 96, 62, 9, 8, 0, 0, 1, 9, 4, 17, 13, 23, 15, 27, 38, 1881, 0, 969, 22, 27, 32, 56, 81, 66, 35, 4, 0, 0, 5, 2, 7, 7, 15, 7, 4, 2, 5, 1238, 0, 30, 119, 284, 232, 201, 55, 18, 0, 0, 2593, 1669, 640, 329, 365, 176, 75, 3, 2, 5, 0, 0, 0, 0, 0, 0, 0, 0, 0, 0, 266, 360, 313, 414, 0, 0, 0, 1, 14, 51, 65, 48, 2, 0, 0, 0, 0, 0, 0, 0, 0, 0, 0, 0, 30, 17, 8, 2, 0, 0, 1, 0, 0, 0, 0, 0, 125, 26, 15, 15, 6, 3, 3, 3, 4, 18, 6, 5, 3, 6, 7, 7, 5, 4, 2, 1, 3, 4, 3, 0, 1, 3, 2, 1, 0, 1, 0, 3, 0, 1, 1, 1, 0, 1, 2, 0, 1, 7, 37, 21, 10, 2, 1, 0, 0, 29, 18, 15, 9, 4, 3, 0, 0, 0, 4491, 4, 0, 0, 0, 0, 0, 0, 0, 0, 0, 0, 0, 0, 0, 0, 0, 0, 0, 0, 0, 0, 0, 0, 0, 2, 0, 0, 0, 1966, 1247, 0, 0, 171, 381, 109, 97, 12, 96, 0, 11, 7691000, 895500, 115, 9728, 1216, 679, 0, 35081745577500
56282, 618, 39, 579, 27052, 362, 162, 199, 69498, 4862, 144463, 16355, 481, 278, 56900, 40, 28670, 14, 17724, 334, 16200, 0, 72878, 93784, 56651, 263896, 730, 1441, 252, 294, 1735, 0, 56775, 22522, 0, 0, 114094, 171, 224, 5282, 471, 400, 198, 254, 380, 22522, 3177, 692, 1143, 5726, 80449, 14601, 10245, 10838, 14456, 56, 88549, 13772, 3596, 22190, 0, 0, 0, 15297, 125, 256, 192, 315, 389, 459, 229, 162, 1313, 0, 40, 10, 381, 48, 82, 66, 147, 225, 462, 17276, 0, 7848, 149, 178, 201, 311, 297, 324, 194, 251, 1075, 0, 96, 2, 19, 24, 24, 88, 48, 379, 254, 9894, 0, 183, 3988, 6564, 3557, 1283, 587, 38, 0, 0, 21559, 25757, 13635, 4294, 2339, 2019, 135, 17, 8, 8, 6, 4, 4, 0, 0, 0, 0, 0, 0, 0, 6532, 4865, 4803, 6732, 0, 0, 4, 778, 106, 427, 415, 308, 7, 0, 0, 0, 0, 0, 0, 0, 0, 0, 0, 0, 112, 45, 18, 29, 0, 0, 2, 0, 0, 0, 0, 0, 1873, 22, 42, 44, 1, 4, 10, 69, 14, 16, 8, 12, 9, 39, 1447, 11, 16, 21, 37, 2, 4, 2, 7, 28, 8, 29, 36, 4, 3, 1, 25, 11, 0, 7, 1, 1, 0, 1, 0, 0, 2, 42, 94, 126, 36, 15, 5, 0, 0, 180, 25, 31, 34, 42, 9, 0, 0, 0, 56513, 49, 0, 0, 0, 0, 0, 0, 0, 0, 0, 0, 0, 0, 0, 0, 0, 0, 0, 0, 0, 0, 0, 0, 0, 2, 0, 0, 0, 18628, 10595, 0, 0, 1997, 651, 224, 162, 59, 162, 0, 59, 12340750, 4526750, 232, 33280, 11136, 0, 0, 35081817809000
4230, 483, 26, 457, 3658, 248, 53, 195, 9741, 1174, 44714, 15704, 217, 110, 4713, 4, 4329, 13, 2583, 179, 1621, 0, 10412, 13878, 8479, 56851, 295, 182, 9, 2, 15, 0, 9416, 3321, 0, 0, 13018, 35, 112, 96, 101, 74, 38, 54, 24, 3321, 43, 105, 202, 751, 1157, 2397, 3789, 2370, 3641, 9, 23519, 1447, 550, 3493, 0, 0, 0, 2305, 54, 56, 87, 114, 131, 67, 34, 59, 0, 0, 11, 10, 7, 37, 7, 15, 8, 8, 10, 2794, 0, 1373, 88, 78, 73, 92, 83, 71, 22, 20, 0, 0, 16, 1, 5, 9, 76, 11, 7, 3, 9, 1763, 0, 105, 231, 443, 405, 320, 99, 18, 0, 0, 3559, 3524, 1453, 568, 501, 212, 141, 8, 54, 5, 5, 3, 4, 3, 4, 3, 0, 0, 0, 0, 496, 628, 497, 782, 0, 0, 0, 3, 27, 59, 104, 86, 12, 0, 0, 0, 0, 0, 0, 0, 0, 0, 0, 0, 42, 29, 10, 2, 0, 6, 2, 0, 0, 0, 0, 0, 166, 29, 17, 15, 8, 4, 4, 5, 4, 19, 8, 12, 2, 6, 36, 9, 9, 5, 3, 2, 30, 3, 4, 0, 3, 2, 1, 1, 3, 3, 0, 5, 0, 4, 2, 2, 1, 1, 4, 0, 0, 8, 48, 33, 17, 11, 1, 0, 0, 38, 20, 27, 12, 13, 9, 0, 0, 0, 7735, 41, 0, 0, 0, 0, 0, 0, 0, 0, 0, 0, 0, 0, 0, 0, 0, 0, 0, 0, 0, 0, 0, 0, 0, 2, 0, 0, 0, 2810, 1817, 0, 0, 270, 472, 210, 132, 78, 132, 0, 75, 11686000, 6537250, 215, 30400, 124480, 679, 0, 35081889225500
67833, 1368, 109, 1259, 38996, 1619, 979, 638, 99013, 8331, 253279, 72369, 390, 576, 69204, 36, 42961, 49, 25238, 464, 19446, 0, 105556, 141364, 83182, 361489, 1039, 2511, 361, 285, 6593, 0, 66296, 32612, 0, 0, 151868, 416, 664, 5379, 736, 555, 307, 289, 382, 32612, 3261, 1255, 2050, 6106, 84612, 17796, 17030, 19123, 30673, 115, 123701, 19592, 5353, 32261, 1, 0, 0, 21659, 341, 343, 371, 641, 612, 794, 394, 406, 1564, 0, 73, 54, 83, 102, 140, 146, 244, 430, 614, 25239, 0, 13379, 259, 342, 303, 479, 540, 661, 412, 294, 1123, 0, 129, 262, 43, 77, 156, 107, 130, 654, 141, 16093, 0, 333, 4547, 7232, 4408, 1988, 809, 90, 33, 0, 36481, 32379, 17966, 6577, 3630, 1789, 240, 74, 43, 35, 33, 75, 4, 0, 0, 0, 0, 0, 0, 0, 7413, 6329, 5704, 8060, 0, 0, 3, 812, 221, 633, 838, 399, 19, 0, 0, 0, 0, 0, 0, 0, 0, 0, 0, 0, 204, 73, 45, 28, 2, 24, 4, 0, 0, 0, 0, 0, 2250, 97, 56, 73, 43, 36, 13, 79, 15, 32, 23, 10, 18, 40, 1443, 16, 14, 70, 33, 8, 3, 26, 6, 31, 12, 32, 38, 3, 4, 5, 28, 16, 2, 3, 0, 0, 2, 2, 2, 4, 4, 55, 197, 202, 119, 38, 7, 0, 0, 335, 80, 66, 86, 43, 19, 2, 0, 0, 79425, 54, 0, 0, 0, 0, 0, 0, 0, 0, 0, 0, 0, 0, 0, 0, 0, 0, 0, 0, 0, 0, 0, 0, 0, 2, 0, 0, 0, 26993, 17325, 0, 0, 2347, 942, 1034, 750, 277, 749, 0, 273, 56130040, 22495006, 1036, 101760, 30656, 0, 0, 35082015865000
45220, 844, 55, 789, 15738, 408, 107, 301, 41674, 3410, 140126, 24178, 297, 186, 46065, 21, 16779, 14, 10664, 231, 11573, 0, 46153, 56571, 36808, 228755, 415, 282, 29, 10, 506, 0, 58370, 14440, 0, 0, 82082, 127, 160, 4534, 199, 155, 91, 90, 69, 14440, 3119, 526, 1024, 2197, 78204, 5836, 4947, 3858, 6855, 27, 90064, 10134, 2498, 13250, 0, 0, 0, 8711, 117, 95, 171, 224, 263, 166, 127, 162, 1189, 0, 8, 17, 17, 46, 33, 48, 49, 133, 156, 10718, 0, 4007, 103, 86, 115, 130, 189, 160, 182, 169, 1196, 0, 15, 3, 20, 13, 61, 17, 7, 45, 55, 6101, 0, 136, 3287, 5215, 2168, 551, 179, 37, 0, 0, 15246, 12990, 8179, 1086, 953, 661, 217, 38, 42, 8, 6, 6, 8, 6, 8, 6, 0, 0, 0, 0, 5212, 2543, 3818, 4254, 0, 0, 1, 762, 43, 125, 189, 144, 13, 0, 0, 0, 0, 0, 0, 0, 0, 0, 0, 0, 72, 44, 21, 4, 3, 6, 1, 0, 0, 0, 0, 0, 1760, 56, 30, 28, 16, 6, 6, 14, 5, 37, 7, 18, 9, 8, 1460, 45, 19, 17, 9, 7, 9, 4, 5, 2, 9, 7, 5, 0, 4, 4, 0, 6, 2, 2, 3, 1, 6, 3, 7, 1, 3, 17, 73, 55, 33, 17, 6, 0, 0, 72, 40, 34, 23, 17, 17, 1, 0, 0, 36509, 53, 0, 0, 0, 0, 0, 0, 0, 0, 0, 0, 0, 0, 0, 0, 0, 0, 0, 0, 0, 0, 0, 0, 0, 2, 0, 0, 0, 11100, 6220, 0, 0, 1889, 783, 371, 257, 112, 255, 0, 108, 19646250, 8667248, 388, 49152, 98048, 679, 0, 35082122430000
66754, 1068, 81, 987, 37095, 1949, 1329, 619, 91577, 8462, 213339, 42082, 429, 528, 67825, 64, 41394, 25, 23010, 510, 19924, 0, 97786, 129279, 74984, 349215, 1264, 2343, 410, 157, 6468, 0, 67330, 31384, 0, 0, 144632, 400, 738, 5370, 781, 521, 483, 485, 367, 31384, 3272, 1541, 1684, 6421, 83775, 15754, 17460, 18410, 26793, 103, 118001, 17333, 5207, 30715, 0, 0, 0, 19889, 321, 355, 342, 613, 561, 773, 374, 219, 1429, 0, 92, 56, 82, 92, 69, 142, 234, 435, 474, 23200, 0, 14109, 288, 320, 342, 495, 493, 486, 207, 219, 1170, 0, 122, 8, 30, 148, 179, 124, 217, 731, 226, 16344, 0, 525, 4611, 7485, 4273, 2002, 950, 46, 32, 0, 30140, 32638, 18738, 6002, 3726, 1782, 378, 50, 45, 37, 36, 91, 4, 4, 4, 0, 0, 0, 0, 0, 7543, 6523, 5858, 8368, 0, 0, 5, 812, 252, 631, 733, 296, 14, 0, 0, 0, 0, 0, 0, 0, 0, 0, 0, 0, 186, 102, 28, 34, 6, 13, 3, 0, 0, 0, 0, 0, 2213, 92, 57, 98, 109, 70, 14, 89, 17, 32, 22, 16, 15, 39, 1449, 18, 22, 67, 42, 9, 11, 39, 5, 35, 8, 35, 37, 4, 2, 3, 30, 8, 4, 11, 0, 2, 1, 1, 1, 2, 7, 56, 172, 180, 110, 36, 5, 0, 0, 276, 81, 46, 111, 41, 20, 4, 0, 0, 74333, 52, 0, 0, 0, 0, 0, 0, 0, 0, 0, 0, 0, 0, 0, 0, 0, 0, 0, 0, 0, 0, 0, 0, 0, 2, 0, 0, 0, 24781, 17579, 0, 0, 2531, 1139, 624, 420, 201, 420, 0, 198, 33651249, 16937228, 630, 74560, 43456, 0, 0, 35082229099500
3994, 509, 39, 470, 3586, 311, 82, 229, 9690, 1021, 46640, 17449, 207, 103, 4503, 3, 4312, 9, 2572, 175, 1611, 0, 10355, 13781, 8435, 53101, 291, 154, 19, 1, 149, 0, 9578, 3122, 0, 0, 12300, 40, 111, 86, 105, 68, 36, 52, 24, 3122, 36, 121, 211, 740, 1087, 2247, 3713, 2058, 3479, 9, 23769, 1473, 565, 3383, 0, 0, 0, 2256, 50, 56, 72, 113, 142, 80, 36, 48, 19, 0, 12, 6, 10, 21, 14, 17, 7, 11, 8, 2766, 0, 1318, 85, 70, 70, 68, 101, 88, 22, 21, 0, 0, 13, 2, 9, 6, 65, 7, 3, 2, 4, 1732, 0, 104, 231, 440, 402, 317, 99, 18, 0, 0, 3575, 3353, 1466, 460, 462, 170, 137, 5, 48, 1, 2, 0, 0, 0, 0, 0, 0, 0, 0, 0, 494, 625, 492, 778, 0, 0, 0, 1, 27, 53, 104, 88, 16, 0, 0, 0, 0, 0, 0, 0, 0, 0, 0, 0, 42, 23, 12, 2, 1, 4, 1, 0, 0, 0, 0, 0, 159, 30, 18, 14, 9, 4, 3, 4, 3, 22, 5, 9, 2, 5, 37, 7, 9, 5, 3, 2, 34, 2, 4, 1, 1, 2, 1, 1, 1, 1, 1, 4, 0, 2, 1, 1, 2, 0, 5, 1, 1, 9, 43, 29, 14, 11, 2, 0, 0, 31, 23, 19, 13, 14, 8, 1, 0, 0, 7661, 41, 0, 0, 0, 0, 0, 0, 0, 0, 0, 0, 0, 0, 0, 0, 0, 0, 0, 0, 0, 0, 0, 0, 0, 2, 0, 0, 0, 2804, 1785, 0, 0, 261, 481, 241, 164, 77, 164, 0, 77, 14320500, 6578500, 249, 24512, 97856, 679, 0, 35082267084500
63753, 1209, 97, 1112, 32868, 1240, 714, 518, 84324, 7435, 214344, 46882, 393, 512, 64971, 49, 35940, 41, 20347, 493, 19334, 0, 89323, 116667, 68033, 333297, 1564, 1429, 293, 114, 3391, 0, 69289, 28507, 0, 0, 134806, 687, 705, 5289, 555, 427, 456, 396, 289, 28507, 3242, 2566, 1752, 6487, 83365, 11696, 15225, 16658, 23804, 91, 118951, 15762, 4685, 28061, 0, 0, 0, 17474, 283, 324, 360, 580, 593, 670, 262, 151, 1214, 0, 87, 42, 291, 101, 90, 109, 195, 376, 497, 20123, 0, 11937, 258, 246, 336, 436, 438, 471, 209, 215, 1115, 0, 90, 11, 29, 118, 129, 114, 146, 547, 302, 14175, 0, 765, 4422, 7517, 3999, 1773, 809, 49, 0, 0, 26470, 29039, 17933, 5221, 3643, 1305, 497, 56, 45, 29, 27, 65, 7, 4, 4, 3, 3, 3, 0, 0, 7535, 6188, 5611, 8464, 0, 0, 3, 800, 172, 576, 608, 333, 21, 0, 0, 0, 0, 0, 0, 0, 0, 0, 0, 0, 167, 108, 31, 24, 3, 12, 5, 0, 0, 0, 0, 0, 2195, 115, 59, 117, 325, 107, 17, 86, 20, 40, 14, 21, 19, 30, 1450, 20, 29, 67, 34, 22, 11, 30, 17, 27, 17, 26, 32, 8, 6, 7, 15, 14, 7, 2, 3, 1, 3, 1, 1, 3, 13, 45, 183, 166, 94, 31, 8, 0, 0, 269, 73, 54, 96, 45, 16, 0, 0, 0, 69513, 51, 0, 0, 0, 0, 0, 0, 0, 0, 0, 0, 0, 0, 0, 0, 0, 0, 0, 0, 0, 0, 0, 0, 0, 4, 0, 0, 0, 21700, 15248, 0, 0, 2843, 1110, 640, 470, 165, 469, 0, 159, 37180000, 12607248, 646, 71424, 24512, 0, 0, 35082374256500
3763, 539, 42, 497, 3534, 292, 85, 207, 8896, 976, 47210, 17886, 188, 104, 4302, 3, 4163, 10, 2498, 145, 1477, 0, 9684, 12868, 7863, 52577, 253, 232, 18, 48, 89, 0, 10156, 3020, 0, 0, 11768, 39, 99, 85, 97, 81, 39, 53, 26, 3020, 39, 109, 199, 553, 1103, 2178, 2907, 2208, 3789, 10, 24198, 1443, 529, 3153, 0, 0, 0, 2220, 64, 55, 87, 143, 135, 48, 24, 28, 4, 0, 11, 5, 11, 34, 9, 21, 5, 10, 43, 2659, 0, 1300, 66, 58, 62, 71, 89, 90, 21, 20, 0, 0, 10, 2, 14, 7, 37, 11, 2, 5, 6, 1683, 0, 84, 200, 419, 371, 294, 91, 18, 0, 0, 3399, 2924, 1196, 524, 517, 219, 201, 10, 39, 6, 14, 3, 4, 3, 4, 3, 0, 0, 0, 0, 441, 572, 464, 692, 0, 0, 0, 0, 25, 67, 90, 74, 13, 0, 0, 0, 0, 0, 0, 0, 0, 0, 0, 0, 50, 17, 9, 2, 1, 2, 1, 1, 0, 0, 0, 0, 157, 32, 16, 14, 9, 4, 4, 4, 3, 21, 6, 10, 3, 5, 18, 17, 9, 5, 1, 1, 17, 1, 6, 1, 4, 2, 3, 1, 0, 1, 1, 3, 5, 2, 0, 0, 0, 2, 6, 1, 1, 8, 47, 29, 13, 11, 1, 0, 0, 44, 22, 23, 8, 7, 7, 0, 0, 0, 6982, 30, 0, 0, 0, 0, 0, 0, 0, 0, 0, 0, 0, 0, 0, 0, 0, 0, 0, 0, 0, 0, 0, 0, 0, 2, 0, 0, 0, 2738, 1706, 0, 0, 244, 482, 247, 174, 73, 173, 0, 69, 14163000, 6412000, 250, 24256, 69888, 679, 0, 35082407508500
1113751, 8594, 930, 7664, 915027, 19645, 14006, 5514, 2330923, 108865, 12039508, 347509, 193, 7863, 1122476, 122, 1005810, 300, 709687, 3036, 399793, 82, 2178268, 3081629, 1624287, 21802806, 8814, 32879, 2035, 49117, 31996, 0, 9898487, 1355812, 0, 0, 3016404, 94976, 39958, 31973, 97496, 10274, 50084, 7974, 968, 1355812, 15622, 25485, 119871, 93751, 1954150, 564439, 140599, 308796, 207455, 727, 10513568, 369391, 149073, 659960, 7, 0, 0, 626699, 5490, 10286, 18703, 4603, 5160, 6676, 8645, 10987, 37481, 0, 3455, 413, 1310, 20527, 1605, 5009, 6897, 7372, 10289, 677853, 0, 245320, 1905, 2242, 2260, 2990, 4555, 5414, 5925, 5932, 37514, 0, 3754, 15504, 1175, 4232, 1885, 3440, 6289, 4887, 9136, 263755, 0, 27278, 63929, 207241, 37857, 15571, 44004, 1344, 2569, 0, 917849, 971959, 252843, 71951, 52850, 91486, 26047, 25864, 302, 258, 45, 37, 44, 42, 28, 12, 6, 6, 0, 0, 190514, 99385, 109894, 147380, 0, 3, 20, 3309, 15498, 23560, 15242, 5126, 173, 0, 0, 0, 0, 0, 0, 0, 0, 0, 0, 0, 2070, 1814, 414, 41, 52, 134, 23, 4, 0, 0, 0, 0, 35073, 1095, 650, 830, 1671, 770, 188, 199, 1335, 486, 187, 1152, 92, 127, 4684, 128, 143, 19909, 102, 127, 90, 223, 139, 65, 96, 201, 40, 32, 53, 46, 36, 52, 13, 52, 56, 22, 56, 24, 25, 33, 107, 301, 2213, 1330, 1723, 2195, 164, 0, 0, 3851, 1967, 916, 584, 630, 142, 23, 0, 1, 1519013, 38749, 0, 0, 0, 0, 0, 0, 0, 0, 0, 0, 0, 0, 0, 0, 0, 0, 0, 0, 0, 0, 0, 0, 0, 9, 0, 0, 0, 728664, 306794, 0, 0, 35338, 8455, 5269, 3851, 1379, 3841, 0, 1335, 286253250, 108351271, 6525, 1821824, 84096, -1, 0, 35088427262500
1579, 141, 19, 122, 997, 119, 57, 61, 2574, 590, 19746, 9486, 130, 84, 1720, 0, 1235, 5, 595, 17, 444, 64, 2733, 3689, 2106, 15646, 125, 19, 14, 2, 76, 0, 4324, 1172, 0, 0, 4742, 21, 73, 115, 63, 17, 19, 20, 19, 1172, 13, 43, 328, 432, 1078, 801, 660, 674, 1257, 4, 8560, 485, 274, 941, 0, 0, 0, 534, 26, 24, 40, 60, 57, 14, 6, 0, 0, 0, 3, 2, 14, 10, 33, 12, 22, 5, 3, 657, 0, 489, 19, 25, 30, 47, 30, 5, 1, 0, 0, 0, 10, 9, 9, 1, 16, 5, 2, 9, 0, 585, 0, 14, 34, 149, 142, 81, 20, 3, 1, 0, 1235, 662, 295, 171, 138, 23, 67, 2, 1, 1, 1, 1, 1, 1, 1, 1, 1, 0, 0, 0, 138, 159, 147, 178, 0, 0, 0, 4, 12, 16, 18, 26, 1, 0, 0, 0, 0, 0, 0, 0, 0, 0, 0, 0, 42, 7, 2, 1, 0, 4, 0, 1, 0, 0, 0, 0, 95, 32, 8, 13, 3, 12, 18, 27, 14, 7, 5, 2, 2, 1, 0, 2, 4, 0, 2, 1, 1, 0, 0, 0, 0, 2, 0, 1, 0, 0, 0, 0, 0, 0, 0, 0, 2, 0, 0, 0, 0, 4, 29, 42, 8, 4, 1, 0, 0, 49, 23, 12, 4, 3, 1, 0, 0, 0, 2208, 6, 0, 0, 0, 0, 0, 0, 0, 0, 0, 0, 0, 0, 0, 0, 0, 0, 0, 0, 0, 0, 0, 0, 0, 4, 0, 0, 0, 724, 582, 0, 0, 162, 51, 138, 103, 35, 103, 0, 35, 7576750, 2789000, 138, 11968, 2304, -1, 0, 35088437135500
1011, 74, 19, 55, 781, 51, 28, 23, 1690, 328, 7642, 2003, 221, 36, 1086, 0, 912, 3, 480, 32, 287, 0, 1835, 2447, 1465, 8946, 52, 27, 7, 6, 119, 0, 2394, 754, 0, 0, 3007, 3, 38, 22, 14, 14, 9, 23, 10, 754, 4, 15, 62, 85, 404, 745, 373, 650, 993, 4, 4569, 313, 122, 635, 0, 0, 0, 472, 12, 11, 15, 18, 28, 20, 3, 0, 0, 0, 2, 3, 9, 9, 15, 12, 5, 0, 4, 520, 0, 342, 9, 9, 17, 19, 21, 15, 3, 0, 0, 0, 1, 4, 9, 2, 5, 1, 0, 5, 1, 407, 0, 12, 31, 86, 81, 61, 14, 2, 0, 0, 724, 521, 222, 259, 115, 22, 34, 1, 1, 1, 3, 0, 0, 0, 0, 0, 0, 0, 0, 0, 73, 113, 101, 150, 0, 0, 0, 3, 2, 13, 22, 11, 0, 0, 0, 0, 0, 0, 0, 0, 0, 0, 0, 0, 18, 9, 1, 0, 0, 1, 0, 0, 0, 0, 0, 0, 53, 8, 8, 7, 1, 0, 1, 1, 1, 9, 0, 2, 0, 2, 2, 2, 1, 0, 2, 1, 1, 1, 0, 2, 0, 1, 3, 1, 0, 0, 0, 0, 0, 1, 0, 0, 0, 0, 1, 2, 0, 2, 14, 13, 4, 3, 0, 0, 0, 17, 10, 4, 3, 2, 0, 1, 0, 0, 1312, 3, 0, 0, 0, 0, 0, 0, 0, 0, 0, 0, 0, 0, 0, 0, 0, 0, 0, 0, 0, 0, 0, 0, 0, 2, 0, 0, 0, 543, 401, 0, 0, 62, 28, 53, 35, 18, 35, 0, 18, 2335500, 1290750, 53, 4416, 576, 679, 0, 35088440956500
1540812, 1748, 103, 1645, 1268393, 12296, 8543, 3619, 3286760, 100507, 20385957, 30866, 161, 6050, 1542609, 11, 1392411, 73, 1051457, 2334, 583086, 0, 2944599, 4133963, 2165754, 36568183, 4730, 34201, 2664, 76590, 8371, 0, 18137067, 1843146, 0, 0, 4360867, 156550, 57709, 22642, 174730, 14466, 84657, 11047, 425, 1843146, 9677, 19706, 148895, 105686, 3137907, 834590, 148218, 319814, 182667, 671, 18719683, 554867, 214064, 866476, 1, 0, 0, 917794, 5423, 15539, 30708, 3377, 4254, 6672, 11499, 15714, 58941, 0, 1914, 147, 365, 36474, 1232, 5452, 6791, 6563, 11212, 999771, 0, 275173, 869, 1723, 1572, 2087, 4280, 6566, 9106, 10361, 60850, 0, 1696, 20187, 420, 3710, 1933, 3124, 5448, 5992, 11928, 318149, 0, 42480, 86399, 329000, 38746, 15662, 66286, 1693, 2820, 0, 1364410, 1350344, 327798, 65676, 60515, 100848, 25764, 20917, 117, 196, 27, 10, 15, 10, 0, 0, 0, 0, 0, 0, 267992, 155279, 159815, 229002, 0, 0, 3, 1518, 25264, 35885, 18848, 4997, 172, 0, 0, 0, 0, 0, 0, 0, 0, 0, 0, 0, 1027, 1448, 266, 4, 19, 10, 0, 0, 0, 0, 0, 0, 47111, 922, 735, 751, 52, 34, 226, 41, 2350, 418, 85, 1947, 12, 118, 551, 70, 78, 37261, 47, 24, 36, 340, 120, 35, 30, 274, 34, 9, 47, 22, 16, 3, 3, 41, 28, 7, 55, 12, 9, 16, 50, 99, 1157, 568, 1181, 3031, 30, 0, 0, 2332, 2489, 595, 253, 405, 30, 0, 0, 0, 2063681, 42870, 0, 0, 0, 0, 0, 0, 0, 0, 0, 0, 0, 0, 0, 0, 0, 0, 0, 0, 0, 0, 0, 0, 0, 2, 0, 0, 0, 1067580, 367212, 0, 0, 46856, 4829, 508, 329, 178, 329, 0, 177, 25039500, 12492749, 2770, 2476096, 9536, -1, 0, 35098633935000
952, 85, 11, 74, 753, 37, 17, 20, 1577, 312, 6832, 2446, 230, 31, 1038, 0, 871, 3, 455, 26, 275, 0, 1721, 2299, 1388, 7522, 51, 8, 10, 5, 2, 0, 1375, 732, 0, 0, 2817, 9, 36, 18, 18, 11, 12, 18, 16, 732, 7, 24, 45, 87, 454, 545, 462, 643, 871, 5, 3367, 319, 118, 582, 0, 0, 0, 420, 15, 12, 10, 20, 25, 22, 7, 4, 0, 0, 1, 3, 5, 0, 14, 0, 1, 0, 2, 509, 0, 315, 12, 11, 15, 21, 10, 12, 6, 0, 0, 0, 2, 2, 6, 3, 4, 2, 0, 3, 0, 380, 0, 14, 32, 82, 73, 58, 14, 2, 0, 0, 724, 487, 189, 189, 89, 15, 3, 1, 0, 0, 0, 0, 0, 0, 0, 0, 0, 0, 0, 0, 75, 101, 99, 136, 0, 0, 0, 2, 4, 8, 26, 7, 1, 0, 0, 0, 0, 0, 0, 0, 0, 0, 0, 0, 16, 6, 2, 1, 0, 1, 0, 0, 0, 0, 0, 0, 50, 8, 9, 10, 1, 1, 1, 0, 0, 11, 0, 3, 0, 1, 1, 2, 4, 0, 0, 1, 1, 1, 0, 0, 0, 1, 1, 1, 0, 0, 0, 0, 0, 0, 0, 0, 1, 0, 0, 0, 0, 1, 12, 15, 2, 2, 0, 0, 0, 12, 7, 5, 3, 3, 2, 0, 0, 0, 1251, 2, 0, 0, 0, 0, 0, 0, 0, 0, 0, 0, 0, 0, 0, 0, 0, 0, 0, 0, 0, 0, 0, 0, 0, 2, 0, 0, 0, 517, 371, 0, 0, 61, 59, 39, 31, 8, 31, 0, 8, 2450000, 618500, 39, 3520, 640, 679, 0, 35098637351000
1448526, 1985, 101, 1884, 1201687, 12300, 8581, 3569, 3075892, 96898, 19209841, 37627, 160, 5938, 1450568, 12, 1318076, 84, 993763, 2284, 545540, 0, 2756384, 3873427, 2023314, 26314486, 4631, 31028, 2268, 75727, 8610, 0, 17077900, 1720725, 0, 0, 4097425, 148299, 51674, 21522, 164472, 13126, 81041, 10273, 436, 1720725, 9038, 18636, 146559, 98029, 2966207, 787803, 136194, 277730, 170637, 617, 17636594, 524030, 200550, 811039, 1, 0, 0, 868006, 4902, 14900, 28988, 3275, 4088, 6316, 10501, 15061, 56410, 0, 1933, 185, 402, 34083, 1083, 4206, 5893, 6677, 13159, 944826, 0, 263124, 932, 1731, 1727, 2255, 4474, 6271, 9512, 11688, 51689, 0, 1347, 20149, 501, 3549, 2097, 3459, 6328, 7119, 13524, 295330, 0, 39379, 81489, 307412, 34676, 14567, 64100, 1613, 2304, 0, 1299934, 1255643, 280754, 61676, 56653, 87926, 24774, 25963, 84, 145, 18, 2, 3, 2, 0, 0, 0, 0, 0, 0, 252032, 146443, 147065, 215790, 0, 0, 2, 1351, 23564, 33413, 18529, 4193, 119, 0, 0, 0, 0, 0, 0, 0, 0, 0, 0, 0, 1068, 1407, 220, 11, 22, 18, 3, 0, 0, 0, 0, 0, 44588, 904, 701, 709, 55, 32, 214, 45, 2214, 407, 87, 1840, 16, 114, 518, 74, 76, 35078, 53, 39, 41, 320, 109, 35, 29, 264, 42, 11, 50, 16, 13, 6, 9, 36, 29, 8, 54, 11, 14, 11, 43, 90, 1194, 662, 1064, 2892, 57, 0, 0, 2254, 2384, 608, 301, 418, 26, 6, 0, 0, 1926086, 34994, 0, 0, 0, 0, 0, 0, 0, 0, 0, 0, 0, 0, 0, 0, 0, 0, 0, 0, 0, 0, 0, 0, 0, 2, 0, 0, 0, 1010072, 347864, 0, 0, 44281, 4859, 689, 411, 272, 409, 0, 267, 30916000, 20577250, 2814, 2294784, 8960, -1, 0, 35108242271500
876, 91, 11, 80, 766, 51, 24, 27, 1681, 234, 7714, 2643, 217, 24, 967, 0, 892, 2, 479, 30, 285, 0, 1830, 2392, 1419, 8195, 50, 15, 13, 0, 0, 0, 1907, 655, 0, 0, 2653, 4, 34, 13, 16, 11, 8, 12, 9, 655, 9, 15, 42, 77, 359, 436, 443, 655, 920, 3, 4044, 316, 120, 591, 0, 0, 0, 426, 14, 7, 10, 14, 21, 29, 14, 4, 0, 0, 0, 0, 8, 2, 17, 1, 0, 0, 0, 511, 0, 328, 9, 7, 12, 16, 19, 18, 10, 0, 0, 0, 1, 2, 9, 0, 4, 1, 0, 0, 0, 402, 0, 12, 31, 85, 80, 61, 14, 2, 0, 0, 680, 492, 198, 162, 115, 30, 68, 1, 1, 1, 2, 0, 0, 0, 0, 0, 0, 0, 0, 0, 73, 110, 102, 148, 0, 0, 1, 0, 8, 13, 18, 11, 0, 0, 0, 0, 0, 0, 0, 0, 0, 0, 0, 0, 10, 8, 0, 1, 0, 2, 0, 0, 0, 0, 0, 0, 41, 7, 8, 8, 0, 2, 0, 0, 3, 8, 0, 3, 0, 2, 1, 1, 3, 0, 2, 2, 1, 0, 1, 0, 0, 1, 2, 0, 0, 0, 0, 0, 1, 0, 0, 0, 1, 0, 1, 0, 0, 1, 9, 10, 3, 3, 0, 0, 0, 13, 2, 5, 4, 1, 1, 0, 0, 0, 1269, 3, 0, 0, 0, 0, 0, 0, 0, 0, 0, 0, 0, 0, 0, 0, 0, 0, 0, 0, 0, 0, 0, 0, 0, 2, 0, 0, 0, 521, 394, 0, 0, 59, 71, 42, 30, 12, 30, 0, 12, 2588000, 890500, 42, 3712, 448, 679, 0, 35108246128500
660156, 2005, 208, 1797, 525529, 5621, 3684, 1895, 1344678, 42086, 9124164, 80707, 147, 2790, 662210, 18, 578361, 128, 440581, 1678, 252960, 0, 1198480, 1663128, 869260, 11047915, 3353, 9292, 1005, 35226, 3375, 0, 8079832, 709870, 0, 0, 1858410, 69557, 21625, 9587, 76571, 5732, 36657, 4567, 377, 709870, 4064, 8900, 69788, 43320, 1398194, 339906, 59955, 92193, 80460, 272, 8357978, 245303, 91834, 348338, 2, 0, 0, 381264, 2299, 7011, 13777, 1765, 2219, 2406, 4083, 6609, 26492, 0, 985, 149, 229, 15969, 392, 1054, 1581, 1878, 3738, 421950, 0, 109548, 456, 706, 855, 997, 1557, 1749, 2871, 3526, 29160, 0, 367, 8805, 198, 1526, 528, 1065, 1585, 1854, 3387, 132110, 0, 18269, 38183, 143280, 16561, 6475, 29046, 654, 492, 0, 601858, 520416, 118386, 26532, 23915, 16742, 6614, 6778, 46, 51, 35, 0, 0, 0, 0, 0, 0, 0, 0, 0, 114647, 71715, 66598, 104652, 0, 0, 3, 603, 10621, 15686, 7364, 1291, 77, 0, 0, 0, 0, 0, 0, 0, 0, 0, 0, 0, 574, 465, 131, 8, 17, 68, 5, 0, 0, 0, 0, 0, 21239, 547, 392, 414, 67, 48, 129, 41, 1063, 246, 82, 874, 39, 84, 275, 61, 89, 16595, 47, 19, 30, 180, 64, 19, 46, 137, 33, 17, 35, 22, 10, 13, 34, 24, 16, 5, 26, 7, 13, 9, 41, 65, 697, 390, 421, 1245, 18, 0, 0, 972, 1233, 267, 168, 180, 43, 7, 0, 2, 855090, 7155, 0, 0, 0, 0, 0, 0, 0, 0, 0, 0, 0, 0, 0, 0, 0, 0, 0, 0, 0, 0, 0, 0, 0, 2, 0, 0, 0, 447999, 149427, 0, 0, 21886, 2586, 1244, 874, 363, 872, 0, 357, 66336000, 29542499, 2245, 1148672, 16128, 674, 0, 35112808210500
70707, 5257, 489, 4768, 66535, 13933, 10318, 3425, 138296, 22261, 642278, 219879, 215, 2171, 76167, 109, 86483, 353, 38115, 1874, 24412, 160, 170961, 231970, 127027, 776512, 4275, 13851, 228, 236, 42237, 0, 143038, 72798, 0, 0, 202001, 903, 2662, 2010, 1888, 1200, 980, 778, 758, 72798, 565, 1464, 4402, 14457, 26535, 41233, 33057, 40835, 64869, 233, 332922, 20633, 9766, 59068, 2, 2, 0, 33578, 935, 852, 1323, 1915, 1949, 1477, 475, 290, 854, 0, 167, 143, 556, 696, 537, 396, 375, 566, 905, 39307, 0, 40558, 539, 666, 778, 1174, 1547, 1269, 319, 120, 869, 0, 279, 143, 313, 1096, 320, 167, 239, 325, 553, 44404, 0, 973, 3769, 6648, 5758, 4537, 2425, 107, 195, 0, 57661, 48752, 24459, 15522, 7519, 3579, 2270, 429, 113, 252, 49, 11, 4, 4, 4, 3, 3, 4, 0, 0, 8972, 7593, 7847, 9564, 0, 0, 44, 235, 628, 1537, 1445, 775, 76, 0, 0, 0, 0, 0, 0, 0, 0, 0, 0, 0, 772, 355, 84, 32, 25, 118, 19, 3, 0, 0, 0, 0, 3393, 652, 365, 355, 106, 102, 61, 153, 161, 379, 114, 84, 45, 86, 74, 144, 174, 143, 76, 71, 61, 114, 96, 37, 79, 33, 21, 29, 51, 62, 26, 16, 8, 46, 38, 12, 44, 9, 27, 4, 11, 125, 873, 576, 376, 176, 41, 0, 0, 1110, 396, 264, 283, 142, 93, 16, 0, 4, 116416, 87, 0, 0, 0, 0, 0, 0, 0, 0, 0, 0, 0, 0, 0, 0, 0, 0, 0, 0, 0, 0, 0, 0, 0, 14, 0, 0, 0, 43756, 46245, 0, 0, 4207, 4758, 4024, 2479, 1483, 2474, 0, 1455, 185509243, 126061647, 4050, 400960, 70080, -1, 0, 35113129349500
936, 76, 12, 64, 688, 105, 54, 51, 1523, 385, 11082, 3998, 137, 35, 1012, 0, 889, 5, 446, 25, 264, 64, 1695, 2289, 1373, 10809, 65, 39, 11, 122, 389, 0, 3039, 751, 0, 0, 2880, 5, 35, 10, 19, 10, 5, 11, 11, 751, 7, 18, 99, 58, 358, 688, 466, 601, 867, 3, 6077, 277, 123, 607, 0, 0, 0, 441, 16, 20, 18, 19, 18, 10, 3, 0, 0, 0, 2, 0, 11, 11, 10, 0, 3, 2, 0, 506, 0, 353, 15, 14, 11, 12, 14, 7, 5, 0, 0, 0, 3, 0, 12, 3, 4, 3, 0, 1, 0, 405, 0, 11, 29, 91, 65, 51, 14, 2, 1, 0, 641, 473, 282, 222, 111, 14, 108, 3, 1, 1, 1, 1, 1, 1, 1, 1, 1, 0, 0, 0, 70, 105, 89, 132, 0, 0, 1, 2, 3, 10, 21, 8, 2, 0, 0, 0, 0, 0, 0, 0, 0, 0, 0, 0, 12, 8, 2, 0, 0, 2, 1, 1, 0, 0, 0, 0, 52, 13, 5, 6, 3, 1, 2, 1, 1, 4, 2, 3, 1, 3, 1, 1, 2, 1, 2, 1, 1, 1, 0, 0, 0, 0, 2, 0, 0, 0, 0, 0, 0, 1, 0, 0, 1, 0, 1, 0, 0, 4, 16, 10, 1, 4, 1, 0, 0, 13, 10, 5, 5, 3, 1, 0, 0, 0, 1217, 2, 0, 0, 0, 0, 0, 0, 0, 0, 0, 0, 0, 0, 0, 0, 0, 0, 0, 0, 0, 0, 0, 0, 0, 4, 0, 0, 0, 525, 402, 0, 0, 62, 35, 88, 54, 33, 54, 0, 32, 4371000, 2920750, 87, 7232, 1792, 680, 0, 35113134890500
