
27482, 1173, 154, 1013, 18946, 1142, 373, 765, 48009, 13392, 206982, 77012, 230, 1286, 28653, 52, 22133, 232, 12152, 750, 9007, 0, 49543, 67890, 40167, 215354, 1317, 781, 81, 41, 653, 0, 38980, 25804, 0, 0, 79809, 183, 802, 592, 314, 455, 549, 296, 251, 25805, 209, 505, 1453, 5154, 9188, 13370, 13669, 21128, 23364, 69, 99147, 7331, 3689, 19800, 0, 1, 0, 12721, 361, 537, 580, 671, 475, 204, 58, 34, 53, 0, 193, 93, 82, 327, 264, 260, 423, 638, 893, 12521, 0, 7954, 226, 262, 327, 459, 334, 163, 78, 47, 13, 0, 61, 76, 117, 189, 96, 167, 262, 368, 642, 7885, 0, 274, 1404, 2979, 2433, 1404, 493, 15, 5, 0, 17969, 17612, 13088, 5140, 3450, 821, 1181, 97, 44, 22, 3, 0, 0, 0, 0, 0, 0, 0, 0, 0, 2769, 3503, 2735, 4243, 0, 0, 1, 11, 161, 387, 502, 339, 28, 0, 0, 0, 0, 0, 0, 0, 0, 0, 0, 0, 509, 257, 35, 4, 23, 101, 14, 6, 0, 0, 0, 0, 1566, 156, 69, 69, 32, 23, 18, 24, 30, 95, 60, 54, 45, 11, 32, 45, 48, 70, 21, 28, 21, 28, 50, 27, 13, 15, 16, 31, 28, 42, 6, 11, 15, 9, 0, 1, 4, 1, 9, 9, 18, 79, 605, 361, 202, 101, 23, 0, 0, 575, 267, 219, 167, 105, 57, 4, 0, 2, 42384, 26, 0, 0, 0, 0, 0, 0, 0, 0, 0, 0, 0, 0, 0, 0, 0, 0, 0, 0, 0, 0, 0, 0, 0, 0, 0, 0, 0, 14773, 9133, 0, 0, 1347, 601, 1503, 912, 559, 911, 0, 553, 66836000, 43410493, 1493, 125888, 64, 674, 0, 16503476347500
12671, 1581, 185, 1396, 9794, 2232, 1574, 655, 22611, 7040, 171170, 84206, 132, 875, 14301, 53, 12947, 128, 5123, 273, 3815, 0, 26872, 38479, 21308, 144776, 639, 159, 46, 11, 3325, 0, 27170, 15335, 0, 0, 40234, 88, 208, 475, 207, 140, 155, 117, 151, 15335, 118, 291, 698, 4259, 4840, 6820, 6622, 8069, 12333, 42, 70519, 4259, 1976, 10207, 0, 0, 0, 5249, 213, 230, 318, 390, 302, 109, 24, 0, 0, 0, 20, 25, 82, 189, 102, 116, 87, 113, 146, 5955, 0, 6486, 124, 168, 199, 218, 234, 140, 38, 21, 154, 0, 46, 20, 92, 110, 57, 55, 74, 69, 83, 7176, 0, 177, 561, 1025, 811, 671, 530, 39, 1, 0, 11261, 8930, 4699, 4469, 1766, 327, 203, 22, 2, 0, 0, 0, 0, 0, 0, 0, 0, 0, 0, 0, 1573, 1063, 1179, 1324, 0, 0, 3, 15, 78, 173, 332, 134, 9, 0, 0, 0, 0, 0, 0, 0, 0, 0, 0, 0, 298, 100, 31, 4, 9, 57, 13, 1, 0, 0, 0, 0, 1069, 109, 52, 48, 38, 22, 11, 37, 20, 70, 23, 19, 9, 4, 11, 8, 13, 18, 12, 16, 14, 11, 13, 7, 5, 2, 6, 6, 4, 3, 1, 5, 3, 0, 1, 1, 3, 0, 4, 0, 2, 55, 366, 216, 161, 61, 21, 0, 0, 458, 169, 119, 92, 45, 40, 9, 0, 1, 21273, 25, 0, 0, 0, 0, 0, 0, 0, 0, 0, 0, 0, 0, 0, 0, 0, 0, 0, 0, 0, 0, 0, 0, 0, 2, 0, 0, 0, 6446, 7397, 0, 0, 685, 943, 1355, 964, 353, 963, 0, 347, 71388000, 28618007, 1355, 119168, 5248, -1, 0, 16503561932500
827, 62, 13, 49, 594, 53, 19, 34, 1058, 630, 5800, 1956, 182, 62, 891, 5, 736, 5, 351, 11, 178, 0, 1220, 1884, 1178, 6450, 19, 18, 7, 4, 7, 0, 1166, 672, 0, 0, 2542, 3, 16, 6, 5, 5, 2, 17, 13, 672, 10, 22, 44, 120, 236, 499, 465, 493, 879, 3, 2914, 288, 114, 528, 0, 0, 0, 420, 12, 24, 20, 17, 12, 1, 0, 0, 0, 0, 3, 2, 7, 8, 10, 12, 4, 8, 0, 452, 0, 325, 10, 7, 13, 10, 10, 1, 0, 0, 0, 0, 1, 2, 14, 16, 0, 10, 4, 2, 4, 323, 0, 7, 17, 47, 58, 35, 12, 2, 0, 0, 617, 444, 289, 218, 103, 16, 15, 0, 0, 0, 0, 0, 0, 0, 0, 0, 0, 0, 0, 0, 49, 57, 72, 78, 0, 0, 0, 1, 7, 11, 9, 4, 1, 0, 0, 0, 0, 0, 0, 0, 0, 0, 0, 0, 28, 12, 5, 2, 1, 5, 0, 0, 0, 0, 0, 0, 69, 4, 1, 1, 0, 1, 1, 0, 0, 3, 3, 1, 0, 1, 1, 0, 1, 0, 1, 1, 3, 1, 1, 1, 0, 0, 1, 0, 1, 0, 0, 0, 2, 0, 0, 1, 0, 0, 0, 0, 0, 3, 30, 16, 9, 4, 0, 0, 0, 24, 9, 12, 12, 3, 4, 0, 0, 0, 989, 2, 0, 0, 0, 0, 0, 0, 0, 0, 0, 0, 0, 0, 0, 0, 0, 0, 0, 0, 0, 0, 0, 0, 0, 2, 0, 0, 0, 461, 320, 0, 0, 33, 58, 42, 29, 13, 29, 0, 13, 2136000, 963250, 42, 3200, 384, 0, 0, 16503564832500
3848, 609, 77, 532, 3073, 237, 75, 162, 6163, 2223, 60770, 33949, 101, 271, 4460, 4, 3583, 25, 1843, 75, 1068, 0, 6981, 10036, 6264, 47116, 153, 22, 27, 9, 12, 0, 8882, 3296, 0, 0, 12506, 31, 66, 68, 73, 56, 49, 51, 32, 3296, 46, 109, 256, 515, 1401, 2472, 2011, 2527, 4309, 15, 22071, 1632, 529, 2588, 0, 0, 0, 1953, 69, 93, 123, 135, 109, 23, 0, 0, 0, 0, 5, 11, 32, 70, 52, 13, 30, 9, 30, 2253, 0, 1264, 44, 55, 59, 103, 71, 53, 8, 0, 0, 0, 13, 10, 30, 18, 11, 14, 7, 8, 23, 1523, 0, 60, 134, 295, 291, 200, 78, 10, 0, 0, 3406, 2154, 1004, 429, 323, 88, 125, 2, 2, 0, 0, 0, 0, 0, 0, 0, 0, 0, 0, 0, 313, 370, 385, 478, 0, 0, 2, 2, 25, 50, 67, 40, 7, 0, 0, 0, 0, 0, 0, 0, 0, 0, 0, 0, 108, 41, 3, 2, 6, 28, 3, 1, 0, 0, 0, 0, 339, 38, 14, 12, 8, 10, 5, 5, 5, 12, 25, 8, 8, 6, 10, 8, 6, 3, 2, 1, 3, 5, 4, 3, 4, 2, 1, 1, 1, 1, 2, 1, 2, 0, 1, 1, 0, 2, 0, 0, 1, 20, 155, 55, 27, 17, 1, 0, 0, 121, 65, 44, 32, 15, 8, 0, 0, 0, 5433, 33, 0, 0, 0, 0, 0, 0, 0, 0, 0, 0, 0, 0, 0, 0, 0, 0, 0, 0, 0, 0, 0, 0, 0, 2, 0, 0, 0, 2324, 1538, 0, 0, 235, 206, 527, 385, 137, 383, 0, 128, 28027250, 11265750, 520, 1890816, 3968, -1, 0, 16511383344500
1029, 127, 24, 103, 852, 53, 29, 23, 1746, 566, 10962, 5102, 159, 59, 1156, 0, 1018, 4, 506, 32, 294, 0, 1917, 2664, 1589, 9435, 55, 11, 2, 0, 111, 0, 2115, 861, 0, 0, 3316, 3, 23, 6, 17, 5, 5, 17, 12, 861, 8, 21, 33, 99, 588, 596, 262, 686, 1310, 6, 4603, 397, 145, 715, 0, 0, 0, 485, 21, 21, 24, 30, 29, 15, 1, 0, 0, 0, 0, 1, 5, 5, 5, 10, 7, 2, 6, 585, 0, 413, 12, 11, 20, 28, 27, 10, 0, 0, 0, 0, 2, 0, 3, 9, 8, 7, 9, 8, 3, 472, 0, 12, 31, 81, 88, 65, 15, 2, 0, 0, 848, 594, 284, 226, 83, 40, 16, 0, 0, 0, 0, 0, 0, 0, 0, 0, 0, 0, 0, 0, 81, 104, 109, 144, 0, 0, 0, 1, 2, 16, 26, 9, 0, 0, 0, 0, 0, 0, 0, 0, 0, 0, 0, 0, 28, 13, 2, 0, 0, 2, 0, 0, 0, 0, 0, 0, 77, 7, 8, 7, 2, 2, 0, 1, 0, 10, 3, 2, 1, 2, 2, 0, 2, 0, 3, 1, 2, 2, 0, 0, 0, 0, 0, 0, 0, 0, 1, 0, 0, 0, 0, 0, 0, 1, 0, 0, 0, 4, 31, 16, 7, 2, 0, 0, 0, 23, 13, 9, 12, 4, 1, 0, 0, 0, 1423, 3, 0, 0, 0, 0, 0, 0, 0, 0, 0, 0, 0, 0, 0, 0, 0, 0, 0, 0, 0, 0, 0, 0, 0, 2, 0, 0, 0, 608, 460, 0, 0, 64, 52, 81, 62, 19, 62, 0, 18, 4569000, 1632000, 80, 6656, 768, 0, 0, 16511388825500
3234, 359, 32, 327, 2984, 62, 16, 46, 5755, 1738, 20506, 6280, 280, 177, 3593, 4, 3293, 17, 1725, 69, 980, 0, 6528, 9142, 5701, 28816, 131, 52, 20, 15, 175, 0, 3038, 2698, 0, 0, 10087, 9, 59, 50, 64, 66, 45, 44, 37, 2698, 22, 54, 166, 361, 1303, 1901, 1366, 2058, 3835, 15, 10096, 1291, 463, 2375, 0, 0, 0, 1766, 47, 70, 95, 107, 80, 35, 3, 0, 0, 0, 4, 11, 27, 36, 33, 22, 15, 4, 13, 2038, 0, 1232, 38, 46, 42, 70, 70, 37, 17, 0, 0, 0, 10, 11, 19, 20, 6, 18, 2, 6, 6, 1454, 0, 51, 122, 276, 256, 194, 72, 9, 0, 0, 2960, 2071, 952, 528, 302, 83, 70, 2, 2, 1, 1, 5, 0, 0, 0, 0, 0, 0, 0, 0, 288, 334, 358, 438, 0, 0, 0, 7, 24, 49, 58, 38, 4, 0, 0, 0, 0, 0, 0, 0, 0, 0, 0, 0, 75, 33, 14, 4, 2, 0, 0, 0, 0, 0, 0, 0, 235, 32, 15, 17, 8, 6, 1, 3, 8, 13, 13, 2, 7, 3, 5, 6, 8, 6, 3, 5, 3, 3, 2, 1, 2, 1, 3, 2, 1, 1, 1, 0, 2, 0, 3, 0, 2, 1, 1, 0, 0, 11, 107, 38, 18, 8, 0, 0, 0, 74, 38, 42, 19, 8, 6, 0, 0, 0, 4894, 33, 0, 0, 0, 0, 0, 0, 0, 0, 0, 0, 0, 0, 0, 0, 0, 0, 0, 0, 0, 0, 0, 0, 0, 2, 0, 0, 0, 2060, 1431, 0, 0, 202, 322, 80, 75, 5, 75, 0, 5, 5605750, 407000, 82, 2388736, 768, -1, 0, 16521366435000
1071, 83, 8, 75, 834, 23, 14, 9, 1642, 529, 4963, 1066, 330, 54, 1154, 0, 975, 5, 482, 28, 284, 0, 1808, 2521, 1534, 7381, 56, 13, 8, 0, 1, 0, 1028, 825, 0, 0, 3180, 4, 29, 8, 19, 6, 7, 15, 15, 825, 5, 22, 31, 109, 485, 678, 521, 737, 910, 4, 2725, 357, 143, 672, 0, 0, 0, 466, 18, 26, 21, 17, 23, 24, 4, 0, 0, 0, 1, 0, 0, 4, 7, 8, 7, 0, 3, 569, 0, 371, 13, 15, 18, 18, 11, 8, 10, 0, 0, 0, 4, 0, 5, 4, 11, 10, 9, 0, 5, 416, 0, 14, 32, 78, 81, 62, 15, 2, 0, 0, 822, 548, 275, 197, 90, 18, 10, 0, 0, 0, 0, 0, 0, 0, 0, 0, 0, 0, 0, 0, 83, 95, 106, 132, 0, 0, 1, 0, 1, 16, 25, 7, 0, 0, 0, 0, 0, 0, 0, 0, 0, 0, 0, 0, 23, 15, 3, 1, 0, 0, 0, 0, 0, 0, 0, 0, 74, 9, 9, 8, 0, 2, 0, 1, 2, 10, 2, 2, 2, 3, 2, 2, 2, 1, 1, 1, 1, 0, 0, 1, 0, 0, 0, 0, 0, 0, 0, 0, 0, 0, 0, 0, 0, 0, 1, 0, 0, 6, 31, 9, 7, 1, 0, 0, 0, 15, 10, 17, 9, 4, 0, 0, 0, 0, 1377, 3, 0, 0, 0, 0, 0, 0, 0, 0, 0, 0, 0, 0, 0, 0, 0, 0, 0, 0, 0, 0, 0, 0, 0, 2, 0, 0, 0, 581, 430, 0, 0, 70, 79, 13, 13, 0, 13, 0, 0, 943500, 0, 13, 1344, 0, 0, 0, 16521368916500
6430, 575, 30, 545, 5831, 191, 50, 141, 11764, 2826, 41660, 11335, 282, 257, 7006, 5, 6500, 22, 3542, 136, 2021, 0, 13182, 18117, 11229, 67698, 282, 139, 40, 27, 192, 0, 9805, 5151, 0, 0, 19461, 37, 101, 127, 161, 132, 106, 80, 45, 5151, 50, 141, 360, 652, 1953, 3812, 3138, 4587, 6803, 23, 22412, 2364, 868, 4679, 0, 0, 0, 3465, 96, 110, 151, 188, 167, 107, 20, 0, 0, 0, 7, 9, 31, 70, 48, 50, 53, 17, 31, 3988, 0, 2368, 60, 80, 71, 151, 135, 78, 17, 0, 0, 0, 23, 10, 34, 54, 32, 8, 21, 20, 14, 2744, 0, 109, 273, 559, 541, 372, 151, 16, 0, 0, 5465, 4341, 2032, 1229, 606, 237, 122, 24, 8, 36, 2, 10, 0, 0, 0, 0, 0, 0, 0, 0, 588, 753, 680, 918, 0, 0, 1, 5, 44, 98, 123, 88, 8, 0, 0, 0, 0, 0, 0, 0, 0, 0, 0, 0, 104, 61, 11, 6, 3, 5, 1, 0, 0, 0, 0, 0, 352, 70, 21, 16, 13, 10, 3, 15, 14, 29, 22, 8, 15, 9, 8, 13, 17, 8, 6, 8, 6, 7, 5, 5, 7, 4, 5, 4, 6, 3, 2, 2, 6, 1, 1, 3, 1, 2, 7, 0, 0, 14, 134, 57, 41, 22, 2, 0, 0, 110, 52, 47, 40, 16, 11, 0, 0, 0, 9695, 57, 0, 0, 0, 0, 0, 0, 0, 0, 0, 0, 0, 0, 0, 0, 0, 0, 0, 0, 0, 0, 0, 0, 0, 2, 0, 0, 0, 4087, 2755, 0, 0, 391, 552, 174, 115, 59, 114, 0, 58, 9064500, 4575500, 178, 4741952, 1664, -1, 0, 16541364761500
968, 95, 15, 80, 848, 39, 24, 15, 1746, 413, 4636, 690, 376, 35, 1063, 0, 989, 0, 506, 32, 294, 0, 1917, 2588, 1543, 7343, 55, 11, 10, 0, 1, 0, 1188, 748, 0, 0, 2911, 2, 34, 9, 16, 10, 8, 17, 12, 748, 7, 17, 40, 109, 422, 462, 409, 600, 1166, 1, 2800, 342, 134, 670, 0, 0, 0, 475, 17, 20, 18, 23, 19, 21, 10, 0, 0, 0, 0, 2, 4, 7, 10, 6, 3, 1, 4, 566, 0, 384, 6, 7, 18, 17, 23, 17, 9, 0, 0, 0, 2, 1, 3, 10, 6, 8, 9, 3, 2, 437, 0, 12, 31, 81, 88, 65, 15, 2, 0, 0, 784, 572, 241, 200, 102, 27, 15, 0, 0, 0, 0, 0, 0, 0, 0, 0, 0, 0, 0, 0, 81, 104, 109, 144, 0, 0, 0, 1, 9, 14, 17, 10, 2, 0, 0, 0, 0, 0, 0, 0, 0, 0, 0, 0, 18, 7, 4, 1, 0, 0, 0, 0, 0, 0, 0, 0, 53, 7, 8, 7, 0, 3, 0, 0, 4, 7, 2, 0, 1, 2, 0, 0, 4, 0, 6, 2, 2, 1, 0, 1, 1, 0, 0, 0, 0, 0, 0, 0, 0, 0, 0, 0, 1, 0, 2, 0, 0, 2, 20, 11, 3, 1, 0, 0, 0, 9, 12, 4, 7, 4, 2, 0, 0, 0, 1365, 3, 0, 0, 0, 0, 0, 0, 0, 0, 0, 0, 0, 0, 0, 0, 0, 0, 0, 0, 0, 0, 0, 0, 0, 2, 0, 0, 0, 581, 438, 0, 0, 64, 85, 10, 9, 1, 9, 0, 1, 648000, 32000, 10, 1152, 128, 0, 0, 16541367079500
2709, 286, 12, 274, 2868, 52, 10, 42, 5712, 771, 13815, 2089, 413, 71, 2996, 0, 3113, 3, 1714, 65, 972, 0, 6477, 8568, 5305, 27103, 127, 72, 24, 23, 123, 0, 3377, 2169, 0, 0, 8205, 7, 63, 48, 66, 60, 51, 49, 27, 2169, 20, 44, 156, 275, 985, 1495, 1299, 1631, 3222, 14, 8143, 1108, 405, 2069, 0, 0, 0, 1544, 34, 43, 56, 65, 96, 70, 15, 0, 0, 0, 3, 4, 12, 7, 19, 15, 2, 2, 5, 1854, 0, 1119, 27, 31, 29, 54, 69, 41, 26, 4, 0, 0, 8, 3, 5, 14, 2, 6, 2, 4, 6, 1350, 0, 51, 122, 273, 255, 189, 73, 9, 0, 0, 2498, 1787, 933, 554, 361, 132, 77, 4, 6, 10, 1, 5, 0, 0, 0, 0, 0, 0, 0, 0, 286, 334, 352, 434, 0, 0, 0, 5, 25, 63, 48, 32, 6, 0, 0, 0, 0, 0, 0, 0, 0, 0, 0, 0, 25, 19, 4, 2, 1, 0, 0, 0, 0, 0, 0, 0, 122, 26, 11, 12, 9, 5, 1, 2, 6, 18, 9, 3, 2, 5, 4, 4, 4, 5, 5, 6, 3, 3, 2, 0, 3, 2, 3, 2, 2, 0, 1, 1, 1, 1, 1, 3, 1, 0, 2, 1, 0, 6, 37, 18, 9, 5, 1, 0, 0, 24, 18, 21, 6, 2, 5, 0, 0, 0, 4447, 33, 0, 0, 0, 0, 0, 0, 0, 0, 0, 0, 0, 0, 0, 0, 0, 0, 0, 0, 0, 0, 0, 0, 0, 2, 0, 0, 0, 1888, 1337, 0, 0, 175, 293, 25, 22, 3, 22, 0, 3, 1757500, 370000, 27, 2343232, 192, -1, 0, 16551362752500
1054, 61, 3, 58, 823, 22, 13, 9, 1642, 449, 3732, 204, 439, 39, 1116, 0, 960, 2, 482, 28, 284, 0, 1808, 2487, 1507, 6915, 56, 14, 7, 0, 5, 0, 1113, 785, 0, 0, 3024, 3, 33, 9, 19, 11, 11, 18, 12, 785, 9, 18, 31, 86, 454, 632, 365, 661, 1099, 4, 2423, 314, 138, 653, 0, 0, 0, 452, 18, 18, 16, 14, 32, 18, 10, 1, 0, 0, 1, 2, 1, 3, 7, 2, 1, 0, 1, 561, 0, 356, 12, 12, 16, 18, 15, 10, 9, 0, 0, 0, 4, 2, 5, 1, 11, 7, 10, 0, 1, 407, 0, 14, 32, 78, 81, 62, 15, 2, 0, 0, 773, 564, 231, 188, 99, 54, 19, 0, 0, 0, 0, 0, 0, 0, 0, 0, 0, 0, 0, 0, 83, 95, 106, 132, 0, 0, 0, 0, 5, 17, 22, 5, 1, 0, 0, 0, 0, 0, 0, 0, 0, 0, 0, 0, 16, 15, 1, 1, 0, 0, 0, 0, 0, 0, 0, 0, 59, 9, 9, 8, 0, 1, 0, 1, 1, 9, 2, 1, 4, 3, 3, 1, 2, 1, 1, 2, 0, 0, 1, 2, 1, 0, 0, 0, 0, 1, 0, 0, 0, 0, 0, 0, 0, 0, 1, 0, 0, 4, 25, 5, 6, 1, 0, 0, 0, 11, 6, 12, 8, 5, 0, 0, 0, 0, 1344, 2, 0, 0, 0, 0, 0, 0, 0, 0, 0, 0, 0, 0, 0, 0, 0, 0, 0, 0, 0, 0, 0, 0, 0, 2, 0, 0, 0, 563, 420, 0, 0, 68, 65, 4, 3, 1, 3, 0, 1, 211250, 32000, 4, 768, 64, 0, 0, 16551364618500
7561, 491, 32, 459, 6150, 154, 35, 119, 12626, 2451, 77949, 10020, 161, 214, 8053, 5, 6908, 14, 3698, 122, 2199, 0, 13898, 19133, 11606, 99919, 223, 145, 46, 34, 220, 0, 48156, 5638, 0, 0, 22526, 21, 115, 251, 167, 177, 104, 73, 59, 5638, 56, 127, 346, 851, 2148, 6936, 4032, 4128, 6257, 25, 59743, 2597, 904, 4683, 0, 0, 0, 3444, 56, 89, 114, 114, 177, 110, 53, 31, 97, 0, 10, 9, 38, 58, 34, 31, 17, 30, 25, 4033, 0, 2449, 48, 65, 55, 99, 122, 62, 49, 24, 19, 0, 17, 4, 34, 32, 17, 16, 12, 10, 6, 2844, 0, 81, 303, 577, 674, 428, 123, 13, 0, 0, 5511, 4607, 2061, 1483, 615, 179, 79, 9, 11, 27, 6, 10, 0, 0, 0, 0, 0, 0, 0, 0, 597, 862, 740, 1042, 0, 0, 1, 5, 42, 159, 104, 69, 7, 0, 0, 0, 0, 0, 0, 0, 0, 0, 0, 0, 78, 34, 12, 5, 4, 6, 3, 0, 0, 0, 0, 0, 403, 60, 17, 19, 12, 6, 45, 4, 10, 30, 22, 8, 9, 7, 9, 8, 2, 5, 8, 7, 8, 6, 3, 8, 3, 3, 42, 4, 1, 0, 3, 3, 9, 3, 0, 2, 1, 1, 3, 2, 0, 16, 110, 49, 28, 12, 4, 0, 0, 97, 42, 32, 23, 12, 13, 2, 0, 0, 10110, 69, 0, 0, 0, 0, 0, 0, 0, 0, 0, 0, 0, 0, 0, 0, 0, 0, 0, 0, 0, 0, 0, 0, 0, 2, 0, 0, 0, 4268, 2887, 0, 0, 410, 449, 157, 111, 45, 111, 0, 42, 8137164, 3239500, 245, 5822336, 1216, -1, 0, 16575963498000
2174, 236, 31, 205, 1887, 105, 46, 58, 4349, 1161, 20535, 9585, 211, 127, 2410, 1, 2164, 8, 1204, 45, 712, 0, 4525, 6243, 3822, 18189, 70, 120, 28, 5, 22, 0, 2961, 1870, 0, 0, 7150, 10, 34, 60, 31, 69, 19, 28, 27, 1870, 15, 42, 91, 171, 648, 2216, 1047, 1409, 2071, 8, 8094, 869, 325, 1662, 0, 0, 0, 1253, 42, 43, 43, 62, 45, 28, 4, 8, 0, 0, 0, 5, 8, 21, 9, 8, 26, 36, 6, 1409, 0, 680, 19, 25, 30, 59, 41, 30, 1, 0, 0, 0, 3, 4, 8, 3, 20, 4, 4, 7, 4, 828, 0, 22, 53, 198, 223, 175, 37, 4, 0, 0, 1571, 1973, 1074, 497, 209, 21, 48, 1, 0, 0, 0, 0, 0, 0, 0, 0, 0, 0, 0, 0, 171, 313, 228, 394, 0, 0, 0, 2, 10, 34, 52, 27, 3, 0, 0, 0, 0, 0, 0, 0, 0, 0, 0, 0, 52, 29, 10, 4, 0, 3, 1, 0, 0, 0, 0, 0, 148, 10, 9, 8, 2, 4, 1, 2, 4, 10, 4, 0, 1, 1, 2, 0, 1, 2, 0, 0, 3, 1, 1, 0, 0, 1, 2, 0, 1, 1, 0, 0, 0, 0, 0, 1, 1, 0, 1, 0, 0, 6, 67, 38, 10, 10, 1, 0, 0, 56, 30, 17, 17, 7, 4, 2, 0, 0, 3630, 7, 0, 0, 0, 0, 0, 0, 0, 0, 0, 0, 0, 0, 0, 0, 0, 0, 0, 0, 0, 0, 0, 0, 0, 2, 0, 0, 0, 1457, 823, 0, 0, 81, 133, 143, 111, 31, 111, 0, 30, 7948750, 2564000, 142, 9088, 448, 674, 0, 16575973765500
145328, 9293, 538, 8755, 124912, 15585, 10794, 4592, 273454, 39841, 905720, 160032, 301, 3913, 155088, 206, 151999, 327, 74636, 4716, 50546, 160, 317746, 416268, 242276, 1528274, 10130, 13668, 380, 662, 40376, 0, 328661, 141206, 0, 0, 409667, 1799, 4347, 2479, 3490, 2105, 1973, 2052, 1333, 141206, 1053, 2558, 6584, 15564, 53811, 88071, 76142, 84488, 133928, 495, 578142, 38876, 18559, 110105, 2, 1, 0, 65061, 1639, 1682, 2622, 3803, 3764, 3628, 626, 390, 863, 0, 386, 244, 575, 977, 1007, 670, 422, 514, 1665, 77618, 0, 63674, 766, 1179, 1607, 2438, 3655, 2983, 649, 119, 768, 0, 363, 213, 584, 1118, 918, 346, 228, 500, 829, 72739, 0, 2133, 8385, 13972, 12963, 9420, 3233, 214, 226, 0, 105697, 96554, 43760, 22237, 12772, 7374, 3868, 621, 202, 374, 23, 17, 10, 12, 12, 6, 6, 3, 0, 0, 18892, 14829, 16825, 19412, 0, 2, 44, 273, 1165, 2823, 2774, 1686, 127, 0, 0, 0, 0, 0, 0, 0, 0, 0, 0, 0, 1528, 691, 166, 48, 82, 96, 8, 2, 0, 0, 0, 0, 6823, 1502, 1006, 932, 284, 241, 37, 356, 362, 926, 259, 253, 60, 170, 195, 301, 479, 316, 248, 154, 97, 354, 268, 121, 97, 116, 53, 58, 148, 75, 38, 21, 68, 118, 165, 39, 83, 38, 42, 1, 34, 206, 1737, 875, 593, 380, 29, 0, 0, 1736, 918, 513, 604, 227, 75, 12, 0, 3, 226177, 140, 0, 0, 0, 0, 0, 0, 0, 0, 0, 0, 0, 0, 0, 0, 0, 0, 0, 0, 0, 0, 0, 0, 0, 14, 0, 0, 0, 83767, 74492, 0, 0, 10253, 10987, 3228, 1882, 1319, 1874, 0, 1294, 137818000, 108629876, 3402, 369728, 48448, 676, 0, 16576426625500
3468, 329, 35, 294, 2394, 302, 107, 195, 5458, 1744, 42819, 17580, 127, 152, 3797, 10, 2936, 26, 1450, 72, 991, 64, 6013, 8200, 5014, 45720, 224, 152, 24, 105, 125, 0, 11914, 2773, 0, 0, 10558, 25, 74, 76, 61, 48, 53, 47, 16, 2773, 25, 70, 182, 501, 1288, 1910, 1815, 2318, 3590, 14, 21444, 1083, 445, 2267, 0, 0, 0, 1457, 55, 60, 74, 93, 91, 56, 11, 0, 0, 0, 6, 14, 50, 35, 29, 26, 34, 10, 41, 1652, 0, 1063, 38, 42, 66, 90, 53, 32, 7, 0, 0, 0, 17, 8, 23, 10, 2, 8, 9, 7, 29, 1278, 0, 34, 163, 295, 231, 204, 55, 8, 1, 0, 2421, 1932, 944, 464, 419, 78, 14, 4, 3, 1, 1, 1, 1, 1, 1, 1, 1, 0, 0, 0, 278, 355, 358, 440, 0, 0, 2, 2, 9, 36, 68, 49, 3, 0, 0, 0, 0, 0, 0, 0, 0, 0, 0, 0, 47, 31, 15, 3, 5, 9, 9, 0, 0, 0, 0, 0, 217, 38, 12, 13, 20, 10, 3, 8, 9, 22, 11, 4, 6, 2, 3, 5, 3, 11, 2, 7, 9, 3, 6, 1, 3, 2, 2, 3, 3, 2, 0, 1, 2, 0, 5, 0, 0, 0, 0, 2, 0, 14, 61, 45, 16, 12, 2, 0, 0, 69, 16, 24, 27, 10, 13, 2, 0, 0, 4828, 5, 0, 0, 0, 0, 0, 0, 0, 0, 0, 0, 0, 0, 0, 0, 0, 0, 0, 0, 0, 0, 0, 0, 0, 4, 0, 0, 0, 1763, 1313, 0, 0, 236, 213, 320, 197, 117, 196, 0, 113, 15474000, 9900500, 324, 25600, 6912, -1, 0, 16576448035000
2146, 211, 24, 187, 1654, 108, 42, 66, 3519, 867, 26243, 11496, 134, 102, 2358, 2, 1903, 8, 1036, 52, 651, 0, 3895, 5229, 3250, 29362, 113, 41, 3, 18, 136, 0, 6332, 1653, 0, 0, 6513, 16, 60, 31, 42, 23, 17, 38, 17, 1653, 24, 36, 127, 201, 846, 1374, 977, 1211, 2417, 13, 12408, 654, 286, 1398, 1, 0, 0, 1011, 34, 28, 35, 60, 72, 37, 0, 0, 0, 0, 5, 8, 11, 8, 17, 23, 7, 1, 23, 1174, 0, 640, 15, 27, 23, 38, 42, 44, 2, 0, 0, 0, 12, 6, 9, 6, 7, 2, 4, 2, 6, 777, 0, 24, 96, 199, 174, 123, 30, 5, 0, 0, 1503, 1228, 508, 451, 253, 78, 54, 3, 2, 0, 0, 0, 0, 0, 0, 0, 0, 0, 0, 0, 166, 253, 232, 294, 0, 0, 0, 1, 5, 32, 42, 27, 2, 0, 0, 0, 0, 0, 0, 0, 0, 0, 0, 0, 50, 11, 5, 1, 2, 7, 0, 0, 0, 0, 0, 0, 144, 20, 12, 11, 5, 6, 2, 4, 7, 13, 7, 4, 0, 3, 4, 1, 4, 0, 2, 2, 3, 2, 1, 2, 1, 3, 4, 1, 2, 0, 1, 0, 0, 3, 2, 1, 1, 0, 0, 0, 1, 9, 47, 31, 11, 5, 2, 0, 0, 47, 19, 20, 12, 5, 5, 1, 0, 0, 2928, 4, 0, 0, 0, 0, 0, 0, 0, 0, 0, 0, 0, 0, 0, 0, 0, 0, 0, 0, 0, 0, 0, 0, 0, 2, 0, 0, 0, 1223, 778, 0, 0, 139, 98, 174, 132, 40, 132, 0, 40, 9640750, 3116500, 180, 14528, 3968, 676, 0, 16576461156500
3312, 281, 16, 265, 3318, 903, 649, 252, 6207, 1287, 31991, 8705, 193, 103, 3598, 3, 4538, 24, 2099, 74, 1032, 0, 8215, 11335, 6526, 56028, 195, 1506, 141, 141, 3173, 0, 7771, 3090, 0, 0, 9756, 20, 81, 80, 93, 48, 58, 39, 17, 3090, 33, 62, 144, 336, 1048, 2448, 1588, 2129, 3130, 12, 18855, 1149, 479, 2803, 0, 0, 0, 1834, 49, 55, 70, 91, 90, 72, 29, 43, 95, 0, 6, 20, 25, 23, 29, 5, 6, 5, 30, 2279, 0, 1960, 28, 41, 43, 62, 56, 44, 17, 7, 44, 0, 17, 3, 26, 11, 3, 2, 6, 7, 33, 2194, 0, 34, 174, 286, 233, 203, 62, 8, 32, 0, 3123, 2211, 1040, 570, 407, 153, 72, 9, 5, 0, 0, 0, 0, 0, 0, 0, 0, 0, 0, 0, 311, 370, 351, 438, 0, 0, 0, 3, 40, 63, 54, 59, 5, 0, 0, 0, 0, 0, 0, 0, 0, 0, 0, 0, 32, 28, 13, 0, 2, 8, 2, 1, 0, 0, 0, 0, 159, 31, 9, 11, 9, 6, 3, 6, 10, 12, 12, 5, 4, 4, 3, 3, 7, 8, 2, 1, 6, 3, 3, 1, 5, 1, 2, 3, 8, 1, 1, 1, 1, 1, 3, 0, 0, 1, 1, 2, 1, 4, 42, 35, 13, 10, 3, 0, 0, 47, 19, 11, 23, 8, 5, 3, 0, 0, 5257, 5, 0, 0, 0, 0, 0, 0, 0, 0, 0, 0, 0, 0, 0, 0, 0, 0, 0, 0, 0, 0, 0, 0, 0, 2, 0, 0, 0, 2447, 2223, 0, 0, 194, 324, 210, 101, 107, 101, 0, 107, 7692750, 9190476, 219, 21056, 4928, -1, 0, 16576477152000
1971, 163, 15, 148, 1651, 65, 20, 45, 3518, 603, 14725, 3292, 238, 58, 2134, 8, 1863, 2, 1036, 52, 651, 0, 3894, 5103, 3128, 25127, 113, 35, 5, 5, 33, 0, 5556, 1486, 0, 0, 5793, 22, 53, 26, 43, 28, 19, 35, 14, 1486, 15, 22, 71, 163, 760, 1066, 747, 1411, 2206, 12, 9249, 589, 271, 1324, 0, 0, 0, 923, 33, 27, 35, 56, 67, 31, 5, 0, 0, 0, 1, 4, 5, 11, 10, 12, 6, 1, 21, 1106, 0, 627, 11, 20, 21, 28, 28, 43, 32, 0, 0, 0, 7, 3, 13, 6, 7, 3, 1, 2, 5, 763, 0, 24, 96, 199, 174, 123, 30, 5, 0, 0, 1433, 1195, 531, 367, 280, 86, 44, 2, 1, 0, 0, 0, 0, 0, 0, 0, 0, 0, 0, 0, 166, 253, 232, 294, 0, 0, 0, 4, 9, 28, 46, 20, 2, 0, 0, 0, 0, 0, 0, 0, 0, 0, 0, 0, 23, 12, 2, 1, 4, 1, 0, 0, 0, 0, 0, 0, 101, 17, 11, 12, 3, 3, 2, 3, 7, 12, 6, 5, 1, 2, 5, 3, 4, 2, 6, 1, 2, 1, 2, 2, 1, 2, 2, 0, 1, 1, 0, 0, 0, 3, 2, 1, 4, 0, 1, 1, 1, 3, 27, 16, 9, 2, 0, 0, 0, 27, 6, 13, 8, 4, 2, 0, 0, 0, 2809, 4, 0, 0, 0, 0, 0, 0, 0, 0, 0, 0, 0, 0, 0, 0, 0, 0, 0, 0, 0, 0, 0, 0, 0, 2, 0, 0, 0, 1158, 775, 0, 0, 132, 171, 43, 36, 7, 36, 0, 7, 2917250, 590000, 49, 4608, 640, 676, 0, 16576484514500
7608, 367, 22, 345, 6036, 794, 532, 259, 14323, 2528, 50553, 9023, 283, 166, 7980, 26, 7270, 35, 3411, 214, 2648, 0, 15921, 21055, 11749, 74187, 606, 255, 70, 29, 1984, 0, 16370, 6209, 0, 0, 21603, 55, 318, 217, 112, 89, 200, 128, 30, 6209, 50, 109, 369, 1688, 2181, 3783, 3829, 4364, 8011, 30, 32848, 2083, 941, 5658, 0, 0, 0, 3125, 104, 71, 117, 146, 204, 184, 105, 0, 0, 0, 14, 89, 93, 44, 74, 16, 53, 12, 85, 3576, 0, 3127, 67, 76, 93, 185, 102, 98, 18, 8, 54, 0, 37, 8, 6, 23, 30, 14, 12, 21, 88, 3589, 0, 92, 419, 824, 610, 480, 205, 18, 0, 0, 5344, 4670, 2674, 1376, 1278, 258, 158, 3, 5, 0, 0, 0, 0, 0, 0, 0, 0, 0, 0, 0, 813, 991, 844, 1230, 0, 0, 2, 2, 31, 125, 162, 118, 11, 0, 0, 0, 0, 0, 0, 0, 0, 0, 0, 0, 43, 73, 16, 9, 1, 15, 0, 2, 0, 0, 0, 0, 307, 85, 31, 33, 36, 27, 5, 20, 20, 37, 19, 8, 12, 8, 3, 3, 14, 31, 5, 14, 25, 7, 9, 5, 17, 5, 5, 10, 11, 6, 3, 1, 3, 4, 4, 0, 0, 2, 3, 2, 9, 10, 61, 58, 21, 9, 2, 0, 0, 65, 26, 18, 51, 13, 11, 1, 0, 0, 11978, 11, 0, 0, 0, 0, 0, 0, 0, 0, 0, 0, 0, 0, 0, 0, 0, 0, 0, 0, 0, 0, 0, 0, 0, 2, 0, 0, 0, 3827, 3715, 0, 0, 546, 490, 164, 86, 77, 86, 0, 75, 7214000, 6595756, 178, 20608, 4096, -1, 0, 16576509791000
1921, 156, 6, 150, 1628, 66, 26, 40, 3518, 461, 13096, 1998, 268, 39, 2077, 1, 1850, 1, 1036, 52, 651, 0, 3894, 5044, 3074, 24995, 113, 35, 13, 34, 32, 0, 5706, 1463, 0, 0, 5644, 24, 52, 22, 39, 27, 19, 34, 17, 1463, 13, 30, 68, 151, 658, 1167, 735, 1257, 2224, 5, 9026, 538, 237, 1297, 0, 0, 0, 905, 26, 17, 29, 37, 56, 56, 14, 0, 0, 0, 1, 2, 4, 4, 11, 3, 5, 1, 20, 1089, 0, 626, 9, 12, 11, 31, 48, 44, 23, 0, 0, 0, 4, 0, 12, 3, 7, 1, 2, 4, 3, 768, 0, 23, 97, 200, 173, 123, 30, 5, 0, 0, 1307, 1223, 582, 360, 255, 92, 61, 4, 4, 4, 2, 0, 0, 0, 0, 0, 0, 0, 0, 0, 166, 253, 232, 294, 0, 0, 0, 3, 6, 31, 39, 27, 3, 0, 0, 0, 0, 0, 0, 0, 0, 0, 0, 0, 14, 6, 5, 0, 2, 2, 0, 0, 0, 0, 0, 0, 81, 17, 13, 11, 3, 3, 0, 3, 5, 13, 6, 5, 1, 2, 3, 1, 4, 3, 3, 1, 2, 1, 3, 3, 3, 3, 1, 1, 0, 0, 0, 0, 0, 4, 3, 1, 3, 1, 1, 1, 1, 2, 16, 11, 6, 2, 0, 0, 0, 17, 6, 7, 6, 4, 1, 0, 0, 0, 2755, 4, 0, 0, 0, 0, 0, 0, 0, 0, 0, 0, 0, 0, 0, 0, 0, 0, 0, 0, 0, 0, 0, 0, 0, 2, 0, 0, 0, 1137, 774, 0, 0, 129, 166, 29, 24, 4, 24, 0, 4, 1764500, 270250, 35, 3392, 384, 676, 0, 16576516339000
4099, 337, 21, 316, 3386, 180, 48, 132, 8556, 1075, 33808, 9844, 252, 99, 4439, 10, 3809, 2, 2193, 157, 1601, 0, 9066, 11564, 7169, 45121, 332, 219, 62, 6, 42, 0, 10318, 3179, 0, 0, 12077, 31, 108, 84, 65, 49, 109, 66, 22, 3179, 28, 60, 137, 572, 1288, 2097, 1877, 2515, 4964, 17, 19086, 1239, 595, 3043, 0, 0, 0, 1936, 53, 61, 83, 92, 112, 100, 28, 0, 0, 0, 9, 10, 52, 10, 31, 4, 6, 16, 55, 2272, 0, 1260, 43, 40, 55, 92, 76, 74, 5, 0, 0, 0, 14, 4, 5, 7, 1, 7, 7, 4, 46, 1550, 0, 58, 267, 495, 397, 293, 82, 9, 0, 0, 2975, 2730, 1620, 737, 764, 180, 95, 55, 30, 8, 0, 0, 0, 0, 0, 0, 0, 0, 0, 0, 443, 633, 525, 738, 0, 0, 0, 3, 18, 46, 96, 85, 9, 0, 0, 0, 0, 0, 0, 0, 0, 0, 0, 0, 29, 29, 9, 1, 2, 5, 1, 0, 0, 0, 0, 0, 170, 45, 15, 17, 16, 16, 2, 14, 4, 17, 13, 4, 8, 4, 7, 1, 7, 7, 8, 9, 6, 6, 10, 2, 8, 6, 1, 1, 5, 1, 4, 0, 4, 1, 1, 1, 0, 1, 2, 1, 10, 2, 39, 26, 16, 4, 4, 0, 0, 48, 13, 16, 22, 6, 4, 0, 0, 0, 6991, 12, 0, 0, 0, 0, 0, 0, 0, 0, 0, 0, 0, 0, 0, 0, 0, 0, 0, 0, 0, 0, 0, 0, 0, 2, 0, 0, 0, 2377, 1599, 0, 0, 288, 305, 149, 108, 40, 108, 0, 40, 8669000, 3203499, 159, 13568, 3008, -1, 0, 16576533243000
3974, 211, 7, 204, 3176, 71, 17, 54, 6841, 839, 25115, 1864, 272, 68, 4185, 1, 3509, 4, 1986, 105, 1278, 0, 7593, 9694, 5967, 58736, 237, 71, 14, 39, 48, 0, 14734, 2920, 0, 0, 11335, 60, 96, 56, 77, 52, 44, 69, 26, 2920, 32, 53, 132, 302, 1281, 2783, 1732, 2145, 4239, 12, 19225, 1014, 494, 2518, 0, 0, 0, 1735, 55, 38, 48, 76, 85, 97, 41, 4, 0, 0, 4, 8, 12, 10, 10, 11, 8, 2, 40, 2074, 0, 1201, 16, 29, 35, 57, 78, 90, 26, 0, 0, 0, 12, 4, 28, 10, 7, 5, 7, 7, 13, 1439, 0, 41, 204, 386, 332, 251, 54, 10, 0, 0, 2502, 2380, 1080, 800, 490, 235, 90, 9, 9, 10, 2, 0, 0, 0, 0, 0, 0, 0, 0, 0, 330, 489, 459, 576, 0, 0, 2, 0, 16, 58, 73, 54, 10, 0, 0, 0, 0, 0, 0, 0, 0, 0, 0, 0, 22, 10, 8, 1, 5, 1, 0, 0, 0, 0, 0, 0, 164, 36, 21, 23, 4, 8, 4, 4, 8, 22, 15, 11, 2, 3, 8, 2, 12, 8, 7, 4, 3, 5, 4, 4, 5, 8, 1, 0, 3, 2, 3, 0, 0, 5, 7, 4, 6, 5, 1, 2, 4, 5, 28, 16, 8, 5, 0, 0, 0, 33, 8, 11, 11, 5, 2, 0, 0, 0, 5410, 7, 0, 0, 0, 0, 0, 0, 0, 0, 0, 0, 0, 0, 0, 0, 0, 0, 0, 0, 0, 0, 0, 0, 0, 2, 0, 0, 0, 2164, 1473, 0, 0, 276, 232, 31, 25, 5, 25, 0, 5, 2065500, 412000, 50, 5184, 512, 676, 0, 16576545800500
1275, 78, 1, 77, 1234, 60, 25, 35, 2491, 315, 8832, 455, 282, 19, 1353, 0, 1404, 3, 790, 29, 433, 0, 2843, 3693, 2279, 20012, 64, 48, 15, 9, 37, 0, 5132, 992, 0, 0, 3756, 11, 28, 23, 33, 27, 17, 18, 8, 992, 9, 19, 32, 111, 393, 831, 563, 734, 1501, 2, 6862, 416, 175, 924, 0, 0, 0, 728, 19, 18, 18, 28, 41, 22, 9, 0, 0, 0, 2, 1, 9, 8, 1, 0, 0, 7, 0, 855, 0, 495, 15, 16, 17, 19, 27, 22, 4, 0, 0, 0, 4, 2, 4, 8, 0, 8, 5, 0, 5, 579, 0, 11, 55, 125, 113, 100, 25, 4, 0, 0, 899, 873, 456, 313, 152, 104, 39, 6, 10, 8, 0, 0, 0, 0, 0, 0, 0, 0, 0, 0, 116, 163, 154, 200, 0, 0, 0, 0, 8, 20, 29, 19, 2, 0, 0, 0, 0, 0, 0, 0, 0, 0, 0, 0, 8, 6, 3, 0, 1, 0, 0, 0, 0, 0, 0, 0, 46, 9, 3, 3, 1, 4, 1, 1, 1, 5, 9, 3, 4, 3, 5, 0, 1, 0, 1, 1, 1, 0, 1, 1, 0, 1, 3, 1, 2, 1, 0, 1, 0, 0, 0, 1, 1, 2, 0, 1, 1, 0, 11, 7, 2, 0, 0, 0, 0, 8, 4, 3, 4, 2, 1, 0, 0, 0, 1913, 2, 0, 0, 0, 0, 0, 0, 0, 0, 0, 0, 0, 0, 0, 0, 0, 0, 0, 0, 0, 0, 0, 0, 0, 2, 0, 0, 0, 860, 582, 0, 0, 75, 104, 10, 6, 4, 6, 0, 4, 434250, 502250, 17, 1664, 0, -1, 0, 16576550216500
2615, 99, 3, 96, 2120, 41, 9, 32, 4530, 568, 14920, 21, 303, 41, 2714, 1, 2342, 3, 1330, 64, 840, 0, 5016, 6431, 3965, 33337, 151, 63, 15, 17, 15, 0, 9868, 1911, 0, 0, 7346, 39, 66, 36, 54, 31, 29, 45, 16, 1911, 18, 39, 86, 169, 790, 1913, 1009, 1439, 2779, 8, 12246, 667, 307, 1679, 0, 0, 0, 1197, 39, 24, 27, 49, 49, 52, 25, 0, 0, 0, 2, 6, 7, 3, 12, 13, 5, 0, 25, 1389, 0, 811, 13, 18, 20, 38, 46, 58, 14, 0, 0, 0, 4, 2, 16, 11, 2, 4, 3, 4, 9, 963, 0, 27, 134, 251, 221, 163, 37, 7, 0, 0, 1608, 1557, 754, 629, 309, 154, 90, 9, 47, 7, 2, 0, 0, 0, 0, 0, 0, 0, 0, 0, 215, 327, 298, 380, 0, 0, 1, 0, 10, 38, 51, 39, 2, 0, 0, 0, 0, 0, 0, 0, 0, 0, 0, 0, 13, 12, 3, 1, 3, 0, 0, 0, 0, 0, 0, 0, 102, 24, 14, 13, 3, 6, 3, 3, 7, 13, 8, 7, 1, 2, 5, 1, 5, 4, 3, 0, 1, 4, 2, 3, 3, 8, 2, 1, 1, 3, 2, 0, 2, 4, 4, 3, 1, 2, 4, 2, 2, 3, 20, 12, 5, 2, 0, 0, 0, 16, 7, 4, 12, 5, 1, 0, 0, 0, 3563, 4, 0, 0, 0, 0, 0, 0, 0, 0, 0, 0, 0, 0, 0, 0, 0, 0, 0, 0, 0, 0, 0, 0, 0, 2, 0, 0, 0, 1442, 973, 0, 0, 177, 130, 2, 1, 1, 1, 0, 1, 88750, 74500, 15, 1920, 64, 676, 0, 16576557676500
14658, 412, 23, 389, 10916, 474, 139, 334, 27920, 4696, 86438, 15792, 322, 362, 15083, 56, 12157, 70, 6674, 525, 5390, 0, 29215, 37801, 22831, 125050, 1207, 807, 224, 14, 336, 0, 27983, 13166, 0, 0, 39402, 159, 484, 417, 252, 272, 448, 233, 54, 13166, 115, 252, 752, 2109, 4284, 6940, 6897, 8352, 15139, 54, 54758, 3203, 1780, 10905, 0, 0, 0, 6214, 207, 195, 281, 265, 331, 318, 109, 1, 0, 0, 49, 107, 227, 128, 144, 95, 48, 54, 262, 6807, 0, 4412, 163, 85, 186, 322, 212, 162, 8, 0, 0, 0, 53, 25, 68, 115, 46, 30, 13, 33, 256, 4911, 0, 199, 1029, 1677, 1269, 901, 283, 31, 1, 0, 9637, 9728, 5552, 2656, 2538, 330, 304, 48, 107, 7, 3, 0, 0, 0, 0, 0, 0, 0, 0, 0, 1621, 1963, 1806, 2280, 0, 0, 4, 16, 61, 163, 348, 225, 21, 0, 0, 0, 0, 0, 0, 0, 0, 0, 0, 0, 161, 98, 25, 6, 3, 24, 0, 1, 0, 0, 0, 0, 597, 132, 62, 62, 67, 45, 3, 52, 22, 66, 22, 11, 19, 11, 13, 7, 27, 42, 28, 37, 40, 20, 32, 6, 40, 19, 2, 8, 11, 4, 6, 9, 3, 6, 5, 6, 4, 5, 4, 5, 33, 36, 133, 119, 48, 31, 6, 0, 0, 193, 49, 64, 65, 25, 18, 1, 0, 0, 23592, 29, 0, 0, 0, 0, 0, 0, 0, 0, 0, 0, 0, 0, 0, 0, 0, 0, 0, 0, 0, 0, 0, 0, 0, 2, 0, 0, 0, 7557, 5360, 0, 0, 1000, 501, 304, 152, 147, 152, 0, 146, 11040250, 11874748, 327, 29760, 6016, -1, 0, 16576600895500
2050, 203, 11, 192, 1696, 82, 29, 53, 3732, 592, 18137, 5226, 205, 54, 2253, 1, 1939, 7, 1090, 54, 689, 0, 4130, 5371, 3270, 27052, 120, 42, 20, 41, 9, 0, 6618, 1596, 0, 0, 6115, 31, 46, 21, 40, 29, 23, 37, 14, 1596, 17, 42, 65, 155, 722, 1281, 773, 1182, 2590, 6, 10618, 625, 295, 1373, 0, 0, 0, 977, 26, 24, 32, 49, 61, 53, 3, 0, 0, 0, 1, 4, 8, 10, 5, 1, 9, 1, 21, 1165, 0, 671, 11, 16, 20, 40, 54, 33, 12, 0, 0, 0, 4, 2, 17, 5, 0, 3, 2, 2, 6, 816, 0, 26, 102, 215, 178, 126, 37, 5, 0, 0, 1417, 1301, 574, 493, 245, 97, 52, 3, 3, 4, 2, 0, 0, 0, 0, 0, 0, 0, 0, 0, 179, 269, 241, 304, 0, 0, 1, 1, 5, 33, 44, 29, 3, 0, 0, 0, 0, 0, 0, 0, 0, 0, 0, 0, 21, 10, 4, 1, 2, 0, 0, 0, 0, 0, 0, 0, 99, 19, 15, 12, 4, 2, 0, 2, 5, 14, 7, 7, 1, 1, 2, 2, 4, 3, 3, 2, 2, 0, 3, 3, 1, 3, 3, 0, 2, 0, 0, 0, 0, 1, 3, 3, 4, 1, 1, 1, 1, 2, 25, 13, 7, 6, 0, 0, 0, 23, 10, 7, 10, 5, 1, 0, 0, 0, 2977, 4, 0, 0, 0, 0, 0, 0, 0, 0, 0, 0, 0, 0, 0, 0, 0, 0, 0, 0, 0, 0, 0, 0, 0, 2, 0, 0, 0, 1204, 817, 0, 0, 138, 185, 68, 56, 11, 56, 0, 11, 4288250, 897750, 74, 6656, 704, 676, 0, 16576609964000
446431, 9204, 866, 8338, 171949, 10790, 6907, 3746, 431996, 47413, 1546827, 374663, 279, 3680, 455659, 193, 190288, 335, 108424, 2199, 116777, 0, 485965, 612701, 375223, 2282249, 4553, 4632, 607, 265, 23934, 0, 546374, 162960, 0, 0, 846384, 1420, 4017, 42653, 2082, 1959, 1567, 1082, 671, 162960, 28865, 5853, 12718, 32324, 734929, 50226, 46731, 65638, 102174, 346, 895333, 102785, 27346, 146695, 1, 1, 0, 90551, 1484, 1572, 2252, 3231, 3225, 1926, 1044, 1345, 11190, 0, 570, 325, 603, 806, 573, 597, 1232, 1805, 2608, 108701, 0, 60803, 883, 1035, 1143, 1793, 2445, 1703, 1116, 924, 12143, 0, 317, 113, 334, 870, 742, 459, 1113, 2343, 1928, 75769, 0, 1179, 32102, 51414, 22501, 6268, 2985, 295, 33, 0, 163077, 133040, 90758, 18988, 10940, 4982, 2261, 661, 506, 236, 135, 135, 62, 33, 34, 19, 7, 7, 5, 0, 50548, 28741, 37488, 44776, 0, 1, 34, 7198, 824, 2089, 2091, 1214, 82, 0, 0, 0, 0, 0, 0, 0, 0, 0, 0, 0, 1395, 607, 215, 60, 38, 203, 18, 2, 0, 0, 0, 0, 18274, 639, 278, 322, 246, 138, 91, 163, 164, 284, 178, 128, 116, 119, 13380, 199, 224, 196, 77, 67, 78, 45, 105, 48, 92, 78, 64, 47, 55, 56, 53, 64, 54, 38, 22, 18, 23, 12, 25, 17, 37, 228, 1513, 1035, 736, 292, 45, 0, 0, 1887, 709, 501, 412, 300, 126, 13, 0, 5, 381079, 233, 0, 0, 0, 0, 0, 0, 0, 0, 0, 0, 0, 0, 0, 0, 0, 0, 0, 0, 0, 0, 0, 0, 0, 4, 0, 0, 0, 116529, 81484, 0, 0, 18120, 7061, 5748, 4071, 1652, 4065, 0, 1624, 306755241, 131858880, 5852, 601344, 102080, 0, 0, 16577383377500
2684, 488, 45, 443, 2581, 262, 91, 171, 5794, 975, 50962, 27473, 113, 127, 3174, 5, 3091, 12, 1819, 70, 939, 0, 6576, 8992, 5474, 55731, 153, 39, 22, 3, 11, 0, 8433, 2305, 0, 0, 8872, 36, 63, 52, 53, 68, 21, 52, 18, 2305, 36, 80, 170, 337, 1041, 1905, 1227, 1889, 3101, 7, 19765, 1185, 383, 2156, 0, 0, 0, 1631, 55, 58, 67, 93, 102, 39, 22, 13, 9, 0, 2, 8, 10, 23, 21, 17, 4, 6, 1, 1997, 0, 996, 26, 35, 32, 62, 85, 57, 36, 12, 0, 0, 7, 3, 3, 18, 9, 12, 0, 3, 5, 1281, 0, 30, 119, 284, 232, 201, 55, 18, 0, 0, 2616, 1798, 654, 357, 334, 178, 131, 6, 38, 8, 2, 0, 0, 0, 0, 0, 0, 0, 0, 0, 266, 360, 313, 414, 0, 0, 1, 2, 13, 54, 62, 45, 4, 0, 0, 0, 0, 0, 0, 0, 0, 0, 0, 0, 48, 22, 11, 1, 1, 6, 2, 0, 0, 0, 0, 0, 174, 29, 14, 14, 7, 3, 0, 7, 1, 21, 6, 5, 2, 3, 8, 8, 4, 6, 3, 2, 2, 0, 5, 2, 1, 2, 2, 2, 1, 0, 1, 0, 1, 1, 1, 1, 0, 0, 3, 1, 0, 13, 53, 35, 12, 9, 2, 0, 0, 59, 30, 19, 7, 11, 5, 0, 0, 0, 4617, 4, 0, 0, 0, 0, 0, 0, 0, 0, 0, 0, 0, 0, 0, 0, 0, 0, 0, 0, 0, 0, 0, 0, 0, 2, 0, 0, 0, 2021, 1268, 0, 0, 170, 249, 399, 310, 87, 310, 0, 81, 23047000, 6775500, 401, 31424, 5184, 676, 0, 16577408858500
40689, 461, 22, 439, 11825, 176, 62, 114, 31239, 2278, 101099, 14275, 308, 101, 41150, 15, 12194, 9, 7648, 62, 9935, 0, 35034, 41844, 27304, 182490, 125, 58, 8, 9, 166, 0, 47314, 11188, 0, 0, 68732, 69, 79, 4445, 74, 60, 33, 50, 23, 11188, 3074, 378, 723, 1650, 77326, 1548, 1324, 1959, 3616, 13, 66683, 8582, 1931, 9627, 0, 0, 0, 5902, 55, 49, 71, 115, 136, 126, 98, 126, 1192, 0, 6, 6, 15, 12, 14, 11, 38, 65, 126, 7577, 0, 2936, 22, 29, 31, 57, 95, 105, 84, 72, 1310, 0, 8, 0, 7, 5, 17, 8, 14, 62, 218, 4402, 0, 24, 3082, 4752, 1780, 209, 76, 12, 0, 0, 11636, 9184, 6852, 446, 157, 52, 27, 10, 4, 4, 3, 3, 4, 0, 0, 0, 0, 0, 0, 0, 4660, 1983, 3292, 3518, 0, 0, 1, 767, 34, 73, 63, 31, 2, 0, 0, 0, 0, 0, 0, 0, 0, 0, 0, 0, 43, 23, 3, 1, 0, 3, 1, 0, 0, 0, 0, 0, 1602, 13, 9, 9, 6, 3, 5, 10, 4, 10, 6, 4, 6, 5, 1446, 7, 3, 12, 3, 1, 4, 1, 1, 0, 5, 4, 2, 1, 2, 1, 2, 0, 3, 1, 0, 1, 0, 0, 1, 0, 0, 6, 45, 35, 14, 4, 2, 0, 0, 55, 17, 16, 11, 5, 4, 1, 0, 0, 28335, 18, 0, 0, 0, 0, 0, 0, 0, 0, 0, 0, 0, 0, 0, 0, 0, 0, 0, 0, 0, 0, 0, 0, 0, 2, 0, 0, 0, 7819, 4682, 0, 0, 1592, 423, 173, 140, 31, 140, 0, 31, 10830750, 2998750, 181, 23360, 3328, 0, 0, 16577459408000
2530, 376, 15, 361, 2662, 136, 32, 104, 5794, 707, 23292, 7115, 248, 69, 2906, 3, 3036, 7, 1819, 70, 939, 0, 6577, 8851, 5364, 34488, 153, 32, 22, 2, 52, 0, 5577, 2113, 0, 0, 8061, 22, 65, 50, 57, 64, 22, 50, 19, 2113, 25, 66, 129, 281, 939, 1932, 1124, 1553, 2899, 10, 12648, 1045, 369, 2115, 0, 0, 0, 1601, 47, 46, 63, 80, 101, 59, 17, 8, 0, 0, 1, 8, 5, 19, 6, 21, 15, 29, 25, 1893, 0, 1005, 19, 25, 28, 48, 69, 73, 45, 4, 0, 0, 5, 0, 6, 8, 17, 19, 8, 2, 4, 1247, 0, 30, 119, 284, 232, 201, 55, 18, 0, 0, 2524, 1750, 729, 377, 374, 170, 68, 3, 2, 6, 2, 0, 0, 0, 0, 0, 0, 0, 0, 0, 266, 360, 313, 414, 0, 0, 1, 3, 16, 47, 64, 48, 2, 0, 0, 0, 0, 0, 0, 0, 0, 0, 0, 0, 25, 20, 6, 1, 0, 1, 0, 0, 0, 0, 0, 0, 117, 29, 14, 17, 5, 3, 1, 5, 5, 18, 3, 7, 0, 5, 6, 5, 3, 7, 2, 1, 5, 2, 4, 0, 3, 2, 2, 1, 0, 1, 1, 3, 1, 1, 1, 1, 0, 0, 4, 0, 1, 6, 33, 23, 7, 3, 1, 0, 0, 24, 21, 14, 9, 3, 3, 0, 0, 0, 4487, 4, 0, 0, 0, 0, 0, 0, 0, 0, 0, 0, 0, 0, 0, 0, 0, 0, 0, 0, 0, 0, 0, 0, 0, 2, 0, 0, 0, 1975, 1257, 0, 0, 171, 401, 86, 74, 12, 74, 0, 12, 5816000, 846750, 94, 8448, 1024, 676, 0, 16577471054000
54205, 741, 49, 692, 24827, 430, 206, 224, 62149, 5652, 145383, 19146, 427, 360, 54948, 9, 26367, 9, 15868, 288, 15155, 0, 66373, 85530, 51609, 255155, 659, 1020, 286, 197, 2732, 0, 56313, 21354, 0, 0, 108338, 185, 247, 5137, 384, 392, 204, 251, 276, 21354, 3158, 628, 1172, 5073, 80530, 9693, 8624, 10592, 15545, 60, 89274, 13099, 3428, 20432, 0, 0, 0, 13818, 188, 249, 208, 362, 317, 414, 166, 147, 1224, 0, 29, 13, 297, 68, 103, 110, 131, 235, 417, 15690, 0, 7880, 149, 166, 173, 274, 284, 306, 170, 207, 1059, 0, 70, 9, 56, 30, 33, 68, 54, 270, 287, 9791, 0, 157, 3875, 6231, 3269, 1128, 463, 32, 0, 0, 20998, 22391, 12210, 3412, 2088, 1416, 131, 83, 24, 24, 18, 10, 11, 3, 4, 3, 0, 0, 0, 0, 6098, 4496, 4561, 6194, 0, 1, 3, 789, 119, 371, 353, 223, 5, 0, 0, 0, 0, 0, 0, 0, 0, 0, 0, 0, 150, 64, 15, 28, 0, 6, 1, 0, 0, 0, 0, 0, 1947, 33, 35, 36, 10, 6, 12, 55, 10, 17, 19, 15, 14, 34, 1447, 24, 6, 26, 23, 2, 4, 3, 12, 26, 9, 25, 28, 1, 18, 9, 21, 1, 1, 2, 1, 0, 0, 3, 1, 1, 3, 39, 116, 149, 63, 27, 3, 0, 0, 203, 52, 38, 49, 48, 11, 1, 0, 0, 51653, 48, 0, 0, 0, 0, 0, 0, 0, 0, 0, 0, 0, 0, 0, 0, 0, 0, 0, 0, 0, 0, 0, 0, 0, 2, 0, 0, 0, 16892, 10353, 0, 0, 1998, 674, 273, 193, 79, 193, 0, 79, 14822500, 6059000, 281, 35648, 11520, 0, 0, 16577543745500
86543, 1144, 43, 1101, 27846, 587, 174, 413, 73580, 5569, 220081, 20278, 334, 273, 87688, 33, 29267, 29, 18714, 279, 21526, 0, 81985, 99419, 64971, 396711, 538, 512, 51, 26, 789, 0, 107225, 25955, 0, 0, 152107, 198, 225, 8978, 311, 240, 126, 141, 116, 25955, 6186, 911, 1795, 3659, 155403, 9086, 5928, 6224, 10454, 46, 153717, 18531, 4392, 23161, 1, 0, 0, 15065, 171, 145, 250, 316, 377, 234, 215, 307, 2384, 0, 16, 20, 41, 63, 33, 63, 104, 226, 289, 18609, 0, 6836, 113, 103, 129, 189, 281, 273, 253, 236, 2518, 0, 23, 11, 34, 20, 63, 23, 20, 103, 102, 10532, 0, 157, 6348, 9999, 3917, 791, 255, 59, 0, 0, 26431, 22709, 15339, 1672, 1370, 1097, 317, 40, 73, 32, 12, 12, 15, 10, 12, 6, 0, 0, 0, 0, 9912, 4478, 7136, 7746, 0, 0, 2, 1524, 75, 189, 262, 197, 17, 0, 0, 0, 0, 0, 0, 0, 0, 0, 0, 0, 114, 55, 29, 8, 3, 9, 0, 0, 1, 0, 0, 0, 3362, 80, 43, 43, 17, 10, 9, 21, 10, 49, 13, 23, 14, 15, 2908, 23, 37, 33, 10, 7, 11, 6, 17, 3, 17, 12, 8, 4, 4, 3, 4, 3, 6, 4, 3, 6, 23, 3, 5, 1, 3, 18, 94, 87, 47, 30, 12, 0, 0, 112, 57, 57, 23, 33, 14, 0, 0, 0, 65238, 60, 0, 0, 0, 0, 0, 0, 0, 0, 0, 0, 0, 0, 0, 0, 0, 0, 0, 0, 0, 0, 0, 0, 0, 2, 0, 0, 0, 19314, 10783, 0, 0, 3518, 1341, 287, 184, 101, 184, 0, 98, 16204000, 9143500, 324, 53056, 89536, 676, 0, 16577685461500
115256, 2172, 196, 1976, 56414, 1745, 971, 771, 143811, 12285, 379524, 86007, 378, 813, 117431, 27, 61185, 68, 36504, 664, 31712, 0, 154658, 203052, 121923, 602743, 1480, 3582, 428, 167, 6732, 0, 122198, 48672, 0, 0, 239761, 544, 762, 10204, 871, 762, 418, 379, 506, 48672, 6474, 1772, 3151, 9236, 165237, 22735, 20634, 25670, 39909, 146, 208473, 30334, 7909, 46797, 0, 0, 0, 31052, 492, 440, 565, 883, 902, 1028, 508, 576, 2692, 0, 93, 62, 219, 180, 166, 208, 340, 570, 859, 36441, 0, 18216, 351, 448, 420, 669, 771, 836, 543, 437, 2342, 0, 158, 273, 82, 88, 208, 162, 139, 748, 302, 22873, 0, 436, 8027, 12725, 6723, 2638, 993, 131, 33, 0, 52295, 46706, 27723, 8171, 5052, 2539, 341, 100, 100, 52, 44, 89, 15, 6, 8, 6, 0, 0, 0, 0, 12765, 9301, 9646, 12628, 0, 0, 5, 1592, 273, 864, 1019, 517, 24, 0, 0, 0, 0, 0, 0, 0, 0, 0, 0, 0, 302, 130, 44, 42, 3, 24, 5, 0, 0, 0, 0, 0, 4119, 129, 78, 101, 51, 38, 21, 106, 24, 59, 35, 27, 25, 52, 2940, 31, 17, 99, 43, 10, 19, 34, 13, 37, 18, 45, 48, 6, 11, 10, 38, 16, 1, 12, 1, 1, 3, 2, 7, 4, 4, 72, 279, 281, 173, 56, 10, 0, 0, 466, 116, 99, 93, 95, 22, 3, 0, 0, 118583, 91, 0, 0, 0, 0, 0, 0, 0, 0, 0, 0, 0, 0, 0, 0, 0, 0, 0, 0, 0, 0, 0, 0, 0, 2, 0, 0, 0, 38907, 24458, 0, 0, 4228, 1670, 1189, 854, 327, 854, 0, 322, 67535000, 29165748, 1208, 126976, 66816, 0, 0, 16577875223500
85964, 988, 56, 932, 26812, 571, 213, 358, 70649, 5140, 214470, 26723, 329, 206, 86953, 34, 28047, 20, 17932, 183, 21200, 0, 78764, 95010, 62191, 390006, 371, 518, 21, 239, 810, 0, 99453, 24666, 0, 0, 148293, 154, 175, 9135, 254, 196, 92, 140, 95, 24666, 6314, 861, 1710, 3387, 158257, 7690, 5276, 4463, 8046, 35, 143236, 18340, 4214, 21956, 0, 0, 0, 14314, 153, 116, 213, 277, 337, 213, 187, 280, 2458, 0, 11, 17, 20, 25, 45, 59, 88, 172, 287, 17824, 0, 6407, 77, 92, 96, 157, 245, 240, 276, 224, 2566, 0, 18, 8, 27, 32, 42, 16, 6, 115, 126, 9990, 0, 115, 6364, 9957, 3860, 606, 255, 43, 0, 0, 25430, 21514, 14858, 1486, 915, 885, 197, 52, 94, 19, 12, 10, 13, 6, 8, 6, 0, 0, 0, 0, 9904, 4268, 7028, 7626, 0, 0, 2, 1563, 75, 161, 208, 144, 22, 0, 0, 0, 0, 0, 0, 0, 0, 0, 0, 0, 83, 43, 21, 2, 2, 9, 0, 0, 0, 0, 0, 0, 3328, 64, 32, 31, 20, 5, 5, 20, 6, 39, 7, 18, 12, 8, 2968, 29, 12, 24, 15, 6, 8, 7, 7, 2, 15, 10, 4, 5, 3, 2, 0, 9, 0, 1, 1, 0, 2, 2, 2, 1, 1, 13, 83, 60, 30, 28, 5, 0, 0, 86, 39, 39, 23, 20, 16, 0, 0, 0, 62793, 45, 0, 0, 0, 0, 0, 0, 0, 0, 0, 0, 0, 0, 0, 0, 0, 0, 0, 0, 0, 0, 0, 0, 0, 2, 0, 0, 0, 18432, 10227, 0, 0, 3408, 1043, 346, 247, 97, 245, 0, 93, 20116250, 8205999, 371, 49728, 40512, 676, 0, 16577990851000
4245, 389, 45, 344, 4248, 1413, 1105, 307, 8448, 1390, 46167, 15794, 182, 139, 4635, 12, 6072, 13, 2304, 106, 1564, 0, 11205, 16093, 7982, 51377, 369, 1685, 16, 11, 6651, 0, 7337, 3820, 0, 0, 12162, 176, 188, 70, 88, 33, 87, 68, 48, 3820, 58, 566, 278, 731, 1320, 2437, 1670, 2325, 4329, 11, 24359, 1665, 678, 3671, 0, 0, 0, 1978, 54, 48, 79, 104, 90, 90, 55, 43, 114, 0, 19, 10, 11, 27, 22, 22, 16, 2, 12, 2514, 0, 3090, 38, 32, 43, 81, 74, 70, 20, 16, 115, 0, 13, 6, 17, 15, 20, 5, 22, 6, 21, 3454, 0, 177, 190, 482, 292, 229, 154, 8, 32, 0, 3934, 2814, 1503, 579, 393, 106, 60, 15, 8, 4, 3, 3, 4, 4, 4, 0, 0, 0, 0, 0, 563, 597, 404, 822, 0, 0, 2, 4, 42, 122, 75, 58, 6, 0, 0, 0, 0, 0, 0, 0, 0, 0, 0, 0, 52, 26, 21, 2, 0, 5, 3, 0, 0, 0, 0, 0, 193, 35, 17, 35, 79, 45, 7, 8, 6, 17, 10, 7, 4, 4, 0, 6, 7, 10, 1, 5, 7, 5, 3, 1, 5, 2, 3, 1, 3, 1, 0, 2, 2, 0, 2, 0, 0, 0, 1, 3, 6, 9, 52, 47, 26, 7, 2, 0, 0, 58, 33, 18, 26, 10, 4, 1, 0, 0, 7291, 10, 0, 0, 0, 0, 0, 0, 0, 0, 0, 0, 0, 0, 0, 0, 0, 0, 0, 0, 0, 0, 0, 0, 0, 2, 0, 0, 0, 2715, 3493, 0, 0, 353, 442, 249, 131, 117, 131, 0, 113, 13325250, 11409255, 248, 28800, 52864, 0, 0, 16578013934500
3494, 470, 29, 441, 3271, 294, 86, 208, 8111, 926, 37265, 11809, 217, 91, 3965, 6, 3892, 8, 2316, 127, 1339, 0, 8903, 11879, 7279, 44990, 227, 140, 26, 2, 50, 0, 8364, 2782, 0, 0, 10856, 34, 99, 82, 87, 75, 42, 43, 22, 2782, 36, 87, 218, 611, 1125, 2082, 2540, 1883, 3504, 12, 20743, 1324, 487, 2901, 0, 0, 0, 2054, 61, 51, 77, 120, 139, 51, 18, 26, 0, 0, 6, 10, 18, 25, 1, 19, 16, 37, 33, 2432, 0, 1218, 58, 54, 55, 67, 92, 65, 32, 4, 0, 0, 12, 6, 6, 3, 31, 11, 7, 2, 7, 1560, 0, 72, 183, 375, 338, 270, 83, 18, 0, 0, 3215, 2639, 1134, 482, 453, 171, 154, 6, 6, 4, 3, 3, 4, 3, 4, 3, 0, 0, 0, 0, 398, 514, 427, 618, 0, 0, 1, 3, 18, 62, 79, 74, 10, 0, 0, 0, 0, 0, 0, 0, 0, 0, 0, 0, 36, 15, 16, 0, 3, 2, 1, 0, 0, 0, 0, 0, 148, 30, 14, 16, 7, 3, 4, 2, 4, 20, 8, 6, 4, 4, 23, 6, 7, 9, 2, 3, 15, 3, 5, 1, 5, 2, 1, 1, 1, 0, 0, 1, 2, 1, 2, 0, 3, 0, 3, 3, 1, 9, 39, 21, 15, 9, 2, 0, 0, 35, 15, 17, 11, 13, 4, 1, 0, 0, 6384, 25, 0, 0, 0, 0, 0, 0, 0, 0, 0, 0, 0, 0, 0, 0, 0, 0, 0, 0, 0, 0, 0, 0, 0, 2, 0, 0, 0, 2523, 1595, 0, 0, 228, 504, 171, 111, 59, 111, 0, 54, 9361000, 4875000, 174, 16064, 12480, 676, 0, 16578034366500
67634, 974, 72, 902, 37199, 579, 248, 331, 92875, 8622, 196347, 36551, 473, 529, 68610, 44, 40114, 18, 23215, 481, 20278, 0, 97253, 127845, 75323, 334932, 1154, 1152, 426, 100, 1698, 0, 62888, 31083, 0, 0, 146505, 334, 612, 5559, 707, 582, 472, 472, 398, 31083, 3323, 1366, 1627, 6550, 85311, 14671, 17651, 18896, 27927, 109, 106567, 17417, 5100, 30708, 0, 0, 0, 20410, 336, 317, 361, 626, 567, 797, 339, 166, 1298, 0, 72, 56, 133, 91, 114, 145, 252, 438, 504, 23412, 0, 12852, 294, 323, 338, 492, 527, 480, 186, 151, 1225, 0, 112, 13, 57, 71, 191, 118, 198, 747, 244, 15117, 0, 470, 4702, 7624, 4456, 2084, 892, 50, 0, 0, 29781, 32848, 19311, 6378, 3881, 1959, 359, 73, 51, 44, 40, 91, 7, 3, 4, 3, 0, 0, 0, 0, 7565, 6726, 5987, 8590, 0, 0, 1, 835, 247, 628, 700, 308, 14, 0, 0, 0, 0, 0, 0, 0, 0, 0, 0, 0, 180, 99, 61, 6, 4, 13, 0, 0, 0, 0, 0, 0, 2230, 84, 50, 70, 105, 32, 14, 87, 13, 25, 23, 17, 17, 41, 1481, 14, 25, 69, 35, 10, 5, 35, 8, 36, 11, 37, 41, 6, 1, 4, 23, 18, 1, 4, 2, 0, 0, 0, 3, 3, 7, 57, 188, 178, 103, 33, 6, 0, 0, 279, 78, 49, 80, 78, 14, 2, 0, 0, 75005, 62, 0, 0, 0, 0, 0, 0, 0, 0, 0, 0, 0, 0, 0, 0, 0, 0, 0, 0, 0, 0, 0, 0, 0, 2, 0, 0, 0, 24967, 16372, 0, 0, 2464, 877, 469, 365, 100, 364, 0, 98, 27782750, 7902999, 474, 54976, 17152, 0, 0, 16578132540000
43259, 635, 45, 590, 13131, 350, 108, 242, 36003, 2586, 119480, 18579, 301, 121, 43894, 20, 13881, 9, 8902, 162, 10735, 0, 39886, 48094, 31625, 200239, 280, 325, 17, 161, 82, 0, 52446, 12566, 0, 0, 75262, 71, 109, 4561, 122, 100, 46, 57, 30, 12566, 3163, 439, 857, 1932, 79361, 2977, 3404, 2533, 4529, 16, 78388, 9198, 2140, 11174, 0, 0, 0, 7020, 61, 65, 109, 164, 174, 125, 114, 169, 1218, 0, 12, 9, 12, 30, 5, 31, 33, 79, 123, 8885, 0, 3071, 76, 75, 64, 91, 124, 131, 120, 167, 1218, 0, 12, 4, 11, 7, 58, 17, 2, 33, 49, 4944, 0, 96, 3232, 4985, 1938, 352, 110, 22, 0, 0, 13074, 11044, 7387, 515, 486, 201, 169, 15, 35, 4, 3, 3, 4, 3, 4, 3, 0, 0, 0, 0, 4990, 2190, 3555, 3834, 0, 0, 0, 779, 35, 72, 117, 88, 13, 0, 0, 0, 0, 0, 0, 0, 0, 0, 0, 0, 53, 23, 9, 3, 3, 2, 1, 0, 0, 0, 0, 0, 1688, 34, 18, 18, 12, 3, 3, 11, 2, 23, 6, 10, 6, 5, 1500, 26, 9, 10, 4, 3, 18, 4, 5, 0, 6, 5, 2, 1, 2, 2, 1, 5, 0, 1, 1, 1, 2, 0, 2, 1, 1, 11, 58, 34, 13, 10, 2, 0, 0, 53, 22, 22, 15, 9, 6, 2, 0, 0, 32177, 46, 0, 0, 0, 0, 0, 0, 0, 0, 0, 0, 0, 0, 0, 0, 0, 0, 0, 0, 0, 0, 0, 0, 0, 2, 0, 0, 0, 9150, 5073, 0, 0, 1766, 636, 251, 174, 76, 174, 0, 72, 13887750, 6102250, 263, 35648, 96256, 676, 0, 16578211710000
61401, 1114, 74, 1040, 31176, 586, 215, 364, 79239, 6593, 184975, 32744, 428, 399, 62518, 43, 33582, 17, 19876, 420, 17853, 0, 83634, 108596, 65031, 313956, 949, 1237, 289, 75, 1448, 0, 63654, 26344, 0, 0, 129047, 250, 484, 5332, 539, 425, 339, 358, 252, 26344, 3295, 1033, 1497, 5846, 84252, 11500, 14798, 14592, 21249, 71, 106965, 14977, 4314, 25973, 0, 0, 0, 17094, 237, 286, 310, 538, 500, 597, 252, 167, 1270, 0, 73, 35, 299, 91, 98, 91, 190, 352, 440, 19582, 0, 10230, 236, 237, 284, 370, 443, 408, 234, 246, 1090, 0, 84, 8, 35, 80, 134, 93, 166, 535, 205, 12438, 0, 332, 4311, 6996, 3829, 1647, 680, 58, 0, 0, 24497, 28132, 16959, 4760, 3277, 1435, 333, 40, 74, 29, 33, 60, 0, 0, 0, 0, 0, 0, 0, 0, 6952, 5554, 5347, 7382, 0, 0, 1, 819, 164, 492, 555, 295, 19, 0, 0, 0, 0, 0, 0, 0, 0, 0, 0, 0, 127, 95, 40, 5, 3, 3, 5, 0, 0, 0, 0, 0, 2078, 81, 47, 66, 48, 30, 12, 69, 14, 32, 19, 19, 11, 28, 1489, 26, 34, 54, 31, 6, 5, 22, 5, 22, 12, 29, 32, 5, 4, 3, 23, 15, 3, 8, 1, 1, 0, 3, 4, 1, 0, 43, 136, 146, 63, 27, 7, 0, 0, 211, 46, 46, 63, 57, 10, 1, 0, 0, 64607, 50, 0, 0, 0, 0, 0, 0, 0, 0, 0, 0, 0, 0, 0, 0, 0, 0, 0, 0, 0, 0, 0, 0, 0, 2, 0, 0, 0, 21080, 13430, 0, 0, 2319, 1113, 399, 287, 105, 285, 0, 104, 25835750, 10099500, 412, 48960, 54528, 0, 0, 16578304197500
3599, 498, 30, 468, 3411, 266, 78, 188, 8699, 857, 36037, 10566, 241, 93, 4097, 5, 4024, 7, 2412, 145, 1441, 0, 9438, 12510, 7661, 47164, 251, 190, 8, 44, 11, 0, 8299, 2845, 0, 0, 11144, 31, 88, 87, 98, 70, 36, 45, 25, 2845, 34, 95, 174, 578, 1210, 2078, 2860, 2000, 3373, 18, 20542, 1386, 505, 3037, 0, 0, 0, 2075, 57, 52, 75, 125, 132, 75, 27, 36, 0, 0, 10, 6, 7, 19, 6, 16, 1, 9, 6, 2574, 0, 1213, 66, 57, 60, 69, 93, 80, 33, 26, 0, 0, 10, 3, 10, 5, 41, 8, 2, 2, 4, 1612, 0, 84, 201, 400, 362, 287, 89, 18, 0, 0, 3398, 2866, 1098, 434, 439, 204, 121, 8, 37, 5, 12, 3, 4, 3, 4, 3, 0, 0, 0, 0, 434, 555, 452, 678, 0, 0, 0, 1, 24, 64, 87, 78, 8, 0, 0, 0, 0, 0, 0, 0, 0, 0, 0, 0, 35, 19, 10, 2, 1, 3, 0, 0, 0, 0, 0, 0, 146, 32, 15, 14, 8, 3, 1, 5, 5, 23, 6, 9, 3, 4, 12, 38, 8, 4, 3, 1, 8, 3, 6, 0, 3, 3, 1, 2, 1, 2, 1, 3, 0, 2, 0, 1, 1, 0, 3, 1, 0, 8, 40, 24, 8, 12, 2, 0, 0, 36, 16, 19, 10, 7, 6, 1, 0, 0, 6823, 31, 0, 0, 0, 0, 0, 0, 0, 0, 0, 0, 0, 0, 0, 0, 0, 0, 0, 0, 0, 0, 0, 0, 0, 2, 0, 0, 0, 2612, 1650, 0, 0, 238, 539, 144, 99, 45, 98, 0, 45, 8686000, 4000500, 151, 16064, 65088, 676, 0, 16578331645500
50578, 1056, 81, 975, 19929, 973, 605, 367, 51913, 4656, 158387, 33669, 327, 320, 51646, 33, 21680, 32, 12334, 228, 14071, 0, 56795, 71968, 43387, 243116, 784, 502, 117, 29, 1562, 0, 56632, 18537, 0, 0, 96239, 404, 406, 4830, 214, 202, 178, 149, 127, 18537, 3217, 1465, 1315, 3507, 80993, 5496, 7536, 6902, 12183, 45, 92750, 11905, 3155, 16907, 0, 0, 0, 10170, 131, 173, 204, 306, 297, 328, 171, 152, 1215, 0, 57, 15, 39, 54, 76, 52, 84, 187, 313, 12270, 0, 6793, 100, 107, 164, 226, 271, 267, 117, 146, 1259, 0, 39, 5, 13, 41, 78, 28, 42, 178, 137, 8889, 0, 409, 3779, 6037, 2641, 824, 363, 18, 0, 0, 17808, 15920, 11727, 2189, 1775, 472, 95, 27, 22, 16, 15, 27, 8, 4, 4, 0, 0, 0, 0, 0, 6007, 3744, 4320, 5576, 0, 0, 3, 792, 85, 259, 293, 154, 5, 0, 0, 0, 0, 0, 0, 0, 0, 0, 0, 0, 110, 62, 30, 5, 1, 14, 3, 0, 0, 0, 0, 0, 1937, 74, 35, 54, 171, 93, 12, 39, 11, 32, 11, 13, 12, 18, 1478, 10, 18, 25, 12, 8, 9, 10, 6, 7, 15, 12, 10, 6, 1, 4, 8, 3, 2, 1, 2, 1, 2, 2, 3, 4, 7, 25, 110, 104, 57, 20, 5, 0, 0, 151, 54, 36, 46, 41, 11, 2, 0, 0, 45220, 33, 0, 0, 0, 0, 0, 0, 0, 0, 0, 0, 0, 0, 0, 0, 0, 0, 0, 0, 0, 0, 0, 0, 0, 2, 0, 0, 0, 13032, 9275, 0, 0, 2247, 1017, 413, 317, 92, 316, 0, 90, 25781250, 7230748, 419, 49984, 20928, 0, 0, 16578410839000
3088, 525, 40, 485, 3141, 218, 59, 159, 7236, 875, 35595, 13741, 203, 98, 3613, 6, 3648, 12, 2159, 96, 1173, 0, 8082, 10866, 6576, 42058, 183, 78, 14, 2, 46, 0, 7364, 2621, 0, 0, 10009, 33, 83, 60, 76, 68, 30, 47, 22, 2621, 33, 92, 204, 343, 1196, 1940, 1868, 1982, 3421, 9, 17530, 1287, 452, 2585, 0, 0, 0, 1924, 47, 57, 74, 112, 125, 61, 11, 10, 0, 0, 3, 6, 8, 31, 11, 17, 20, 31, 27, 2267, 0, 1152, 38, 56, 42, 68, 83, 77, 39, 4, 0, 0, 12, 2, 2, 5, 13, 13, 5, 1, 5, 1501, 0, 52, 158, 332, 293, 246, 73, 19, 0, 0, 3000, 2161, 951, 466, 497, 230, 112, 19, 36, 6, 5, 3, 4, 3, 4, 3, 0, 0, 0, 0, 340, 448, 385, 528, 0, 0, 0, 0, 15, 55, 90, 55, 8, 0, 0, 0, 0, 0, 0, 0, 0, 0, 0, 0, 39, 19, 11, 4, 1, 1, 1, 0, 0, 0, 0, 0, 150, 32, 15, 15, 8, 3, 1, 5, 1, 21, 5, 10, 4, 3, 14, 7, 6, 7, 1, 2, 7, 2, 6, 1, 4, 4, 0, 1, 2, 0, 0, 3, 3, 1, 1, 0, 1, 1, 2, 2, 0, 9, 42, 25, 16, 9, 1, 0, 0, 36, 20, 20, 9, 11, 7, 0, 0, 0, 5605, 19, 0, 0, 0, 0, 0, 0, 0, 0, 0, 0, 0, 0, 0, 0, 0, 0, 0, 0, 0, 0, 0, 0, 0, 2, 0, 0, 0, 2357, 1507, 0, 0, 204, 513, 164, 127, 37, 127, 0, 35, 10703750, 2997250, 170, 14784, 13632, 676, 0, 16578428636500
55355, 865, 53, 812, 24908, 403, 154, 248, 64768, 5351, 147466, 19090, 439, 295, 56222, 31, 26568, 13, 15666, 293, 15828, 0, 68450, 87774, 52873, 261129, 803, 929, 204, 52, 1712, 0, 57224, 21364, 0, 0, 110334, 336, 373, 5104, 372, 294, 269, 302, 183, 21364, 3244, 1358, 1241, 4833, 82228, 7723, 11236, 10430, 15458, 54, 90751, 13129, 3589, 20905, 0, 0, 0, 13234, 199, 213, 229, 369, 342, 466, 212, 142, 1259, 0, 66, 33, 192, 59, 81, 82, 174, 316, 394, 15268, 0, 8015, 165, 172, 206, 299, 350, 296, 192, 208, 1081, 0, 57, 0, 25, 116, 89, 75, 118, 434, 128, 9942, 0, 392, 4003, 6502, 3219, 1176, 507, 29, 0, 0, 20158, 22050, 14419, 3174, 2406, 894, 328, 30, 28, 18, 17, 45, 4, 0, 0, 0, 0, 0, 0, 0, 6446, 4636, 4746, 6546, 0, 0, 3, 809, 128, 354, 390, 232, 5, 0, 0, 0, 0, 0, 0, 0, 0, 0, 0, 0, 88, 69, 37, 4, 0, 10, 1, 0, 0, 0, 0, 0, 1917, 63, 32, 73, 122, 55, 11, 47, 10, 23, 11, 12, 12, 20, 1483, 15, 7, 42, 22, 9, 7, 18, 5, 15, 9, 20, 21, 3, 2, 3, 16, 3, 2, 6, 1, 1, 2, 0, 0, 2, 5, 31, 94, 112, 55, 15, 5, 0, 0, 153, 30, 20, 51, 51, 14, 0, 0, 0, 54004, 34, 0, 0, 0, 0, 0, 0, 0, 0, 0, 0, 0, 0, 0, 0, 0, 0, 0, 0, 0, 0, 0, 0, 0, 4, 0, 0, 0, 16538, 10693, 0, 0, 2213, 877, 257, 186, 69, 186, 0, 68, 14703250, 5944250, 265, 34560, 15744, 0, 0, 16578502369500
3443, 516, 29, 487, 3334, 230, 66, 164, 8144, 856, 32910, 10297, 247, 92, 3959, 6, 3899, 7, 2316, 124, 1336, 0, 8947, 11961, 7255, 43487, 223, 115, 21, 8, 14, 0, 7254, 2818, 0, 0, 10905, 30, 84, 73, 91, 72, 36, 44, 22, 2818, 33, 98, 158, 472, 1188, 2139, 2458, 2102, 3440, 12, 17914, 1324, 502, 2872, 0, 0, 0, 2014, 52, 53, 88, 124, 127, 62, 28, 10, 0, 0, 3, 6, 9, 20, 8, 15, 5, 16, 14, 2462, 0, 1225, 49, 59, 51, 69, 84, 79, 47, 4, 0, 0, 9, 2, 10, 6, 29, 11, 5, 2, 5, 1588, 0, 71, 184, 373, 334, 272, 83, 19, 0, 0, 3165, 2631, 1092, 486, 486, 198, 126, 11, 35, 5, 5, 3, 4, 3, 4, 3, 0, 0, 0, 0, 395, 516, 425, 616, 0, 0, 0, 2, 19, 60, 88, 72, 7, 0, 0, 0, 0, 0, 0, 0, 0, 0, 0, 0, 38, 21, 8, 2, 1, 1, 1, 0, 0, 0, 0, 0, 146, 27, 15, 15, 9, 4, 1, 8, 4, 22, 6, 9, 3, 6, 14, 17, 9, 7, 4, 1, 11, 3, 5, 0, 5, 3, 1, 1, 1, 0, 0, 4, 1, 1, 1, 0, 0, 0, 3, 1, 1, 7, 41, 22, 11, 10, 3, 0, 0, 36, 16, 17, 13, 6, 8, 0, 0, 0, 6364, 27, 0, 0, 0, 0, 0, 0, 0, 0, 0, 0, 0, 0, 0, 0, 0, 0, 0, 0, 0, 0, 0, 0, 0, 2, 0, 0, 0, 2505, 1621, 0, 0, 226, 552, 127, 86, 40, 86, 0, 39, 7974250, 3175500, 134, 13952, 48960, 676, 0, 16578526967000
833532, 31657, 723, 30934, 734890, 16451, 7349, 9100, 1852062, 168276, 5736197, 143413, 322, 13782, 866052, 145, 804246, 384, 458414, 14284, 355549, 54218, 1913143, 2517798, 1435671, 10878256, 50834, 31430, 1611, 11105, 21147, 1996, 3765615, 1095012, 0, 0, 2233183, 44562, 28286, 16951, 43331, 13245, 20464, 12835, 13394, 1095012, 5623, 25028, 45111, 103996, 631826, 474644, 316829, 368168, 596617, 2242, 4590536, 217369, 128470, 656399, 9, 1, 0, 395167, 10777, 9267, 13145, 16229, 20172, 19796, 12614, 3210, 21, 0, 3577, 1969, 1873, 7752, 2954, 1924, 3773, 3392, 4615, 468569, 0, 292585, 2539, 4402, 7421, 13702, 14796, 14897, 10969, 102, 231, 0, 6386, 1148, 4544, 1501, 5577, 2194, 3825, 4410, 2244, 329815, 0, 16613, 52639, 127517, 82732, 48693, 25069, 2262, 24, 0, 619456, 660706, 514956, 168357, 66971, 65235, 18451, 1756, 426, 1151, 8, 9, 9, 8, 8, 0, 0, 0, 0, 0, 151950, 88307, 115292, 121026, 0, 0, 34, 1154, 10590, 19015, 12158, 10703, 1004, 271, 339, 417, 14, 2, 0, 0, 0, 0, 0, 0, 4619, 3127, 782, 22, 352, 69, 8, 3, 0, 0, 0, 0, 29832, 4878, 3285, 3276, 2789, 1187, 396, 788, 1475, 2168, 1013, 802, 174, 605, 1419, 619, 1109, 5961, 984, 539, 420, 973, 498, 587, 403, 785, 113, 145, 340, 131, 461, 47, 132, 724, 395, 396, 413, 65, 97, 235, 661, 919, 5027, 2723, 3455, 1767, 24, 0, 0, 8078, 2409, 2059, 888, 1013, 280, 18, 0, 1, 1446945, 23525, 0, 0, 0, 0, 0, 0, 0, 0, 0, 0, 0, 0, 0, 0, 0, 0, 0, 0, 5301, 0, 2271, 0, 1172, 11043, 2819, 5553, 348, 496486, 347940, 0, 0, 41499, 38252, 2388, 1610, 762, 1609, 0, 749, 121389750, 60212235, 4072, 869760, 27008, -1, 0, 16581395065500
1028, 113, 23, 90, 837, 78, 44, 34, 1699, 437, 12036, 5905, 141, 44, 1141, 2, 1004, 4, 481, 30, 289, 64, 1913, 2576, 1510, 10141, 50, 17, 5, 7, 244, 0, 2028, 804, 0, 0, 3225, 5, 30, 20, 16, 12, 6, 20, 16, 804, 9, 19, 51, 111, 455, 746, 483, 613, 1061, 4, 4965, 346, 149, 671, 0, 0, 0, 474, 13, 16, 20, 33, 31, 14, 0, 0, 0, 0, 0, 3, 15, 5, 11, 15, 10, 6, 0, 536, 0, 416, 7, 8, 27, 20, 20, 15, 10, 0, 0, 0, 2, 6, 11, 2, 0, 1, 3, 5, 0, 493, 0, 12, 32, 85, 82, 61, 14, 2, 1, 0, 774, 570, 205, 179, 107, 30, 60, 3, 2, 2, 3, 1, 1, 1, 1, 1, 1, 0, 0, 0, 74, 112, 103, 150, 0, 0, 2, 2, 5, 12, 18, 14, 0, 0, 0, 0, 0, 0, 0, 0, 0, 0, 0, 0, 24, 11, 1, 0, 0, 3, 0, 0, 0, 0, 0, 0, 60, 8, 7, 7, 1, 1, 0, 2, 1, 10, 1, 1, 2, 2, 2, 1, 3, 0, 3, 1, 1, 1, 1, 1, 0, 0, 2, 0, 0, 0, 0, 0, 0, 0, 0, 0, 1, 0, 0, 0, 0, 2, 15, 17, 7, 6, 0, 0, 0, 19, 16, 3, 7, 1, 1, 1, 0, 0, 1355, 3, 0, 0, 0, 0, 0, 0, 0, 0, 0, 0, 0, 0, 0, 0, 0, 0, 0, 0, 0, 0, 0, 0, 0, 4, 0, 0, 0, 563, 473, 0, 0, 61, 44, 90, 64, 26, 64, 0, 25, 4775750, 1970750, 89, 7168, 960, 676, 0, 16581401083500
2939937, 101623, 1340, 100283, 2626996, 47409, 17881, 29526, 6560692, 569573, 19955134, 70000, 328, 45206, 3044646, 909, 2871580, 491, 1641762, 49068, 1246377, 203323, 6780310, 8907066, 5088723, 37850396, 169092, 101830, 4623, 40500, 56301, 7987, 13701535, 3937709, 0, 0, 7864288, 153253, 99184, 56147, 159240, 47793, 71090, 46628, 48666, 3937709, 20036, 48662, 153367, 332704, 2320466, 1695825, 1125302, 1286069, 2064886, 7737, 16357456, 748258, 455506, 2323885, 28, 1, 0, 1421664, 36887, 32275, 45419, 57305, 72147, 64563, 40892, 11025, 16, 0, 12725, 6860, 7029, 27703, 10363, 6214, 13485, 11834, 16793, 1669187, 0, 1039608, 7837, 15418, 26350, 47145, 51403, 52996, 45464, 80, 0, 0, 23911, 3440, 16553, 7174, 21263, 8927, 15764, 18297, 6665, 1164307, 0, 48740, 185028, 450627, 290562, 173209, 89853, 8350, 8, 0, 2110147, 2414909, 1866413, 600079, 259153, 258817, 69624, 5517, 961, 3726, 0, 0, 0, 0, 0, 0, 0, 0, 0, 0, 537366, 296176, 412835, 402748, 0, 0, 103, 4246, 38435, 67599, 41979, 37655, 3499, 1069, 1264, 1510, 47, 2, 0, 0, 0, 0, 0, 0, 15596, 10826, 2303, 29, 1320, 13, 1, 0, 0, 0, 0, 0, 103114, 16781, 11898, 10665, 2793, 1344, 1337, 2640, 5297, 7878, 3164, 2659, 474, 2174, 5201, 2207, 3962, 21971, 3515, 1468, 1309, 3826, 1782, 2192, 1304, 2679, 428, 479, 1238, 447, 1756, 3, 436, 2639, 1328, 1312, 1320, 108, 471, 962, 2169, 3118, 16043, 8918, 11556, 5928, 34, 0, 0, 27356, 7279, 6900, 2868, 3244, 705, 2, 0, 0, 5084203, 88458, 0, 0, 0, 0, 0, 0, 0, 0, 0, 0, 0, 0, 0, 0, 0, 0, 0, 0, 19456, 0, 8383, 0, 4400, 41616, 10520, 20526, 1320, 1777728, 1235579, 0, 0, 135619, 131588, 949, 560, 384, 560, 0, 383, 43817000, 30210500, 7113, 2400128, 8768, -1, 0, 16591378650500
992, 89, 13, 76, 801, 67, 41, 26, 1595, 373, 8101, 3214, 196, 36, 1082, 1, 958, 2, 457, 26, 279, 64, 1804, 2398, 1418, 8694, 51, 15, 11, 7, 221, 0, 1300, 763, 0, 0, 2887, 10, 33, 23, 21, 12, 13, 17, 21, 763, 11, 21, 37, 99, 502, 528, 505, 573, 949, 4, 3808, 323, 129, 627, 0, 0, 0, 432, 12, 14, 13, 19, 34, 27, 4, 0, 0, 0, 0, 1, 8, 1, 14, 8, 2, 3, 1, 517, 0, 375, 11, 10, 18, 23, 19, 14, 2, 0, 0, 0, 2, 4, 10, 1, 4, 2, 4, 8, 0, 437, 0, 14, 33, 82, 75, 58, 14, 2, 1, 0, 765, 493, 180, 189, 101, 15, 49, 2, 0, 0, 0, 0, 0, 0, 0, 0, 0, 0, 0, 0, 76, 103, 100, 138, 0, 0, 0, 3, 4, 11, 25, 5, 2, 0, 0, 0, 0, 0, 0, 0, 0, 0, 0, 0, 17, 8, 2, 1, 0, 2, 0, 0, 0, 0, 0, 0, 57, 9, 8, 8, 2, 2, 1, 1, 2, 10, 1, 2, 1, 1, 3, 2, 2, 1, 2, 0, 1, 1, 0, 0, 0, 0, 1, 0, 0, 0, 0, 0, 0, 0, 0, 0, 0, 0, 1, 0, 0, 1, 14, 10, 5, 5, 2, 0, 0, 12, 11, 3, 7, 2, 1, 1, 0, 0, 1279, 2, 0, 0, 0, 0, 0, 0, 0, 0, 0, 0, 0, 0, 0, 0, 0, 0, 0, 0, 0, 0, 0, 0, 0, 4, 0, 0, 0, 526, 438, 0, 0, 63, 64, 43, 35, 8, 35, 0, 8, 2644500, 656000, 43, 3776, 256, 676, 0, 16591382701000
26701280, 1038748, 25039, 1013709, 22732326, 568289, 217697, 350582, 54788343, 4468629, 179976948, 459711, 304, 380376, 27780143, 1778, 25008550, 6049, 14451605, 569378, 10256893, 1656551, 57858519, 74895183, 43956476, 363763296, 1842494, 935787, 43114, 159827, 436058, 82368, 123239411, 30782956, 0, 0, 72379132, 1132243, 807486, 425742, 1247503, 491763, 618759, 461463, 271661, 30782956, 164664, 471105, 1639643, 2612486, 18751212, 15679584, 10386454, 12570561, 20608189, 77316, 149631427, 6659690, 3725452, 19500650, 15, 3, 0, 12319232, 315882, 279415, 381188, 505158, 618775, 619731, 430662, 117119, 397, 0, 108386, 62515, 36408, 245181, 79907, 11434, 89515, 146247, 267050, 14540916, 0, 8639227, 84795, 161059, 228300, 373744, 515743, 602995, 377081, 385, 0, 0, 177894, 26050, 100770, 18467, 105907, 37224, 66124, 122775, 60846, 10267272, 0, 374870, 1621080, 3526955, 2415492, 1561723, 674128, 72205, 10434, 0, 18497856, 20279436, 12167259, 5102918, 1601160, 2281695, 744714, 70855, 12292, 48560, 10, 35, 0, 0, 0, 0, 0, 0, 0, 0, 4121300, 2716937, 3418656, 3571900, 0, 380, 2102, 31677, 284209, 539279, 409815, 332197, 38781, 7836, 5757, 11966, 3703, 2111, 0, 0, 0, 0, 0, 0, 113800, 90614, 23714, 52, 11950, 52, 4, 0, 0, 0, 0, 0, 995917, 207501, 144422, 127663, 34676, 17377, 11937, 23831, 58161, 98341, 45302, 34487, 640, 33831, 63235, 34004, 51648, 169754, 40400, 6705, 17232, 40793, 17931, 28610, 12024, 40008, 5407, 6215, 16328, 5750, 12178, 21, 5725, 34414, 27649, 6696, 17411, 474, 5997, 11922, 28451, 35669, 157559, 77144, 77520, 33550, 25, 0, 0, 216908, 83148, 75105, 19951, 20052, 886, 8, 0, 0, 42432697, 463900, 0, 0, 0, 0, 0, 0, 0, 0, 0, 0, 0, 0, 0, 0, 0, 0, 0, 0, 235038, 0, 45703, 0, 41423, 354698, 112134, 142431, 6606, 15506739, 10645176, 0, 0, 1545150, 1374015, 5389, 2522, 2829, 2518, 0, 2816, 189723750, 223052246, 80348, 21659712, 28992, -1, 0, 16681371175000
1829, 200, 31, 169, 1431, 168, 86, 82, 3695, 717, 24114, 12331, 153, 90, 2030, 1, 1783, 28, 945, 25, 578, 64, 3820, 5630, 3105, 18378, 53, 76, 3, 16, 85, 0, 3303, 1384, 0, 0, 5727, 11, 43, 148, 52, 19, 28, 37, 17, 1384, 14, 43, 126, 1272, 723, 861, 769, 868, 1649, 5, 9500, 697, 241, 1345, 0, 0, 0, 944, 24, 30, 29, 54, 47, 34, 17, 3, 0, 0, 12, 47, 33, 27, 22, 23, 17, 35, 21, 945, 0, 588, 14, 19, 24, 32, 36, 31, 8, 0, 0, 0, 65, 10, 1, 10, 11, 10, 23, 5, 0, 617, 0, 19, 55, 173, 145, 161, 20, 4, 1, 0, 1667, 919, 805, 135, 135, 21, 70, 3, 2, 2, 3, 1, 1, 1, 1, 1, 1, 0, 0, 0, 208, 217, 153, 254, 0, 0, 1, 7, 12, 37, 38, 13, 0, 0, 0, 0, 0, 0, 0, 0, 0, 0, 0, 0, 37, 12, 2, 0, 0, 8, 1, 2, 0, 0, 0, 0, 112, 6, 7, 9, 3, 1, 1, 2, 4, 7, 2, 0, 3, 0, 1, 1, 3, 2, 1, 0, 2, 0, 1, 0, 0, 0, 2, 0, 0, 0, 1, 1, 0, 1, 0, 0, 0, 0, 1, 0, 0, 9, 30, 28, 11, 14, 2, 0, 0, 48, 19, 14, 7, 3, 3, 0, 0, 0, 2969, 15, 0, 0, 0, 0, 0, 0, 0, 0, 0, 0, 0, 0, 0, 0, 0, 0, 0, 0, 0, 0, 0, 0, 0, 4, 0, 0, 0, 1150, 727, 0, 0, 66, 64, 210, 137, 71, 137, 0, 70, 10366000, 5751750, 209, 16704, 1088, 676, 0, 16681383232000
59257925, 2280475, 56931, 2223544, 49705519, 1304341, 504652, 799671, 119870827, 9842151, 399963183, 687416, 299, 833048, 61630479, 1104, 54749830, 13431, 31756953, 1284143, 22428309, 3200648, 126826212, 164034681, 96673168, 808114443, 4000964, 2074462, 91648, 275263, 899564, 174383, 275673634, 66348673, 0, 0, 160758659, 2487062, 1815706, 920517, 2729904, 1071207, 1365931, 1002494, 538684, 66348673, 361296, 1048037, 3770033, 6079565, 41171098, 34787341, 22902502, 27937233, 45921528, 172184, 333771126, 14707978, 8151147, 42645501, 12, 3, 0, 27003703, 686563, 617495, 836693, 1115355, 1361908, 1372057, 946440, 254065, 584, 0, 262479, 131626, 36486, 545022, 169172, 19392, 176403, 324813, 620561, 31908909, 0, 18791091, 195652, 363626, 496067, 799467, 1147025, 1350802, 818913, 8265, 63, 0, 398107, 59767, 208531, 35219, 204583, 72122, 127088, 262089, 142468, 22460997, 0, 810513, 3564561, 7663479, 5297405, 3467965, 1446972, 159031, 18383, 0, 40756550, 44331183, 25937631, 11130614, 3315324, 4916470, 1704876, 154262, 29444, 111095, 18, 70, 0, 0, 0, 0, 0, 0, 0, 0, 8898673, 6045316, 7484320, 7915310, 0, 924, 4679, 67266, 607510, 1178210, 914696, 725106, 95390, 14144, 10231, 22671, 8207, 4465, 0, 0, 0, 0, 0, 0, 250529, 198738, 52870, 448, 27630, 27, 3, 1, 0, 0, 0, 0, 2228280, 475406, 330515, 291537, 78064, 40088, 26740, 52647, 133649, 222932, 105847, 77979, 1470, 78608, 144265, 79005, 117953, 374387, 91231, 14216, 40059, 91702, 42565, 65087, 26848, 92692, 12414, 14729, 36349, 13155, 23516, 31, 11729, 78945, 62884, 16264, 41238, 661, 13619, 26086, 65090, 75814, 346497, 171925, 172343, 70026, 133, 0, 0, 467121, 193602, 165803, 45438, 41857, 2612, 722, 0, 0, 93119791, 904069, 0, 0, 0, 0, 0, 0, 0, 0, 0, 0, 0, 0, 0, 0, 0, 0, 0, 0, 475332, 0, 82041, 0, 82445, 701046, 223117, 264475, 11718, 33986670, 23234622, 0, 0, 3510768, 3047169, 4550, 2007, 2507, 2002, 0, 2493, 156767500, 189870750, 175828, 47577600, 18624, -1, 0, 16881364823500
1563, 182, 34, 148, 1352, 146, 69, 77, 3574, 507, 19286, 9336, 185, 56, 1745, 2, 1683, 26, 893, 25, 568, 64, 3723, 5404, 2950, 16067, 53, 79, 3, 16, 55, 0, 2315, 1213, 0, 0, 4896, 5, 40, 136, 46, 12, 24, 27, 14, 1213, 12, 30, 74, 1062, 718, 623, 682, 923, 1288, 5, 7837, 668, 223, 1221, 1, 0, 0, 798, 17, 19, 35, 40, 45, 53, 30, 9, 0, 0, 1, 53, 9, 13, 15, 14, 14, 35, 29, 863, 0, 546, 11, 18, 23, 40, 38, 35, 16, 0, 0, 0, 39, 7, 1, 6, 9, 8, 21, 10, 0, 626, 0, 19, 56, 174, 147, 146, 21, 4, 1, 0, 1538, 819, 722, 133, 132, 46, 71, 3, 2, 2, 4, 1, 1, 1, 1, 1, 1, 0, 0, 0, 194, 216, 158, 248, 0, 0, 1, 4, 13, 27, 42, 14, 3, 0, 0, 0, 0, 0, 0, 0, 0, 0, 0, 0, 25, 7, 2, 0, 1, 3, 3, 0, 0, 0, 0, 0, 78, 8, 7, 9, 3, 0, 1, 1, 3, 9, 3, 1, 1, 0, 3, 1, 1, 0, 1, 0, 0, 0, 0, 1, 0, 0, 2, 0, 0, 0, 0, 0, 0, 2, 0, 0, 0, 0, 2, 0, 0, 3, 24, 17, 6, 8, 0, 0, 0, 27, 15, 9, 3, 3, 2, 0, 0, 0, 2829, 15, 0, 0, 0, 0, 0, 0, 0, 0, 0, 0, 0, 0, 0, 0, 0, 0, 0, 0, 0, 0, 0, 0, 0, 4, 0, 0, 0, 1032, 718, 0, 0, 61, 96, 154, 104, 47, 104, 0, 47, 7199250, 3615500, 154, 10112, 576, 676, 0, 16881374466500
1817849, 71337, 2166, 69171, 1548849, 29292, 9915, 19375, 3959882, 357367, 12885834, 71202, 306, 28434, 1891477, 593, 1687904, 377, 987464, 29528, 753221, 5766, 4104361, 5454766, 3133092, 23054754, 68473, 66883, 2910, 4017, 13279, 0, 8976901, 2248752, 0, 0, 4939767, 94625, 63916, 35973, 89441, 17432, 46569, 33850, 20094, 2248752, 11749, 31479, 113214, 189047, 1502906, 1011679, 755947, 767900, 1276407, 4854, 10683148, 472939, 274575, 1383968, 0, 0, 0, 829820, 23315, 19749, 29603, 35753, 44736, 43358, 30543, 13058, 36, 0, 8030, 3201, 1211, 18196, 3780, 4588, 6338, 9207, 12663, 1002757, 0, 584643, 6903, 10665, 14993, 29668, 33322, 33637, 27159, 1527, 8, 0, 13397, 702, 7251, 3491, 15733, 4717, 6779, 9203, 8532, 672720, 0, 32075, 112664, 264876, 181621, 105246, 53699, 3040, 0, 0, 1325204, 1473262, 985560, 365471, 105896, 113860, 44500, 2655, 959, 2542, 0, 0, 0, 0, 0, 0, 0, 0, 0, 0, 303861, 199207, 250153, 264670, 0, 0, 47, 1852, 21112, 43610, 27005, 22246, 2264, 0, 0, 0, 0, 0, 0, 0, 0, 0, 0, 0, 8983, 7253, 1616, 15, 917, 49, 4, 0, 0, 0, 0, 0, 67573, 11957, 8252, 7356, 1984, 1270, 920, 1241, 3997, 4921, 2727, 1852, 366, 1535, 3355, 1901, 3074, 14017, 2152, 935, 615, 2446, 1230, 1192, 644, 2437, 293, 18, 619, 311, 304, 17, 45, 1827, 914, 608, 932, 324, 309, 890, 1226, 1883, 10071, 5993, 7591, 2899, 100, 0, 0, 14683, 6117, 4404, 3049, 1191, 955, 307, 0, 2, 3126953, 53439, 0, 0, 0, 0, 0, 0, 0, 0, 0, 0, 0, 0, 0, 0, 0, 0, 0, 0, 305, 0, 0, 0, 303, 913, 303, 0, 0, 1054574, 716997, 0, 0, 90724, 89399, 1012, 689, 315, 688, 0, 311, 51346564, 23502748, 5258, 1620864, 3712, 674, 0, 16887817383500
72466, 5309, 520, 4789, 67819, 14887, 11093, 3604, 140384, 23545, 645582, 222004, 217, 2312, 77973, 105, 89173, 334, 39022, 1892, 24687, 160, 174669, 237914, 130274, 786510, 4337, 12275, 223, 229, 43400, 0, 143954, 74329, 0, 0, 206723, 908, 2735, 1997, 1895, 1270, 996, 779, 748, 74329, 561, 1459, 4624, 14563, 27252, 43138, 34389, 41061, 65676, 252, 331535, 21507, 10073, 60454, 1, 2, 0, 34299, 994, 901, 1317, 1957, 1909, 1585, 568, 342, 999, 0, 144, 134, 584, 717, 624, 385, 395, 518, 797, 40573, 0, 41929, 528, 680, 810, 1225, 1575, 1279, 318, 121, 925, 0, 302, 173, 319, 1144, 412, 157, 243, 386, 587, 45667, 0, 984, 3799, 6722, 5813, 4585, 2450, 107, 227, 0, 60346, 49684, 24426, 15363, 6940, 3388, 2209, 459, 92, 391, 32, 14, 3, 4, 4, 3, 3, 3, 0, 0, 9062, 7698, 7927, 9706, 0, 1, 47, 239, 671, 1515, 1505, 774, 85, 0, 0, 0, 0, 0, 0, 0, 0, 0, 0, 0, 822, 400, 93, 22, 28, 117, 29, 5, 0, 0, 0, 0, 3549, 663, 369, 349, 110, 105, 58, 161, 150, 388, 114, 96, 41, 93, 73, 148, 194, 172, 73, 60, 50, 118, 94, 34, 75, 36, 21, 26, 56, 62, 19, 15, 16, 39, 39, 12, 46, 16, 27, 2, 15, 130, 898, 658, 411, 186, 32, 0, 0, 1163, 405, 306, 311, 166, 83, 18, 0, 4, 118738, 94, 0, 0, 0, 0, 0, 0, 0, 0, 0, 0, 0, 0, 0, 0, 0, 0, 0, 0, 0, 0, 0, 0, 0, 14, 0, 0, 0, 45079, 47673, 0, 0, 4283, 4856, 4123, 2534, 1530, 2527, 0, 1503, 187214975, 122757062, 4149, 365440, 56512, -1, 0, 16888140174500
965, 81, 13, 68, 687, 110, 57, 53, 1517, 440, 10420, 3103, 145, 43, 1047, 1, 893, 6, 445, 25, 262, 64, 1691, 2315, 1396, 11107, 65, 27, 11, 136, 198, 0, 3184, 784, 0, 0, 2978, 5, 32, 8, 26, 10, 8, 11, 13, 784, 8, 16, 90, 56, 362, 665, 570, 529, 972, 2, 6270, 299, 130, 618, 0, 0, 0, 436, 18, 22, 23, 20, 20, 9, 6, 0, 0, 0, 2, 0, 11, 7, 8, 0, 9, 4, 2, 511, 0, 384, 14, 15, 10, 14, 12, 7, 4, 0, 0, 0, 3, 2, 12, 10, 4, 4, 0, 2, 0, 423, 0, 11, 29, 89, 65, 51, 14, 2, 1, 0, 665, 489, 251, 197, 128, 17, 83, 3, 1, 1, 1, 1, 1, 1, 1, 1, 1, 0, 0, 0, 69, 104, 89, 130, 0, 0, 1, 1, 2, 15, 17, 12, 0, 0, 0, 0, 0, 0, 0, 0, 0, 0, 0, 0, 18, 12, 2, 0, 0, 3, 0, 0, 0, 0, 0, 0, 59, 14, 6, 6, 2, 1, 2, 2, 0, 5, 3, 1, 3, 2, 1, 1, 2, 0, 1, 1, 3, 1, 0, 0, 0, 0, 2, 0, 0, 0, 0, 0, 0, 0, 0, 0, 1, 0, 1, 0, 0, 4, 17, 15, 2, 6, 1, 0, 0, 15, 13, 9, 5, 3, 1, 0, 0, 0, 1241, 2, 0, 0, 0, 0, 0, 0, 0, 0, 0, 0, 0, 0, 0, 0, 0, 0, 0, 0, 0, 0, 0, 0, 0, 4, 0, 0, 0, 525, 417, 0, 0, 63, 41, 94, 55, 39, 54, 0, 38, 4160750, 3268750, 92, 7552, 2112, 677, 0, 16888145384500
