
27442, 1163, 146, 1011, 18898, 1149, 375, 770, 47872, 13381, 207586, 76821, 229, 1285, 28602, 52, 22086, 232, 12136, 750, 8993, 0, 49404, 67641, 40054, 216000, 1317, 923, 82, 41, 1110, 0, 39492, 25766, 0, 0, 79674, 180, 801, 592, 314, 456, 550, 295, 253, 25767, 193, 496, 1461, 5190, 9120, 13121, 13408, 21039, 23859, 74, 100011, 7315, 3688, 19748, 0, 1, 0, 12718, 365, 529, 578, 672, 469, 204, 58, 35, 53, 0, 194, 95, 82, 328, 264, 260, 432, 638, 900, 12488, 0, 7927, 228, 258, 326, 460, 333, 164, 78, 49, 13, 0, 58, 73, 117, 196, 92, 163, 263, 371, 642, 7861, 0, 273, 1400, 2978, 2433, 1398, 492, 14, 5, 0, 17919, 17543, 13012, 5116, 3472, 821, 1176, 97, 44, 22, 3, 0, 0, 0, 0, 0, 0, 0, 0, 0, 2766, 3493, 2734, 4235, 0, 0, 1, 11, 162, 386, 503, 337, 25, 0, 0, 0, 0, 0, 0, 0, 0, 0, 0, 0, 506, 258, 32, 6, 20, 102, 16, 5, 0, 0, 0, 0, 1564, 157, 69, 68, 32, 23, 18, 25, 30, 95, 60, 53, 46, 12, 33, 45, 48, 69, 20, 27, 21, 29, 51, 27, 12, 18, 15, 30, 28, 41, 6, 11, 15, 8, 0, 1, 3, 1, 9, 9, 19, 79, 605, 360, 199, 101, 24, 0, 0, 574, 267, 218, 167, 103, 58, 4, 0, 2, 42262, 22, 0, 0, 0, 0, 0, 0, 0, 0, 0, 0, 0, 0, 0, 0, 0, 0, 0, 0, 0, 0, 0, 0, 0, 0, 0, 0, 0, 14754, 9105, 0, 0, 1347, 549, 1507, 912, 563, 911, 0, 557, 66398750, 44694000, 1496, 125376, 128, 674, 0, 14518049798500
12713, 1576, 185, 1391, 9781, 2235, 1568, 664, 22611, 7014, 171892, 87416, 131, 872, 14335, 52, 12920, 126, 5123, 273, 3815, 0, 26872, 38396, 21245, 141934, 639, 162, 49, 11, 3283, 0, 26766, 15388, 0, 0, 40367, 86, 206, 473, 212, 140, 154, 117, 153, 15388, 122, 272, 690, 4166, 4803, 6715, 7080, 7792, 12534, 49, 68017, 4271, 1980, 10204, 1, 0, 0, 5256, 216, 228, 324, 383, 297, 114, 26, 0, 0, 0, 20, 26, 88, 190, 104, 112, 84, 113, 145, 5962, 0, 6441, 125, 165, 197, 205, 244, 148, 41, 23, 168, 0, 46, 19, 87, 117, 51, 50, 73, 71, 80, 7163, 0, 177, 561, 1025, 811, 671, 530, 39, 1, 0, 11285, 8874, 4688, 4507, 1819, 327, 196, 17, 2, 0, 0, 0, 0, 0, 0, 0, 0, 0, 0, 0, 1573, 1063, 1179, 1324, 0, 0, 2, 20, 78, 176, 324, 133, 11, 0, 0, 0, 0, 0, 0, 0, 0, 0, 0, 0, 298, 102, 25, 7, 11, 58, 12, 3, 0, 0, 0, 0, 1066, 110, 52, 48, 38, 23, 11, 36, 16, 73, 24, 18, 8, 4, 11, 7, 14, 18, 12, 15, 13, 10, 15, 6, 5, 3, 5, 8, 4, 2, 1, 5, 4, 0, 1, 1, 3, 0, 4, 0, 2, 56, 362, 223, 160, 58, 19, 0, 0, 459, 166, 120, 94, 44, 40, 7, 0, 1, 21228, 25, 0, 0, 0, 0, 0, 0, 0, 0, 0, 0, 0, 0, 0, 0, 0, 0, 0, 0, 0, 0, 0, 0, 0, 2, 0, 0, 0, 6435, 7377, 0, 0, 682, 936, 1368, 983, 348, 982, 0, 342, 71690250, 27742257, 1368, 119424, 4992, -1, 0, 14518135744500
838, 65, 17, 48, 593, 55, 20, 35, 1058, 673, 6512, 2723, 162, 62, 905, 4, 747, 5, 351, 11, 178, 0, 1220, 1914, 1190, 6421, 19, 22, 7, 4, 8, 0, 1077, 691, 0, 0, 2583, 4, 18, 2, 5, 5, 2, 17, 14, 691, 7, 21, 45, 110, 252, 582, 468, 474, 851, 5, 2841, 295, 119, 534, 0, 0, 0, 425, 14, 26, 21, 15, 11, 1, 0, 0, 0, 0, 3, 2, 9, 17, 8, 12, 3, 9, 0, 450, 0, 334, 10, 8, 15, 12, 11, 1, 0, 0, 0, 0, 1, 3, 14, 16, 7, 9, 7, 2, 2, 330, 0, 7, 17, 47, 58, 35, 12, 2, 0, 0, 623, 459, 290, 217, 109, 16, 15, 0, 0, 0, 0, 0, 0, 0, 0, 0, 0, 0, 0, 0, 49, 57, 72, 78, 0, 0, 1, 0, 3, 11, 10, 8, 0, 0, 0, 0, 0, 0, 0, 0, 0, 0, 0, 0, 29, 9, 6, 2, 2, 5, 0, 0, 0, 0, 0, 0, 69, 4, 2, 1, 0, 1, 1, 0, 0, 3, 2, 1, 0, 1, 1, 0, 1, 0, 1, 1, 3, 1, 1, 1, 0, 0, 1, 0, 1, 0, 0, 0, 2, 0, 0, 1, 0, 0, 0, 0, 0, 3, 31, 16, 8, 3, 1, 0, 0, 24, 9, 11, 11, 4, 5, 0, 0, 0, 998, 2, 0, 0, 0, 0, 0, 0, 0, 0, 0, 0, 0, 0, 0, 0, 0, 0, 0, 0, 0, 0, 0, 0, 0, 2, 0, 0, 0, 461, 330, 0, 0, 33, 52, 46, 34, 12, 34, 0, 12, 2557000, 883250, 46, 3584, 320, 0, 0, 14518139000500
3885, 612, 77, 535, 3094, 240, 74, 166, 6215, 2269, 60114, 33952, 103, 275, 4500, 4, 3608, 25, 1848, 75, 1073, 0, 7029, 10131, 6311, 46533, 153, 26, 10, 0, 12, 0, 8201, 3321, 0, 0, 12673, 32, 68, 66, 75, 59, 50, 49, 31, 3321, 46, 108, 256, 476, 1509, 2556, 1670, 2744, 4450, 11, 21362, 1646, 527, 2626, 0, 0, 0, 1973, 69, 101, 123, 141, 102, 21, 0, 0, 0, 0, 6, 11, 26, 63, 65, 14, 30, 9, 30, 2276, 0, 1284, 46, 62, 60, 101, 67, 50, 8, 0, 0, 0, 16, 12, 30, 19, 14, 15, 7, 11, 25, 1529, 0, 60, 136, 295, 292, 200, 80, 10, 0, 0, 3449, 2212, 1008, 426, 314, 76, 119, 2, 2, 0, 0, 0, 0, 0, 0, 0, 0, 0, 0, 0, 314, 375, 384, 480, 0, 0, 1, 4, 30, 44, 70, 39, 7, 0, 0, 0, 0, 0, 0, 0, 0, 0, 0, 0, 110, 41, 6, 1, 5, 29, 1, 1, 0, 0, 0, 0, 344, 38, 14, 12, 8, 10, 5, 6, 6, 14, 22, 7, 7, 6, 10, 8, 6, 3, 2, 3, 3, 4, 5, 3, 4, 2, 1, 3, 2, 1, 1, 1, 2, 0, 0, 0, 0, 1, 0, 0, 1, 20, 155, 55, 29, 19, 2, 0, 0, 124, 68, 44, 30, 11, 11, 1, 0, 0, 5484, 34, 0, 0, 0, 0, 0, 0, 0, 0, 0, 0, 0, 0, 0, 0, 0, 0, 0, 0, 0, 0, 0, 0, 0, 2, 0, 0, 0, 2347, 1549, 0, 0, 235, 228, 512, 373, 135, 373, 0, 126, 27485750, 10965250, 507, 827584, 4864, -1, 0, 14521404457000
1035, 126, 26, 100, 850, 52, 29, 22, 1746, 568, 10047, 3835, 173, 58, 1161, 0, 1013, 2, 506, 32, 294, 0, 1917, 2659, 1588, 9767, 55, 11, 2, 0, 111, 0, 2582, 869, 0, 0, 3335, 3, 23, 5, 16, 7, 5, 14, 12, 869, 9, 21, 30, 110, 567, 613, 469, 802, 1001, 7, 4951, 397, 149, 715, 0, 0, 0, 482, 20, 22, 25, 30, 29, 15, 1, 0, 0, 0, 0, 1, 5, 5, 5, 11, 6, 2, 6, 583, 0, 423, 12, 14, 19, 30, 26, 4, 0, 0, 0, 0, 2, 1, 3, 9, 7, 11, 9, 4, 7, 475, 0, 12, 31, 81, 88, 65, 15, 2, 0, 0, 854, 558, 284, 228, 99, 39, 16, 0, 0, 0, 0, 0, 0, 0, 0, 0, 0, 0, 0, 0, 81, 104, 109, 144, 0, 0, 1, 0, 5, 17, 18, 12, 0, 0, 0, 0, 0, 0, 0, 0, 0, 0, 0, 0, 29, 13, 3, 0, 0, 0, 1, 0, 0, 0, 0, 0, 76, 7, 8, 7, 1, 4, 0, 1, 0, 10, 3, 2, 1, 2, 2, 0, 2, 0, 2, 1, 2, 1, 0, 0, 0, 0, 0, 0, 0, 0, 1, 0, 0, 0, 0, 0, 1, 1, 0, 0, 0, 4, 30, 17, 7, 2, 0, 0, 0, 24, 12, 10, 12, 4, 0, 0, 0, 0, 1424, 3, 0, 0, 0, 0, 0, 0, 0, 0, 0, 0, 0, 0, 0, 0, 0, 0, 0, 0, 0, 0, 0, 0, 0, 2, 0, 0, 0, 606, 464, 0, 0, 64, 54, 73, 55, 18, 55, 0, 17, 3645000, 1321500, 72, 5760, 640, 0, 0, 14521409480500
3348, 353, 22, 331, 2990, 61, 16, 45, 5801, 1798, 21137, 6882, 274, 177, 3701, 4, 3312, 17, 1727, 69, 983, 0, 6571, 9231, 5747, 29163, 131, 62, 12, 15, 37, 0, 3005, 2782, 0, 0, 10403, 11, 55, 47, 73, 68, 49, 47, 39, 2782, 25, 63, 153, 382, 1354, 2005, 1437, 1992, 4012, 14, 10063, 1317, 457, 2417, 0, 0, 0, 1791, 50, 74, 95, 106, 82, 18, 3, 0, 0, 0, 5, 12, 22, 45, 27, 22, 17, 4, 13, 2052, 0, 1271, 39, 48, 43, 78, 70, 31, 8, 0, 0, 0, 11, 7, 15, 29, 16, 17, 4, 6, 7, 1476, 0, 51, 124, 275, 256, 194, 74, 9, 0, 0, 2966, 2082, 1019, 510, 314, 90, 63, 2, 2, 1, 1, 5, 0, 0, 0, 0, 0, 0, 0, 0, 288, 339, 356, 440, 0, 0, 0, 5, 23, 60, 58, 32, 4, 0, 0, 0, 0, 0, 0, 0, 0, 0, 0, 0, 75, 35, 13, 4, 3, 1, 0, 0, 0, 0, 0, 0, 237, 33, 15, 17, 8, 6, 2, 3, 7, 14, 15, 3, 6, 4, 5, 5, 7, 5, 3, 6, 2, 2, 3, 1, 2, 1, 3, 2, 2, 1, 1, 0, 2, 0, 3, 0, 1, 0, 0, 0, 0, 11, 106, 39, 18, 10, 0, 0, 0, 71, 38, 43, 21, 9, 6, 0, 0, 0, 4940, 33, 0, 0, 0, 0, 0, 0, 0, 0, 0, 0, 0, 0, 0, 0, 0, 0, 0, 0, 0, 0, 0, 0, 0, 2, 0, 0, 0, 2071, 1451, 0, 0, 202, 317, 88, 76, 10, 76, 0, 10, 5925500, 710000, 90, 2343168, 576, -1, 0, 14531388345000
1078, 79, 7, 72, 833, 24, 14, 10, 1642, 539, 5188, 1241, 316, 54, 1158, 0, 976, 5, 482, 28, 284, 0, 1808, 2521, 1534, 7436, 56, 13, 8, 0, 0, 0, 1029, 842, 0, 0, 3200, 4, 28, 8, 20, 6, 7, 17, 15, 842, 8, 19, 33, 101, 481, 632, 438, 688, 1118, 5, 2766, 360, 143, 678, 0, 0, 0, 470, 20, 24, 19, 17, 23, 24, 4, 0, 0, 0, 1, 1, 0, 4, 7, 8, 7, 0, 3, 570, 0, 382, 13, 15, 18, 20, 8, 8, 10, 0, 0, 0, 4, 0, 5, 3, 19, 10, 9, 0, 5, 419, 0, 14, 32, 78, 81, 62, 15, 2, 0, 0, 823, 540, 282, 196, 90, 18, 10, 0, 0, 0, 0, 0, 0, 0, 0, 0, 0, 0, 0, 0, 83, 95, 106, 132, 0, 0, 0, 1, 4, 17, 22, 6, 0, 0, 0, 0, 0, 0, 0, 0, 0, 0, 0, 0, 23, 15, 3, 1, 0, 0, 0, 0, 0, 0, 0, 0, 74, 9, 9, 8, 0, 2, 0, 1, 2, 10, 2, 2, 2, 3, 2, 2, 2, 1, 1, 0, 1, 0, 0, 1, 0, 0, 0, 0, 0, 0, 0, 0, 0, 0, 1, 0, 0, 0, 1, 0, 0, 6, 32, 8, 7, 1, 0, 0, 0, 15, 10, 17, 9, 4, 0, 0, 0, 0, 1375, 3, 0, 0, 0, 0, 0, 0, 0, 0, 0, 0, 0, 0, 0, 0, 0, 0, 0, 0, 0, 0, 0, 0, 0, 2, 0, 0, 0, 582, 433, 0, 0, 70, 73, 17, 17, 0, 17, 0, 0, 1283250, 0, 17, 1856, 0, 0, 0, 14531390939000
6342, 572, 38, 534, 5833, 193, 49, 144, 11766, 2803, 43273, 12801, 271, 255, 6916, 5, 6515, 23, 3540, 136, 2022, 0, 13183, 18160, 11241, 67633, 282, 142, 56, 29, 61, 0, 9511, 5083, 0, 0, 19212, 42, 110, 127, 155, 126, 110, 80, 46, 5083, 51, 168, 379, 613, 1856, 3848, 2801, 4471, 7032, 26, 22586, 2348, 858, 4678, 0, 0, 0, 3468, 94, 114, 158, 201, 177, 73, 21, 0, 0, 0, 7, 9, 37, 68, 51, 42, 50, 17, 35, 3990, 0, 2355, 57, 81, 69, 149, 144, 73, 14, 0, 0, 0, 21, 9, 37, 54, 21, 12, 28, 11, 10, 2739, 0, 109, 275, 558, 541, 372, 151, 16, 0, 0, 5443, 4349, 2022, 1252, 617, 234, 138, 8, 7, 31, 2, 10, 0, 0, 0, 0, 0, 0, 0, 0, 588, 754, 680, 916, 0, 0, 2, 7, 39, 92, 130, 87, 9, 0, 0, 0, 0, 0, 0, 0, 0, 0, 0, 0, 99, 59, 12, 7, 4, 6, 0, 0, 0, 0, 0, 0, 350, 69, 21, 16, 14, 11, 3, 13, 17, 26, 23, 10, 15, 7, 9, 14, 17, 8, 6, 9, 7, 7, 4, 3, 6, 4, 6, 4, 6, 3, 2, 1, 6, 1, 1, 3, 1, 0, 6, 0, 0, 13, 130, 62, 37, 23, 1, 0, 0, 110, 53, 42, 40, 15, 13, 0, 0, 0, 9695, 57, 0, 0, 0, 0, 0, 0, 0, 0, 0, 0, 0, 0, 0, 0, 0, 0, 0, 0, 0, 0, 0, 0, 0, 2, 0, 0, 0, 4102, 2755, 0, 0, 389, 521, 198, 137, 61, 137, 0, 60, 10897500, 5065250, 203, 4743360, 1728, -1, 0, 14551386726500
980, 91, 11, 80, 847, 41, 24, 17, 1746, 436, 6029, 1728, 289, 35, 1071, 0, 992, 2, 506, 32, 294, 0, 1917, 2592, 1543, 7728, 55, 11, 10, 0, 1, 0, 1260, 744, 0, 0, 2934, 2, 37, 9, 15, 9, 7, 20, 12, 744, 6, 17, 39, 87, 439, 526, 459, 715, 971, 4, 3141, 348, 133, 679, 0, 0, 0, 480, 19, 20, 17, 22, 19, 22, 10, 0, 0, 0, 0, 2, 4, 7, 9, 7, 3, 1, 4, 572, 0, 387, 7, 6, 19, 15, 23, 16, 9, 0, 0, 0, 2, 1, 3, 10, 6, 8, 9, 3, 2, 438, 0, 12, 31, 81, 88, 65, 15, 2, 0, 0, 779, 596, 261, 200, 102, 27, 15, 0, 0, 0, 0, 0, 0, 0, 0, 0, 0, 0, 0, 0, 81, 104, 109, 144, 0, 0, 0, 2, 2, 17, 26, 7, 0, 0, 0, 0, 0, 0, 0, 0, 0, 0, 0, 0, 18, 7, 4, 0, 0, 1, 0, 0, 0, 0, 0, 0, 53, 7, 8, 7, 0, 3, 0, 0, 3, 7, 2, 0, 1, 3, 1, 0, 4, 0, 5, 3, 0, 1, 0, 1, 1, 0, 0, 0, 0, 0, 0, 1, 0, 0, 0, 0, 1, 0, 2, 0, 0, 3, 20, 11, 3, 1, 0, 0, 0, 12, 10, 3, 8, 4, 2, 0, 0, 0, 1364, 3, 0, 0, 0, 0, 0, 0, 0, 0, 0, 0, 0, 0, 0, 0, 0, 0, 0, 0, 0, 0, 0, 0, 0, 2, 0, 0, 0, 586, 439, 0, 0, 64, 83, 16, 12, 4, 12, 0, 4, 1146750, 269750, 16, 1728, 64, 0, 0, 14551389741000
2670, 289, 17, 272, 2860, 55, 13, 42, 5736, 768, 14351, 3091, 399, 69, 2960, 0, 3117, 3, 1714, 65, 974, 0, 6499, 8619, 5313, 26387, 127, 76, 23, 23, 24, 0, 2920, 2146, 0, 0, 8128, 10, 61, 46, 66, 59, 50, 49, 23, 2146, 23, 41, 153, 235, 1019, 1402, 1075, 1907, 3178, 15, 7667, 1114, 402, 2076, 0, 0, 0, 1538, 34, 43, 58, 69, 94, 69, 15, 0, 0, 0, 3, 4, 10, 7, 21, 15, 3, 2, 5, 1850, 0, 1120, 24, 31, 30, 57, 62, 41, 29, 10, 0, 0, 7, 3, 9, 9, 2, 7, 2, 4, 6, 1355, 0, 51, 124, 272, 255, 189, 74, 9, 0, 0, 2516, 1793, 916, 538, 359, 127, 76, 2, 2, 4, 1, 5, 0, 0, 0, 0, 0, 0, 0, 0, 286, 337, 351, 434, 0, 0, 1, 2, 25, 54, 51, 43, 3, 0, 0, 0, 0, 0, 0, 0, 0, 0, 0, 0, 24, 15, 5, 2, 1, 0, 0, 0, 0, 0, 0, 0, 119, 26, 11, 12, 9, 5, 1, 3, 4, 15, 8, 4, 2, 5, 4, 5, 4, 6, 5, 7, 4, 3, 0, 0, 3, 2, 3, 3, 3, 0, 2, 2, 1, 1, 0, 1, 0, 1, 1, 1, 0, 7, 34, 16, 10, 5, 1, 0, 0, 23, 17, 19, 7, 1, 6, 0, 0, 0, 4467, 33, 0, 0, 0, 0, 0, 0, 0, 0, 0, 0, 0, 0, 0, 0, 0, 0, 0, 0, 0, 0, 0, 0, 0, 2, 0, 0, 0, 1883, 1344, 0, 0, 174, 281, 35, 34, 1, 34, 0, 1, 2635250, 64000, 37, 2390208, 128, -1, 0, 14561384771500
1077, 61, 4, 57, 824, 26, 13, 13, 1642, 477, 3948, 398, 415, 43, 1138, 0, 965, 2, 482, 28, 284, 0, 1808, 2504, 1515, 6968, 56, 15, 7, 0, 14, 0, 1059, 805, 0, 0, 3096, 3, 32, 10, 17, 12, 12, 20, 12, 805, 9, 18, 31, 99, 464, 719, 511, 650, 930, 2, 2428, 321, 141, 660, 0, 0, 0, 456, 16, 20, 18, 14, 31, 18, 10, 1, 0, 0, 1, 2, 2, 3, 6, 3, 1, 0, 1, 565, 0, 356, 12, 13, 16, 18, 15, 9, 9, 0, 0, 0, 4, 2, 5, 1, 11, 7, 10, 0, 1, 407, 0, 14, 32, 78, 81, 62, 15, 2, 0, 0, 775, 583, 235, 188, 99, 54, 19, 0, 0, 0, 0, 0, 0, 0, 0, 0, 0, 0, 0, 0, 83, 95, 106, 132, 0, 0, 0, 2, 2, 13, 26, 8, 0, 0, 0, 0, 0, 0, 0, 0, 0, 0, 0, 0, 20, 14, 1, 1, 1, 0, 0, 0, 0, 0, 0, 0, 63, 9, 9, 8, 1, 1, 0, 1, 1, 9, 2, 1, 4, 3, 2, 1, 2, 1, 1, 2, 0, 0, 1, 2, 1, 0, 0, 0, 0, 1, 0, 0, 0, 0, 0, 0, 0, 0, 1, 0, 0, 3, 26, 6, 7, 2, 2, 0, 0, 13, 6, 12, 9, 6, 0, 1, 0, 0, 1359, 2, 0, 0, 0, 0, 0, 0, 0, 0, 0, 0, 0, 0, 0, 0, 0, 0, 0, 0, 0, 0, 0, 0, 0, 2, 0, 0, 0, 567, 420, 0, 0, 68, 70, 2, 1, 1, 1, 0, 1, 246500, 32000, 2, 512, 0, 0, 0, 14561386745500
7252, 568, 45, 523, 6280, 133, 28, 105, 13130, 3142, 38852, 11034, 337, 282, 7822, 1, 6939, 12, 3648, 132, 2259, 0, 14428, 20404, 12342, 59698, 237, 170, 61, 37, 68, 0, 7277, 5541, 0, 0, 21500, 28, 186, 168, 164, 131, 156, 96, 65, 5541, 52, 146, 350, 1166, 2511, 4724, 3053, 4524, 7319, 21, 18994, 2719, 1041, 5062, 0, 0, 0, 3637, 65, 102, 142, 149, 192, 144, 21, 3, 0, 0, 10, 13, 84, 74, 42, 22, 38, 40, 12, 4120, 0, 2519, 59, 85, 59, 100, 149, 75, 43, 14, 0, 0, 21, 10, 30, 60, 32, 11, 12, 16, 9, 2902, 0, 101, 304, 661, 614, 398, 162, 19, 0, 0, 6131, 5162, 3293, 1295, 653, 230, 90, 10, 12, 28, 6, 10, 0, 0, 0, 0, 0, 0, 0, 0, 677, 833, 749, 1094, 0, 0, 1, 10, 60, 105, 132, 81, 12, 0, 0, 0, 0, 0, 0, 0, 0, 0, 0, 0, 106, 51, 17, 4, 2, 6, 3, 0, 0, 0, 0, 0, 395, 66, 20, 21, 9, 5, 6, 5, 8, 29, 17, 7, 9, 7, 7, 10, 3, 3, 8, 13, 9, 5, 2, 9, 3, 2, 4, 5, 1, 2, 3, 4, 11, 3, 1, 1, 2, 2, 2, 2, 0, 16, 148, 70, 36, 17, 5, 0, 0, 134, 53, 41, 34, 17, 12, 3, 0, 0, 10948, 104, 0, 0, 0, 0, 0, 0, 0, 0, 0, 0, 0, 0, 0, 0, 0, 0, 0, 0, 0, 0, 0, 0, 0, 2, 0, 0, 0, 4291, 2933, 0, 0, 342, 479, 165, 120, 44, 120, 0, 41, 8917750, 3571000, 166, 28401408, 1216, -1, 0, 14681388128000
1991, 202, 32, 170, 1448, 131, 57, 73, 3742, 910, 20265, 9099, 184, 122, 2194, 0, 1789, 14, 970, 27, 583, 0, 3824, 5728, 3206, 17340, 58, 64, 1, 0, 29, 0, 3184, 1559, 0, 0, 6316, 15, 49, 121, 42, 18, 19, 49, 11, 1559, 15, 47, 143, 1054, 873, 1255, 1026, 1110, 1394, 4, 8723, 789, 252, 1402, 0, 0, 0, 987, 36, 36, 36, 52, 38, 35, 24, 0, 0, 0, 3, 42, 21, 55, 18, 32, 27, 30, 13, 1003, 0, 589, 14, 22, 25, 36, 30, 26, 7, 0, 0, 0, 61, 16, 3, 5, 16, 7, 18, 3, 2, 618, 0, 19, 54, 169, 151, 165, 21, 4, 0, 0, 1795, 909, 753, 158, 132, 24, 41, 0, 0, 0, 0, 0, 0, 0, 0, 0, 0, 0, 0, 0, 215, 209, 159, 248, 0, 0, 0, 2, 10, 40, 40, 14, 1, 0, 0, 0, 0, 0, 0, 0, 0, 0, 0, 0, 40, 18, 4, 0, 0, 7, 1, 1, 0, 0, 0, 0, 145, 8, 8, 9, 3, 1, 1, 1, 3, 10, 3, 0, 1, 1, 1, 0, 2, 2, 0, 0, 3, 1, 1, 0, 0, 1, 1, 0, 1, 0, 0, 0, 0, 1, 0, 0, 0, 0, 1, 0, 0, 11, 50, 23, 25, 15, 2, 0, 0, 71, 19, 17, 9, 8, 2, 0, 0, 0, 3093, 16, 0, 0, 0, 0, 0, 0, 0, 0, 0, 0, 0, 0, 0, 0, 0, 0, 0, 0, 0, 0, 0, 0, 0, 2, 0, 0, 0, 1198, 694, 0, 0, 69, 91, 176, 112, 62, 112, 0, 61, 7834500, 4961750, 175, 13504, 1344, 0, 0, 14681398260500
4833, 412, 18, 394, 4242, 91, 28, 63, 9361, 2110, 24906, 6495, 375, 174, 5245, 1, 4715, 1, 2457, 86, 1602, 0, 10130, 14395, 8627, 38194, 147, 75, 58, 42, 34, 0, 4029, 3655, 0, 0, 14262, 18, 173, 139, 122, 67, 104, 74, 42, 3655, 41, 83, 178, 1165, 1653, 3295, 2005, 2715, 4742, 19, 12211, 2022, 748, 3429, 0, 0, 0, 2428, 42, 90, 89, 100, 147, 92, 11, 0, 0, 0, 17, 5, 28, 51, 28, 25, 13, 26, 12, 2794, 0, 1696, 30, 72, 43, 69, 96, 78, 23, 0, 0, 0, 8, 10, 20, 29, 24, 10, 4, 7, 6, 1989, 0, 69, 202, 475, 450, 277, 118, 11, 0, 0, 4102, 3701, 2825, 931, 465, 130, 59, 3, 3, 28, 3, 5, 0, 0, 0, 0, 0, 0, 0, 0, 494, 594, 514, 794, 0, 0, 1, 4, 53, 70, 81, 57, 16, 0, 0, 0, 0, 0, 0, 0, 0, 0, 0, 0, 57, 50, 17, 2, 3, 5, 0, 0, 0, 0, 0, 0, 251, 39, 13, 19, 6, 3, 4, 2, 1, 18, 11, 7, 5, 8, 4, 4, 4, 2, 5, 6, 6, 1, 4, 9, 2, 1, 4, 1, 1, 2, 1, 1, 5, 2, 0, 1, 0, 0, 2, 1, 0, 7, 97, 43, 19, 16, 1, 0, 0, 71, 35, 23, 30, 14, 11, 1, 0, 0, 7740, 73, 0, 0, 0, 0, 0, 0, 0, 0, 0, 0, 0, 0, 0, 0, 0, 0, 0, 0, 0, 0, 0, 0, 0, 2, 0, 0, 0, 2887, 2005, 0, 0, 216, 377, 84, 65, 19, 64, 0, 19, 5067750, 1461500, 85, 47319872, 704, -1, 0, 14881384540000
1692, 169, 16, 153, 1465, 32, 7, 25, 3622, 665, 9162, 2749, 395, 88, 1861, 1, 1706, 3, 918, 27, 573, 0, 3728, 5450, 3039, 11983, 58, 72, 0, 0, 32, 0, 1072, 1318, 0, 0, 5292, 7, 39, 106, 39, 13, 15, 45, 8, 1318, 13, 36, 81, 945, 707, 875, 670, 955, 1538, 5, 4213, 678, 212, 1310, 0, 0, 0, 866, 21, 28, 25, 36, 45, 61, 21, 15, 0, 0, 0, 58, 5, 17, 8, 13, 11, 10, 12, 984, 0, 580, 9, 17, 27, 37, 23, 24, 19, 0, 0, 0, 47, 6, 7, 2, 15, 4, 18, 4, 2, 631, 0, 19, 55, 170, 153, 150, 22, 4, 0, 0, 1621, 939, 817, 123, 108, 15, 29, 0, 0, 0, 0, 0, 0, 0, 0, 0, 0, 0, 0, 0, 201, 208, 164, 242, 0, 0, 1, 5, 11, 30, 47, 10, 1, 0, 0, 0, 0, 0, 0, 0, 0, 0, 0, 0, 34, 20, 3, 1, 0, 1, 0, 0, 0, 0, 0, 0, 110, 8, 8, 8, 4, 0, 1, 1, 1, 9, 3, 0, 1, 2, 3, 0, 2, 2, 0, 0, 2, 1, 1, 0, 1, 0, 2, 0, 0, 0, 1, 0, 0, 0, 0, 0, 0, 0, 1, 0, 0, 8, 40, 21, 16, 6, 1, 0, 0, 44, 16, 16, 9, 5, 2, 0, 0, 0, 2910, 16, 0, 0, 0, 0, 0, 0, 0, 0, 0, 0, 0, 0, 0, 0, 0, 0, 0, 0, 0, 0, 0, 0, 0, 2, 0, 0, 0, 1106, 680, 0, 0, 67, 153, 31, 25, 6, 25, 0, 6, 2036250, 434500, 31, 3008, 512, 0, 0, 14881389121000
4840, 397, 19, 378, 4281, 96, 27, 69, 9680, 1719, 19733, 2258, 490, 132, 5237, 1, 4757, 1, 2535, 94, 1658, 0, 10457, 14601, 8697, 37421, 158, 103, 70, 42, 26, 0, 4437, 3647, 0, 0, 14178, 19, 191, 140, 114, 69, 104, 69, 41, 3647, 38, 87, 174, 1265, 1389, 2913, 1821, 2970, 5164, 14, 11398, 1895, 732, 3449, 0, 0, 0, 2389, 50, 96, 84, 109, 141, 81, 16, 0, 0, 0, 26, 1, 28, 49, 16, 9, 17, 25, 18, 2777, 0, 1725, 34, 68, 36, 72, 91, 78, 32, 0, 0, 0, 8, 7, 13, 30, 19, 10, 8, 14, 13, 2014, 0, 72, 210, 497, 456, 290, 122, 11, 0, 0, 3914, 3808, 2898, 859, 475, 156, 49, 5, 5, 47, 3, 5, 0, 0, 0, 0, 0, 0, 0, 0, 507, 622, 529, 824, 0, 0, 1, 6, 53, 76, 80, 58, 18, 0, 0, 0, 0, 0, 0, 0, 0, 0, 0, 0, 40, 41, 19, 2, 1, 2, 0, 0, 0, 0, 0, 0, 212, 39, 14, 19, 8, 5, 5, 2, 2, 16, 10, 4, 6, 11, 4, 6, 4, 2, 6, 5, 3, 2, 7, 9, 6, 1, 4, 1, 2, 2, 2, 1, 5, 2, 0, 0, 0, 0, 1, 1, 0, 7, 79, 31, 10, 11, 1, 0, 0, 46, 23, 24, 23, 12, 10, 1, 0, 0, 7795, 77, 0, 0, 0, 0, 0, 0, 0, 0, 0, 0, 0, 0, 0, 0, 0, 0, 0, 0, 0, 0, 0, 0, 0, 2, 0, 0, 0, 2869, 2047, 0, 0, 224, 416, 35, 24, 11, 24, 0, 10, 1866750, 910000, 36, 47317888, 256, -1, 0, 15081380313000
2772, 212, 21, 191, 1917, 59, 10, 46, 5165, 978, 13791, 3158, 374, 144, 2985, 1, 2196, 6, 1194, 34, 829, 0, 5216, 7391, 4158, 18892, 154, 77, 2, 5, 37, 0, 3068, 2071, 0, 0, 8540, 38, 70, 177, 97, 36, 25, 40, 14, 2071, 26, 41, 239, 1298, 1446, 1824, 1541, 1076, 1935, 8, 7472, 879, 430, 1852, 0, 0, 0, 1164, 42, 69, 62, 59, 51, 36, 14, 15, 0, 0, 1, 69, 33, 42, 37, 30, 19, 17, 9, 1255, 0, 738, 38, 33, 43, 42, 30, 28, 23, 1, 0, 0, 76, 7, 19, 8, 7, 17, 12, 2, 1, 827, 0, 25, 70, 259, 228, 213, 29, 5, 0, 0, 2443, 1204, 953, 190, 129, 118, 35, 1, 0, 0, 0, 0, 0, 0, 0, 0, 0, 0, 0, 0, 308, 275, 246, 332, 0, 0, 0, 5, 21, 40, 51, 26, 5, 0, 0, 0, 0, 0, 0, 0, 0, 0, 0, 0, 49, 19, 4, 2, 0, 2, 0, 0, 0, 0, 0, 0, 170, 49, 10, 16, 4, 10, 24, 14, 9, 11, 16, 2, 6, 1, 5, 1, 4, 1, 2, 2, 2, 0, 1, 3, 1, 0, 1, 1, 0, 0, 0, 1, 0, 0, 0, 1, 0, 0, 2, 0, 0, 6, 53, 58, 20, 10, 1, 0, 0, 91, 28, 19, 8, 2, 2, 0, 0, 0, 4276, 20, 0, 0, 0, 0, 0, 0, 0, 0, 0, 0, 0, 0, 0, 0, 0, 0, 0, 0, 0, 0, 0, 0, 0, 2, 0, 0, 0, 1478, 880, 0, 0, 211, 203, 44, 34, 10, 34, 0, 10, 2570250, 737500, 44, 4480, 576, 0, 0, 15081387208500
4303, 409, 17, 392, 4076, 96, 32, 64, 9284, 1269, 19518, 3418, 475, 82, 4713, 0, 4505, 1, 2430, 83, 1587, 0, 10041, 13858, 8228, 36513, 143, 115, 63, 44, 26, 0, 3703, 3295, 0, 0, 12715, 20, 181, 129, 116, 62, 91, 74, 36, 3295, 36, 70, 154, 1223, 1334, 2875, 1901, 2471, 4142, 21, 10486, 1742, 674, 3197, 0, 0, 0, 2223, 34, 70, 68, 86, 144, 98, 29, 0, 0, 0, 25, 1, 25, 38, 12, 24, 2, 11, 7, 2607, 0, 1591, 27, 60, 30, 66, 78, 99, 39, 1, 0, 0, 7, 2, 12, 30, 20, 5, 2, 3, 6, 1904, 0, 69, 201, 472, 445, 270, 118, 12, 0, 0, 3585, 3502, 2880, 821, 495, 173, 47, 8, 13, 53, 3, 5, 0, 0, 0, 0, 0, 0, 0, 0, 489, 591, 507, 786, 0, 0, 1, 8, 48, 77, 70, 55, 20, 0, 0, 0, 0, 0, 0, 0, 0, 0, 0, 0, 27, 26, 11, 2, 1, 0, 0, 0, 0, 0, 0, 0, 158, 32, 14, 18, 10, 2, 2, 0, 2, 17, 5, 4, 7, 7, 4, 5, 3, 4, 6, 3, 3, 2, 4, 8, 3, 2, 2, 1, 3, 1, 3, 1, 5, 2, 0, 0, 0, 0, 2, 0, 0, 4, 47, 14, 10, 11, 1, 0, 0, 35, 11, 16, 11, 7, 8, 1, 0, 0, 7308, 75, 0, 0, 0, 0, 0, 0, 0, 0, 0, 0, 0, 0, 0, 0, 0, 0, 0, 0, 0, 0, 0, 0, 0, 2, 0, 0, 0, 2704, 1929, 0, 0, 193, 423, 35, 31, 4, 31, 0, 4, 2643500, 341250, 37, 47271104, 320, -1, 0, 15281378107500
1535, 153, 7, 146, 1419, 32, 10, 22, 3622, 449, 6360, 711, 569, 40, 1689, 1, 1634, 7, 918, 27, 573, 0, 3728, 5309, 2966, 10953, 58, 87, 3, 3, 21, 0, 1084, 1171, 0, 0, 4755, 6, 38, 112, 39, 13, 16, 34, 7, 1171, 14, 23, 37, 1005, 629, 688, 772, 943, 1145, 4, 3645, 543, 209, 1252, 0, 0, 0, 821, 17, 21, 23, 35, 46, 42, 18, 20, 0, 0, 3, 63, 1, 10, 5, 1, 3, 0, 0, 957, 0, 530, 12, 10, 18, 21, 28, 39, 16, 1, 0, 0, 57, 0, 3, 2, 6, 4, 9, 0, 1, 593, 0, 19, 55, 170, 153, 150, 22, 4, 0, 0, 1458, 883, 881, 161, 116, 78, 31, 1, 1, 1, 1, 0, 0, 0, 0, 0, 0, 0, 0, 0, 201, 208, 164, 242, 0, 0, 1, 5, 11, 30, 47, 10, 1, 0, 0, 0, 0, 0, 0, 0, 0, 0, 0, 0, 18, 10, 3, 0, 0, 0, 0, 0, 0, 0, 0, 0, 61, 7, 8, 8, 2, 0, 1, 1, 4, 5, 2, 0, 3, 1, 4, 0, 2, 1, 2, 0, 1, 0, 1, 1, 1, 0, 2, 0, 0, 0, 0, 1, 0, 0, 0, 0, 0, 0, 2, 0, 0, 2, 19, 9, 7, 4, 0, 0, 0, 20, 3, 12, 3, 2, 1, 0, 0, 0, 2808, 17, 0, 0, 0, 0, 0, 0, 0, 0, 0, 0, 0, 0, 0, 0, 0, 0, 0, 0, 0, 0, 0, 0, 0, 2, 0, 0, 0, 1051, 636, 0, 0, 60, 170, 8, 7, 1, 7, 0, 1, 553500, 74500, 8, 1280, 320, 0, 0, 15281381287500
4210, 357, 6, 351, 4046, 79, 26, 53, 9239, 1041, 15335, 448, 602, 60, 4567, 0, 4454, 1, 2419, 82, 1584, 0, 9991, 13668, 8105, 35065, 143, 107, 65, 40, 26, 0, 3914, 3175, 0, 0, 12291, 17, 184, 127, 111, 60, 98, 65, 35, 3175, 29, 65, 142, 1154, 1234, 2838, 1726, 2264, 4314, 16, 9430, 1669, 656, 3131, 0, 0, 0, 2170, 33, 74, 57, 82, 127, 100, 35, 2, 0, 0, 24, 3, 26, 35, 7, 12, 1, 9, 4, 2559, 0, 1595, 23, 58, 29, 66, 86, 84, 33, 0, 0, 0, 7, 2, 7, 36, 17, 5, 1, 3, 7, 1889, 0, 69, 201, 472, 444, 269, 118, 11, 0, 0, 3453, 3481, 2866, 758, 516, 168, 49, 6, 12, 50, 1, 5, 0, 0, 0, 0, 0, 0, 0, 0, 489, 590, 505, 784, 0, 0, 0, 11, 40, 76, 81, 58, 12, 0, 0, 0, 0, 0, 0, 0, 0, 0, 0, 0, 17, 17, 9, 1, 1, 0, 0, 0, 0, 0, 0, 0, 136, 31, 13, 19, 8, 3, 2, 1, 4, 14, 8, 5, 5, 7, 3, 4, 4, 2, 6, 5, 3, 1, 3, 9, 3, 2, 3, 1, 3, 1, 2, 1, 5, 2, 0, 0, 0, 1, 1, 0, 0, 4, 34, 14, 7, 3, 0, 0, 0, 21, 13, 9, 6, 7, 6, 0, 0, 0, 7188, 71, 0, 0, 0, 0, 0, 0, 0, 0, 0, 0, 0, 0, 0, 0, 0, 0, 0, 0, 0, 0, 0, 0, 0, 2, 0, 0, 0, 2649, 1922, 0, 0, 190, 396, 10, 6, 4, 6, 0, 4, 448000, 300000, 12, 47316608, 0, -1, 0, 15481374260000
1552, 147, 5, 142, 1468, 30, 8, 22, 3742, 360, 5833, 257, 641, 35, 1699, 1, 1674, 5, 970, 27, 583, 0, 3824, 5417, 3013, 10959, 58, 86, 2, 3, 21, 0, 1094, 1157, 0, 0, 4776, 5, 38, 127, 41, 11, 17, 31, 7, 1157, 11, 24, 43, 1097, 653, 713, 751, 763, 1223, 8, 3532, 585, 215, 1244, 0, 0, 0, 865, 16, 21, 20, 30, 46, 40, 22, 20, 0, 0, 0, 62, 35, 10, 4, 3, 3, 0, 0, 963, 0, 514, 11, 10, 15, 26, 27, 33, 26, 4, 0, 0, 62, 1, 3, 2, 6, 2, 9, 0, 1, 580, 0, 19, 54, 169, 151, 165, 21, 4, 0, 0, 1548, 862, 846, 133, 115, 78, 31, 1, 1, 1, 1, 0, 0, 0, 0, 0, 0, 0, 0, 0, 215, 209, 159, 248, 0, 0, 0, 5, 15, 34, 47, 5, 2, 0, 0, 0, 0, 0, 0, 0, 0, 0, 0, 0, 12, 10, 1, 0, 0, 0, 0, 0, 0, 0, 0, 0, 56, 7, 8, 8, 2, 0, 1, 0, 4, 5, 2, 0, 3, 1, 5, 0, 1, 1, 1, 1, 1, 0, 1, 0, 1, 0, 2, 1, 0, 0, 0, 1, 0, 0, 0, 0, 0, 0, 2, 0, 0, 2, 16, 5, 9, 4, 0, 0, 0, 20, 2, 10, 2, 1, 1, 0, 0, 0, 2839, 15, 0, 0, 0, 0, 0, 0, 0, 0, 0, 0, 0, 0, 0, 0, 0, 0, 0, 0, 0, 0, 0, 0, 0, 2, 0, 0, 0, 1083, 635, 0, 0, 59, 170, 2, 2, 0, 2, 0, 0, 150000, 0, 2, 896, 256, 0, 0, 15481377176500
4270, 352, 6, 346, 4060, 78, 26, 52, 9261, 1118, 15094, 178, 613, 63, 4622, 0, 4470, 1, 2421, 82, 1585, 0, 10012, 13721, 8152, 35365, 143, 148, 67, 40, 26, 0, 3520, 3222, 0, 0, 12457, 17, 184, 128, 114, 61, 98, 67, 35, 3222, 33, 69, 144, 1190, 1272, 2857, 1778, 2408, 4191, 16, 9435, 1653, 648, 3179, 0, 0, 0, 2206, 34, 63, 59, 85, 130, 90, 37, 2, 0, 0, 25, 3, 27, 57, 12, 12, 1, 9, 7, 2553, 0, 1608, 25, 53, 31, 67, 83, 84, 34, 2, 0, 0, 6, 2, 12, 53, 16, 5, 1, 3, 7, 1882, 0, 69, 201, 472, 444, 269, 119, 11, 0, 0, 3459, 3326, 3067, 846, 512, 172, 54, 7, 13, 55, 3, 5, 0, 0, 0, 0, 0, 0, 0, 0, 489, 592, 504, 786, 0, 0, 1, 4, 56, 76, 70, 65, 7, 0, 0, 0, 0, 0, 0, 0, 0, 0, 0, 0, 16, 17, 12, 0, 1, 0, 0, 0, 0, 0, 0, 0, 138, 31, 13, 19, 8, 4, 2, 0, 4, 15, 7, 5, 5, 7, 3, 5, 4, 3, 6, 5, 4, 1, 3, 9, 3, 1, 3, 1, 2, 1, 2, 0, 5, 2, 0, 0, 0, 1, 1, 0, 0, 5, 32, 15, 10, 3, 0, 0, 0, 23, 11, 13, 6, 7, 4, 1, 0, 0, 7226, 72, 0, 0, 0, 0, 0, 0, 0, 0, 0, 0, 0, 0, 0, 0, 0, 0, 0, 0, 0, 0, 0, 0, 0, 2, 0, 0, 0, 2670, 1926, 0, 0, 190, 397, 3, 2, 1, 2, 0, 1, 163250, 284500, 5, 47316544, 64, -1, 0, 15681371856000
1492, 143, 5, 138, 1409, 26, 4, 22, 3622, 354, 5547, 12, 652, 27, 1635, 0, 1617, 3, 918, 27, 573, 0, 3728, 5261, 2931, 10716, 58, 86, 2, 3, 21, 0, 1109, 1133, 0, 0, 4612, 4, 40, 114, 39, 13, 17, 30, 7, 1133, 12, 22, 34, 1003, 615, 772, 793, 714, 1137, 3, 3563, 547, 201, 1224, 0, 0, 0, 800, 14, 19, 16, 27, 46, 50, 25, 20, 0, 0, 0, 61, 1, 8, 7, 1, 1, 0, 0, 938, 0, 518, 11, 8, 15, 27, 28, 35, 26, 4, 0, 0, 49, 0, 3, 3, 5, 2, 9, 0, 1, 600, 0, 19, 55, 170, 153, 150, 22, 4, 0, 0, 1438, 891, 853, 137, 115, 78, 31, 1, 1, 1, 1, 0, 0, 0, 0, 0, 0, 0, 0, 0, 201, 208, 164, 242, 0, 0, 0, 3, 13, 30, 41, 15, 2, 0, 0, 0, 0, 0, 0, 0, 0, 0, 0, 0, 13, 8, 1, 0, 0, 0, 0, 0, 0, 0, 0, 0, 48, 7, 8, 8, 2, 0, 1, 0, 4, 5, 2, 0, 3, 1, 5, 0, 1, 1, 1, 1, 1, 0, 1, 0, 1, 0, 2, 1, 0, 0, 0, 1, 0, 0, 0, 0, 0, 0, 2, 0, 0, 1, 13, 6, 5, 3, 0, 0, 0, 12, 3, 8, 3, 1, 1, 0, 0, 0, 2774, 15, 0, 0, 0, 0, 0, 0, 0, 0, 0, 0, 0, 0, 0, 0, 0, 0, 0, 0, 0, 0, 0, 0, 0, 2, 0, 0, 0, 1025, 639, 0, 0, 59, 162, 2, 1, 1, 1, 0, 1, 74500, 75000, 2, 896, 256, 0, 0, 15681374629500
4409, 361, 8, 353, 4117, 84, 27, 57, 9402, 1162, 16114, 93, 583, 76, 4771, 0, 4534, 1, 2459, 82, 1607, 0, 10165, 13956, 8267, 36562, 143, 106, 63, 40, 34, 0, 3899, 3332, 0, 0, 12892, 18, 188, 130, 115, 62, 106, 69, 37, 3332, 34, 70, 154, 1174, 1327, 2719, 1786, 2663, 4487, 15, 10394, 1737, 672, 3217, 0, 0, 0, 2205, 37, 75, 57, 84, 136, 110, 30, 0, 0, 0, 23, 3, 28, 44, 10, 11, 3, 10, 5, 2597, 0, 1649, 26, 61, 34, 69, 80, 85, 32, 0, 0, 0, 7, 6, 5, 37, 17, 10, 2, 4, 6, 1942, 0, 69, 204, 477, 453, 272, 121, 11, 0, 0, 3557, 3518, 2913, 833, 524, 142, 45, 5, 11, 49, 1, 5, 0, 0, 0, 0, 0, 0, 0, 0, 496, 597, 514, 794, 0, 0, 0, 10, 52, 71, 84, 60, 7, 0, 0, 0, 0, 0, 0, 0, 0, 0, 0, 0, 29, 18, 11, 1, 0, 0, 1, 0, 0, 0, 0, 0, 151, 32, 13, 18, 8, 4, 2, 0, 3, 15, 8, 6, 4, 7, 4, 4, 3, 2, 5, 7, 3, 1, 4, 9, 4, 2, 3, 1, 2, 1, 2, 1, 5, 2, 0, 0, 0, 1, 2, 0, 0, 3, 41, 19, 8, 9, 0, 0, 0, 27, 17, 16, 8, 7, 5, 0, 0, 0, 7364, 72, 0, 0, 0, 0, 0, 0, 0, 0, 0, 0, 0, 0, 0, 0, 0, 0, 0, 0, 0, 0, 0, 0, 0, 2, 0, 0, 0, 2698, 1968, 0, 0, 194, 403, 9, 3, 6, 3, 0, 6, 224000, 685500, 11, 47317056, 64, -1, 0, 15881369945000
1549, 146, 5, 141, 1462, 31, 8, 23, 3742, 357, 5803, 143, 644, 29, 1695, 0, 1673, 3, 970, 27, 583, 0, 3824, 5405, 3006, 11013, 58, 88, 2, 5, 21, 0, 1106, 1158, 0, 0, 4786, 5, 38, 130, 41, 11, 17, 30, 7, 1158, 13, 22, 45, 1134, 611, 797, 785, 729, 1154, 3, 3624, 574, 214, 1248, 0, 0, 0, 859, 12, 20, 18, 25, 45, 49, 25, 20, 0, 0, 0, 61, 39, 8, 5, 1, 5, 0, 0, 954, 0, 520, 10, 8, 11, 19, 37, 37, 26, 4, 0, 0, 63, 1, 3, 2, 5, 1, 9, 0, 1, 587, 0, 19, 54, 169, 151, 165, 21, 4, 0, 0, 1553, 872, 852, 110, 115, 78, 31, 1, 1, 1, 1, 0, 0, 0, 0, 0, 0, 0, 0, 0, 215, 209, 159, 248, 0, 0, 1, 2, 18, 33, 40, 12, 1, 0, 0, 0, 0, 0, 0, 0, 0, 0, 0, 0, 12, 8, 1, 0, 0, 0, 0, 0, 0, 0, 0, 0, 50, 7, 8, 8, 2, 0, 1, 0, 4, 5, 2, 0, 3, 1, 5, 0, 1, 1, 1, 1, 1, 0, 1, 0, 1, 0, 1, 1, 0, 0, 0, 1, 0, 0, 0, 0, 0, 0, 2, 0, 0, 1, 13, 5, 5, 6, 0, 0, 0, 14, 2, 9, 4, 1, 0, 0, 0, 0, 2834, 15, 0, 0, 0, 0, 0, 0, 0, 0, 0, 0, 0, 0, 0, 0, 0, 0, 0, 0, 0, 0, 0, 0, 0, 2, 0, 0, 0, 1072, 641, 0, 0, 58, 166, 2, 1, 1, 1, 0, 1, 75000, 88750, 2, 896, 320, 0, 0, 15881372846500
4560, 354, 5, 349, 4219, 87, 27, 60, 9627, 1340, 15427, 35, 624, 80, 4914, 0, 4681, 1, 2519, 90, 1648, 0, 10394, 14348, 8520, 36622, 154, 123, 64, 40, 26, 0, 3924, 3447, 0, 0, 13293, 18, 193, 131, 114, 66, 100, 66, 37, 3447, 30, 76, 175, 1188, 1310, 2785, 2291, 2740, 4276, 13, 9584, 1766, 700, 3341, 0, 0, 0, 2329, 36, 79, 63, 94, 130, 96, 30, 0, 0, 0, 24, 3, 30, 47, 18, 14, 11, 10, 11, 2689, 0, 1696, 28, 65, 36, 66, 83, 85, 28, 0, 0, 0, 10, 5, 6, 35, 19, 7, 7, 7, 11, 1980, 0, 72, 210, 494, 453, 285, 123, 11, 0, 0, 3666, 3669, 2992, 816, 544, 181, 56, 11, 17, 56, 3, 5, 0, 0, 0, 0, 0, 0, 0, 0, 505, 621, 522, 818, 0, 0, 0, 8, 57, 79, 73, 62, 11, 0, 0, 0, 0, 0, 0, 0, 0, 0, 0, 0, 23, 23, 17, 1, 1, 0, 0, 0, 0, 0, 0, 0, 162, 33, 14, 19, 7, 6, 3, 1, 3, 15, 8, 5, 5, 9, 3, 6, 4, 2, 5, 7, 2, 1, 5, 9, 4, 1, 3, 1, 4, 1, 2, 2, 5, 2, 0, 0, 0, 1, 1, 0, 0, 3, 49, 18, 10, 7, 0, 0, 0, 28, 15, 14, 13, 7, 9, 1, 0, 0, 7581, 77, 0, 0, 0, 0, 0, 0, 0, 0, 0, 0, 0, 0, 0, 0, 0, 0, 0, 0, 0, 0, 0, 0, 0, 2, 0, 0, 0, 2798, 2018, 0, 0, 207, 409, 2, 0, 2, 0, 0, 2, 0, 149000, 4, 47316608, 0, -1, 0, 16081367898000
2249, 184, 9, 175, 1779, 49, 15, 34, 4953, 566, 8629, 238, 573, 67, 2433, 0, 2023, 2, 1112, 34, 806, 0, 5041, 6939, 3909, 15729, 130, 94, 2, 5, 33, 0, 2231, 1646, 0, 0, 6703, 15, 78, 185, 78, 21, 26, 36, 13, 1646, 25, 40, 267, 1119, 1257, 1178, 1001, 993, 1618, 1, 5623, 743, 367, 1658, 0, 0, 0, 959, 31, 37, 32, 56, 79, 43, 23, 20, 0, 0, 4, 67, 5, 17, 11, 3, 1, 1, 0, 1171, 0, 688, 17, 16, 26, 43, 48, 30, 23, 4, 0, 0, 61, 0, 13, 3, 5, 4, 9, 3, 8, 789, 0, 25, 70, 266, 212, 198, 30, 5, 0, 0, 2084, 1107, 976, 205, 139, 109, 48, 0, 0, 0, 0, 0, 0, 0, 0, 0, 0, 0, 0, 0, 293, 251, 262, 304, 0, 0, 1, 5, 20, 36, 53, 24, 4, 0, 0, 0, 0, 0, 0, 0, 0, 0, 0, 0, 26, 14, 3, 2, 0, 0, 0, 0, 0, 0, 0, 0, 93, 34, 10, 20, 3, 4, 21, 21, 15, 8, 4, 1, 5, 1, 6, 2, 4, 1, 1, 1, 1, 1, 0, 0, 2, 1, 1, 0, 1, 0, 1, 1, 0, 0, 0, 1, 0, 0, 2, 0, 0, 3, 27, 21, 13, 4, 1, 0, 0, 34, 15, 11, 5, 3, 2, 0, 0, 0, 4001, 19, 0, 0, 0, 0, 0, 0, 0, 0, 0, 0, 0, 0, 0, 0, 0, 0, 0, 0, 0, 0, 0, 0, 0, 2, 0, 0, 0, 1282, 840, 0, 0, 180, 210, 3, 2, 1, 2, 0, 1, 135250, 74500, 3, 1344, 256, 0, 0, 16081372212500
4231, 367, 7, 360, 4022, 93, 32, 61, 9246, 985, 14925, 44, 619, 60, 4598, 0, 4442, 1, 2423, 82, 1585, 0, 9997, 13634, 8092, 35066, 143, 122, 62, 41, 26, 0, 3792, 3196, 0, 0, 12328, 20, 185, 130, 110, 60, 98, 72, 36, 3196, 33, 64, 151, 1174, 1231, 2763, 1711, 2417, 4279, 14, 9418, 1699, 662, 3101, 0, 0, 0, 2157, 31, 65, 59, 78, 129, 107, 42, 2, 0, 0, 23, 2, 23, 37, 12, 14, 1, 9, 7, 2542, 0, 1568, 22, 60, 28, 67, 82, 93, 38, 3, 0, 0, 7, 2, 4, 35, 20, 5, 2, 3, 7, 1876, 0, 69, 201, 472, 445, 269, 118, 11, 0, 0, 3487, 3448, 2827, 740, 512, 169, 46, 6, 12, 50, 3, 5, 0, 0, 0, 0, 0, 0, 0, 0, 489, 591, 505, 786, 0, 0, 1, 6, 50, 70, 84, 55, 12, 0, 0, 0, 0, 0, 0, 0, 0, 0, 0, 0, 16, 17, 8, 2, 1, 0, 0, 0, 0, 0, 0, 0, 134, 32, 13, 19, 9, 2, 1, 0, 3, 15, 7, 5, 6, 7, 3, 5, 4, 2, 7, 5, 3, 1, 3, 9, 4, 1, 3, 1, 2, 1, 3, 1, 5, 2, 0, 0, 0, 0, 1, 0, 0, 4, 31, 14, 8, 4, 1, 0, 0, 22, 11, 11, 7, 6, 4, 1, 0, 0, 7185, 71, 0, 0, 0, 0, 0, 0, 0, 0, 0, 0, 0, 0, 0, 0, 0, 0, 0, 0, 0, 0, 0, 0, 0, 2, 0, 0, 0, 2640, 1910, 0, 0, 191, 420, 3, 0, 3, 0, 0, 3, 0, 210750, 5, 47316160, 0, -1, 0, 16281365463000
1565, 144, 5, 139, 1470, 33, 8, 25, 3744, 395, 5532, 9, 676, 30, 1709, 0, 1681, 3, 970, 27, 584, 0, 3825, 5419, 3016, 10907, 58, 83, 2, 3, 21, 0, 1122, 1171, 0, 0, 4797, 5, 39, 131, 40, 11, 18, 30, 7, 1171, 11, 26, 43, 1139, 586, 754, 690, 705, 1355, 5, 3464, 584, 216, 1259, 0, 0, 0, 871, 14, 18, 16, 28, 45, 49, 25, 20, 0, 0, 0, 61, 37, 8, 12, 4, 6, 0, 0, 958, 0, 529, 11, 8, 11, 20, 37, 37, 26, 4, 0, 0, 63, 1, 3, 2, 0, 7, 11, 0, 1, 595, 0, 19, 55, 169, 151, 165, 21, 4, 0, 0, 1565, 893, 837, 127, 115, 78, 31, 1, 1, 1, 1, 0, 0, 0, 0, 0, 0, 0, 0, 0, 216, 208, 160, 246, 0, 0, 0, 5, 11, 38, 43, 10, 1, 0, 0, 0, 0, 0, 0, 0, 0, 0, 0, 0, 12, 10, 1, 0, 0, 0, 0, 0, 0, 0, 0, 0, 51, 7, 8, 8, 2, 0, 1, 0, 4, 5, 2, 0, 3, 1, 5, 0, 1, 1, 1, 1, 1, 0, 1, 0, 1, 0, 1, 1, 0, 0, 0, 1, 0, 0, 0, 0, 0, 0, 2, 0, 0, 1, 14, 5, 5, 6, 0, 0, 0, 13, 3, 9, 4, 2, 0, 0, 0, 0, 2843, 15, 0, 0, 0, 0, 0, 0, 0, 0, 0, 0, 0, 0, 0, 0, 0, 0, 0, 0, 0, 0, 0, 0, 0, 2, 0, 0, 0, 1079, 644, 0, 0, 58, 168, 0, 0, 0, 0, 0, 0, 0, 0, 0, 768, 256, 0, 0, 16281368229000
4231, 347, 6, 341, 4036, 81, 27, 54, 9239, 1045, 14641, 91, 631, 59, 4578, 0, 4450, 1, 2419, 82, 1584, 0, 9991, 13658, 8101, 34728, 143, 168, 65, 40, 26, 0, 3678, 3190, 0, 0, 12305, 16, 184, 128, 112, 59, 98, 70, 35, 3190, 30, 68, 148, 1180, 1246, 2766, 1774, 2424, 4156, 16, 9125, 1625, 641, 3158, 0, 0, 0, 2183, 32, 57, 58, 75, 126, 99, 39, 11, 0, 0, 25, 3, 26, 56, 11, 12, 1, 9, 4, 2533, 0, 1595, 22, 53, 30, 61, 78, 87, 36, 10, 0, 0, 7, 2, 6, 58, 17, 5, 1, 3, 7, 1866, 0, 69, 201, 472, 444, 269, 118, 11, 0, 0, 3377, 3307, 3080, 861, 522, 184, 55, 8, 13, 59, 3, 5, 0, 0, 0, 0, 0, 0, 0, 0, 489, 590, 505, 784, 0, 0, 1, 5, 51, 63, 88, 55, 15, 0, 0, 0, 0, 0, 0, 0, 0, 0, 0, 0, 15, 17, 8, 1, 1, 0, 0, 0, 0, 0, 0, 0, 134, 31, 13, 19, 8, 4, 2, 0, 4, 13, 7, 6, 5, 6, 3, 4, 4, 2, 6, 6, 3, 1, 3, 9, 4, 1, 3, 1, 2, 2, 3, 1, 5, 2, 0, 0, 0, 1, 1, 0, 0, 4, 30, 15, 8, 3, 1, 0, 0, 22, 12, 10, 5, 9, 2, 1, 0, 0, 7183, 72, 0, 0, 0, 0, 0, 0, 0, 0, 0, 0, 0, 0, 0, 0, 0, 0, 0, 0, 0, 0, 0, 0, 0, 2, 0, 0, 0, 2648, 1920, 0, 0, 190, 394, 3, 1, 2, 1, 0, 2, 74500, 150000, 5, 47316672, 64, -1, 0, 16481363205000
1497, 144, 6, 138, 1406, 28, 4, 24, 3622, 348, 5429, 7, 667, 27, 1641, 0, 1616, 3, 918, 27, 573, 0, 3728, 5259, 2929, 10607, 58, 85, 2, 3, 21, 0, 1127, 1130, 0, 0, 4632, 4, 40, 114, 40, 13, 17, 30, 7, 1130, 12, 20, 42, 1002, 579, 690, 675, 848, 1254, 5, 3446, 556, 207, 1213, 0, 0, 0, 798, 14, 19, 17, 27, 46, 49, 25, 20, 0, 0, 0, 61, 1, 8, 7, 1, 1, 0, 0, 936, 0, 517, 11, 8, 15, 27, 28, 34, 26, 4, 0, 0, 49, 0, 3, 3, 5, 2, 9, 0, 1, 598, 0, 19, 55, 170, 153, 150, 22, 4, 0, 0, 1430, 888, 852, 138, 115, 78, 31, 1, 1, 1, 1, 0, 0, 0, 0, 0, 0, 0, 0, 0, 201, 208, 164, 242, 0, 0, 0, 4, 12, 33, 45, 10, 1, 0, 0, 0, 0, 0, 0, 0, 0, 0, 0, 0, 13, 8, 1, 0, 0, 0, 0, 0, 0, 0, 0, 0, 48, 7, 8, 8, 2, 0, 1, 0, 4, 5, 2, 0, 3, 1, 5, 0, 1, 1, 1, 1, 1, 0, 1, 0, 1, 0, 1, 1, 1, 0, 0, 1, 0, 0, 0, 0, 0, 0, 2, 0, 0, 1, 13, 6, 5, 3, 0, 0, 0, 12, 3, 8, 3, 1, 1, 0, 0, 0, 2772, 15, 0, 0, 0, 0, 0, 0, 0, 0, 0, 0, 0, 0, 0, 0, 0, 0, 0, 0, 0, 0, 0, 0, 0, 2, 0, 0, 0, 1023, 639, 0, 0, 59, 166, 0, 0, 0, 0, 0, 0, 0, 0, 0, 640, 256, 0, 0, 16481365919500
4239, 347, 6, 341, 4039, 78, 25, 53, 9261, 1030, 14777, 177, 626, 59, 4586, 0, 4451, 1, 2421, 82, 1585, 0, 10012, 13690, 8121, 34791, 143, 122, 64, 40, 26, 0, 3801, 3188, 0, 0, 12316, 18, 187, 127, 110, 58, 99, 70, 35, 3188, 29, 66, 155, 1184, 1252, 2704, 1637, 2268, 4513, 14, 9130, 1682, 655, 3132, 0, 0, 0, 2180, 32, 71, 56, 84, 122, 98, 37, 2, 0, 0, 25, 3, 26, 46, 9, 12, 1, 9, 6, 2545, 0, 1588, 23, 60, 28, 64, 82, 88, 35, 1, 0, 0, 7, 2, 4, 35, 17, 5, 1, 3, 7, 1888, 0, 69, 201, 472, 444, 269, 119, 11, 0, 0, 3446, 3496, 2883, 763, 520, 169, 54, 6, 12, 50, 3, 5, 0, 0, 0, 0, 0, 0, 0, 0, 489, 592, 504, 786, 0, 0, 1, 6, 57, 70, 71, 57, 17, 0, 0, 0, 0, 0, 0, 0, 0, 0, 0, 0, 17, 16, 8, 1, 1, 0, 0, 0, 0, 0, 0, 0, 134, 31, 13, 19, 8, 4, 2, 0, 4, 13, 7, 5, 5, 6, 3, 5, 3, 2, 6, 7, 4, 1, 3, 9, 4, 1, 3, 1, 2, 1, 3, 1, 5, 2, 0, 0, 0, 1, 1, 0, 0, 5, 31, 14, 8, 3, 0, 0, 0, 21, 13, 9, 7, 7, 3, 1, 0, 0, 7203, 71, 0, 0, 0, 0, 0, 0, 0, 0, 0, 0, 0, 0, 0, 0, 0, 0, 0, 0, 0, 0, 0, 0, 0, 2, 0, 0, 0, 2649, 1919, 0, 0, 190, 391, 5, 2, 3, 2, 0, 3, 149500, 210250, 7, 47316928, 64, -1, 0, 16681361122500
1541, 143, 5, 138, 1463, 33, 8, 25, 3742, 363, 5502, 9, 680, 28, 1684, 0, 1677, 3, 970, 27, 583, 0, 3824, 5419, 3009, 10843, 58, 86, 2, 3, 21, 0, 1125, 1156, 0, 0, 4746, 5, 38, 130, 40, 11, 17, 30, 7, 1156, 14, 22, 45, 1124, 607, 814, 702, 682, 1238, 3, 3454, 580, 215, 1244, 0, 0, 0, 862, 13, 19, 16, 27, 44, 48, 25, 20, 0, 0, 0, 61, 37, 8, 5, 1, 3, 0, 0, 959, 0, 521, 9, 8, 11, 19, 38, 37, 26, 4, 0, 0, 63, 0, 3, 2, 5, 2, 9, 0, 1, 588, 0, 19, 54, 169, 151, 165, 21, 4, 0, 0, 1546, 873, 848, 134, 115, 78, 31, 1, 1, 1, 1, 0, 0, 0, 0, 0, 0, 0, 0, 0, 215, 209, 159, 248, 0, 0, 1, 3, 15, 33, 43, 11, 1, 0, 0, 0, 0, 0, 0, 0, 0, 0, 0, 0, 11, 9, 1, 0, 0, 0, 0, 0, 0, 0, 0, 0, 49, 7, 8, 8, 2, 0, 1, 0, 4, 5, 2, 0, 3, 1, 5, 0, 1, 1, 1, 1, 1, 0, 1, 0, 1, 0, 2, 1, 0, 0, 0, 1, 0, 0, 0, 0, 0, 0, 2, 0, 0, 1, 13, 5, 5, 5, 0, 0, 0, 13, 2, 9, 3, 1, 1, 0, 0, 0, 2835, 15, 0, 0, 0, 0, 0, 0, 0, 0, 0, 0, 0, 0, 0, 0, 0, 0, 0, 0, 0, 0, 0, 0, 0, 2, 0, 0, 0, 1077, 642, 0, 0, 59, 167, 0, 0, 0, 0, 0, 0, 0, 0, 0, 768, 256, 0, 0, 16681363873500
4725, 398, 11, 387, 4365, 84, 23, 61, 9856, 1376, 19714, 2762, 499, 99, 5123, 0, 4801, 2, 2587, 90, 1694, 0, 10676, 14700, 8735, 38477, 160, 116, 49, 31, 26, 0, 4419, 3559, 0, 0, 13792, 19, 195, 138, 121, 70, 106, 73, 39, 3559, 33, 76, 162, 1208, 1517, 2864, 2053, 2824, 4699, 14, 10932, 1881, 732, 3406, 0, 0, 0, 2359, 33, 78, 73, 94, 132, 117, 33, 0, 0, 0, 20, 6, 28, 45, 19, 16, 3, 18, 50, 2714, 0, 1726, 26, 60, 35, 80, 89, 91, 32, 0, 0, 0, 8, 2, 5, 32, 17, 8, 1, 13, 35, 2018, 0, 74, 217, 498, 478, 291, 125, 11, 0, 0, 3816, 3748, 2998, 841, 505, 175, 52, 9, 12, 50, 3, 5, 0, 0, 0, 0, 0, 0, 0, 0, 524, 622, 548, 834, 0, 0, 1, 9, 46, 74, 88, 63, 16, 0, 0, 0, 0, 0, 0, 0, 0, 0, 0, 0, 32, 23, 12, 2, 1, 0, 0, 0, 0, 0, 0, 0, 181, 35, 16, 21, 8, 4, 2, 1, 3, 19, 8, 6, 4, 8, 3, 7, 4, 3, 6, 5, 2, 4, 3, 9, 6, 2, 3, 1, 3, 1, 2, 0, 6, 2, 0, 0, 0, 1, 1, 0, 0, 6, 55, 23, 14, 4, 1, 0, 0, 39, 22, 16, 11, 8, 6, 1, 0, 0, 7803, 74, 0, 0, 0, 0, 0, 0, 0, 0, 0, 0, 0, 0, 0, 0, 0, 0, 0, 0, 0, 0, 0, 0, 0, 2, 0, 0, 0, 2871, 2069, 0, 0, 216, 413, 38, 29, 8, 29, 0, 6, 2185000, 529500, 38, 47290752, 384, -1, 0, 16881361426000
1475, 151, 9, 142, 1396, 36, 11, 25, 3622, 322, 5855, 287, 618, 27, 1626, 0, 1611, 1, 918, 27, 573, 0, 3728, 5242, 2920, 10706, 58, 87, 2, 3, 20, 0, 1111, 1113, 0, 0, 4578, 4, 39, 116, 39, 14, 18, 31, 7, 1113, 11, 24, 38, 1026, 603, 665, 647, 823, 1226, 6, 3621, 534, 198, 1215, 0, 0, 0, 788, 14, 18, 16, 26, 45, 53, 27, 20, 0, 0, 3, 61, 1, 7, 4, 1, 0, 0, 0, 930, 0, 510, 10, 10, 13, 24, 27, 35, 26, 4, 0, 0, 56, 0, 3, 2, 5, 2, 9, 0, 1, 581, 0, 19, 55, 170, 153, 150, 22, 4, 0, 0, 1402, 865, 874, 140, 119, 78, 31, 1, 1, 1, 1, 0, 0, 0, 0, 0, 0, 0, 0, 0, 201, 208, 164, 242, 0, 0, 1, 6, 13, 27, 49, 8, 1, 0, 0, 0, 0, 0, 0, 0, 0, 0, 0, 0, 14, 8, 1, 0, 0, 0, 0, 0, 0, 0, 0, 0, 48, 7, 8, 8, 2, 0, 1, 0, 4, 5, 2, 0, 3, 1, 5, 0, 1, 1, 1, 1, 1, 0, 1, 1, 1, 0, 1, 1, 0, 0, 0, 1, 0, 0, 0, 0, 0, 0, 2, 0, 0, 1, 13, 5, 6, 3, 0, 0, 0, 12, 3, 9, 2, 2, 0, 0, 0, 0, 2762, 15, 0, 0, 0, 0, 0, 0, 0, 0, 0, 0, 0, 0, 0, 0, 0, 0, 0, 0, 0, 0, 0, 0, 0, 2, 0, 0, 0, 1019, 630, 0, 0, 59, 164, 5, 4, 1, 4, 0, 1, 285250, 74500, 5, 320, 320, 0, 0, 16881364353500
12099, 355, 23, 332, 8521, 133, 44, 89, 18694, 1835, 202567, 6521, 92, 119, 12454, 3, 9723, 6, 5267, 77, 3134, 0, 19487, 27098, 15668, 236294, 135, 107, 65, 21, 26, 0, 175560, 8284, 0, 0, 35804, 12, 170, 632, 259, 411, 74, 65, 29, 8284, 79, 175, 355, 1675, 2096, 16782, 9556, 4911, 3653, 15, 185013, 3846, 1327, 5859, 0, 0, 0, 4415, 59, 65, 78, 76, 128, 105, 60, 37, 604, 0, 31, 4, 31, 36, 15, 22, 15, 37, 53, 5383, 0, 3359, 29, 54, 31, 79, 74, 66, 35, 11, 144, 0, 7, 3, 17, 44, 14, 13, 6, 16, 18, 3744, 0, 55, 355, 736, 1286, 593, 82, 27, 0, 0, 6733, 5979, 3809, 2231, 728, 117, 52, 5, 23, 25, 3, 3, 0, 0, 0, 0, 0, 0, 0, 0, 781, 1401, 952, 1722, 0, 0, 0, 3, 40, 352, 76, 66, 11, 0, 0, 0, 0, 0, 0, 0, 0, 0, 0, 0, 34, 22, 10, 2, 2, 3, 1, 0, 0, 0, 0, 0, 548, 30, 11, 17, 12, 4, 177, 0, 8, 16, 13, 8, 6, 5, 5, 4, 2, 2, 4, 4, 4, 2, 5, 8, 1, 2, 179, 1, 2, 1, 1, 1, 4, 2, 0, 0, 0, 0, 1, 1, 0, 13, 48, 28, 24, 9, 0, 0, 0, 59, 16, 21, 10, 5, 9, 2, 0, 0, 13850, 71, 0, 0, 0, 0, 0, 0, 0, 0, 0, 0, 0, 0, 0, 0, 0, 0, 0, 0, 0, 0, 0, 0, 0, 2, 0, 0, 0, 5926, 3800, 0, 0, 549, 331, 105, 74, 31, 74, 0, 30, 5137000, 2463500, 467, 27353664, 1024, -1, 0, 16996956900500
3934, 218, 19, 199, 3461, 84, 35, 49, 9528, 1163, 21298, 7327, 447, 118, 4152, 1, 3722, 5, 2422, 62, 1487, 0, 9324, 11751, 7380, 26209, 99, 528, 35, 3, 373, 0, 2388, 3321, 0, 0, 12446, 13, 41, 199, 45, 213, 15, 45, 35, 3321, 31, 68, 126, 287, 951, 6760, 1190, 1447, 2586, 8, 8966, 1224, 492, 3289, 0, 0, 0, 2303, 40, 107, 59, 81, 45, 21, 5, 8, 68, 0, 1, 0, 12, 84, 17, 3, 12, 12, 10, 2586, 0, 898, 21, 24, 40, 61, 42, 38, 32, 64, 41, 0, 2, 4, 7, 9, 18, 0, 5, 1, 10, 1205, 0, 31, 62, 348, 529, 475, 38, 4, 0, 0, 2059, 4904, 2794, 1130, 304, 19, 51, 1, 0, 0, 0, 0, 0, 0, 0, 0, 0, 0, 0, 0, 337, 743, 407, 976, 0, 0, 0, 5, 13, 45, 139, 62, 2, 0, 0, 0, 0, 0, 0, 0, 0, 0, 0, 0, 46, 27, 12, 2, 2, 1, 0, 1, 0, 0, 0, 0, 150, 15, 13, 13, 2, 6, 0, 2, 1, 15, 7, 2, 2, 3, 1, 1, 4, 3, 0, 2, 1, 3, 1, 3, 3, 2, 1, 0, 1, 0, 1, 0, 1, 0, 0, 1, 1, 0, 2, 0, 0, 5, 61, 37, 14, 7, 0, 0, 0, 52, 25, 14, 18, 11, 4, 1, 0, 0, 7580, 6, 0, 0, 0, 0, 0, 0, 0, 0, 0, 0, 0, 0, 0, 0, 0, 0, 0, 0, 0, 0, 0, 0, 0, 2, 0, 0, 0, 2658, 1178, 0, 0, 119, 147, 110, 91, 19, 91, 0, 18, 6343500, 1936250, 109, 9856, 896, 674, 0, 16996967549500
559358, 34151, 1014, 33137, 450922, 17054, 7301, 9752, 1041057, 120266, 2714754, 50186, 383, 10771, 595622, 767, 506221, 445, 273607, 21071, 195788, 0, 1142278, 1440385, 884288, 5923001, 43968, 10899, 1191, 787, 1371, 0, 1429333, 514725, 0, 0, 1547414, 6636, 14126, 9351, 12459, 7389, 7995, 9908, 5025, 514725, 3723, 8033, 17032, 38742, 201525, 343557, 302088, 327533, 517083, 1968, 2073121, 133390, 66213, 391844, 0, 0, 0, 233184, 5149, 5849, 9528, 13516, 14914, 16232, 1390, 34, 7, 0, 564, 775, 781, 2061, 3192, 1543, 612, 463, 5078, 284734, 0, 187162, 2311, 4004, 6029, 9697, 16716, 13194, 2712, 16, 0, 0, 924, 400, 1833, 447, 3097, 1043, 592, 1666, 1299, 230540, 0, 7884, 33636, 53852, 52950, 37757, 8703, 1005, 1, 0, 372258, 348874, 156684, 82950, 47931, 29966, 13170, 1607, 662, 1606, 0, 0, 0, 0, 0, 0, 0, 0, 0, 0, 72103, 55613, 68072, 74880, 0, 0, 12, 411, 3601, 9884, 10727, 7109, 476, 0, 0, 0, 0, 0, 0, 0, 0, 0, 0, 0, 4389, 2077, 578, 176, 373, 43, 7, 1, 0, 0, 0, 0, 23795, 6506, 4682, 4319, 1265, 1029, 11, 1458, 1455, 4138, 1142, 1176, 185, 643, 807, 1318, 1853, 1569, 1218, 549, 547, 1818, 1199, 540, 241, 547, 85, 78, 545, 182, 177, 1, 361, 548, 857, 183, 363, 177, 180, 1, 183, 577, 5191, 1971, 1229, 932, 8, 0, 0, 3946, 3135, 1144, 2106, 623, 44, 7, 0, 0, 842778, 383, 0, 0, 0, 0, 0, 0, 0, 0, 0, 0, 0, 0, 0, 0, 0, 0, 0, 0, 0, 0, 0, 0, 0, 2, 0, 0, 0, 296194, 230354, 0, 0, 44515, 44641, 732, 517, 201, 515, 0, 200, 39176250, 16832500, 1817, 377664, 5312, 0, 0, 16998324926500
4550, 605, 56, 549, 4251, 196, 60, 136, 9434, 1874, 43560, 20522, 216, 126, 5156, 4, 4773, 3, 2510, 92, 1607, 0, 10260, 14384, 8635, 41971, 156, 78, 48, 12, 9, 0, 5076, 3588, 0, 0, 14111, 28, 172, 102, 120, 75, 106, 81, 35, 3588, 38, 127, 214, 1046, 1717, 2655, 2133, 2769, 4973, 15, 16923, 2020, 707, 3386, 0, 1, 0, 2378, 49, 83, 83, 104, 156, 119, 25, 0, 0, 0, 8, 7, 26, 50, 21, 12, 7, 10, 13, 2843, 0, 1639, 39, 70, 43, 103, 83, 121, 19, 0, 0, 0, 13, 11, 23, 34, 13, 9, 10, 13, 12, 1979, 0, 73, 213, 472, 427, 288, 123, 11, 0, 0, 4123, 3431, 2708, 810, 367, 154, 94, 7, 38, 24, 2, 0, 0, 0, 0, 0, 0, 0, 0, 0, 482, 612, 513, 814, 0, 0, 1, 7, 46, 76, 85, 64, 7, 0, 0, 0, 0, 0, 0, 0, 0, 0, 0, 0, 48, 26, 12, 3, 3, 4, 1, 0, 0, 0, 0, 0, 238, 36, 15, 19, 8, 4, 3, 3, 5, 18, 12, 10, 2, 7, 5, 2, 4, 2, 3, 6, 4, 4, 2, 7, 2, 1, 3, 1, 2, 1, 0, 1, 4, 2, 1, 0, 0, 2, 0, 1, 2, 10, 66, 38, 9, 8, 1, 0, 0, 49, 24, 25, 15, 13, 7, 1, 0, 0, 7607, 78, 0, 0, 0, 0, 0, 0, 0, 0, 0, 0, 0, 0, 0, 0, 0, 0, 0, 0, 0, 0, 0, 0, 0, 2, 0, 0, 0, 2900, 2028, 0, 0, 210, 440, 259, 210, 47, 209, 0, 46, 15529750, 3593500, 259, 19638272, 2176, -1, 0, 17081368091500
2361, 224, 25, 199, 1826, 71, 15, 56, 5088, 567, 17977, 6690, 283, 79, 2585, 1, 2087, 26, 1169, 34, 818, 0, 5150, 7170, 4001, 19158, 134, 97, 2, 23, 18, 0, 2834, 1718, 0, 0, 7122, 18, 76, 214, 85, 21, 31, 36, 12, 1718, 18, 40, 270, 1338, 1332, 1200, 1072, 1117, 1557, 7, 8420, 819, 386, 1662, 0, 0, 0, 1005, 28, 42, 47, 77, 50, 38, 43, 18, 0, 0, 0, 60, 43, 19, 15, 18, 21, 26, 23, 1123, 0, 645, 16, 17, 23, 49, 45, 36, 49, 4, 0, 0, 54, 2, 3, 1, 8, 4, 9, 2, 2, 799, 0, 25, 69, 264, 213, 213, 29, 5, 0, 0, 2235, 1087, 877, 158, 131, 124, 32, 2, 1, 1, 1, 0, 0, 0, 0, 0, 0, 0, 0, 0, 307, 256, 255, 314, 0, 0, 0, 4, 25, 38, 51, 25, 3, 0, 0, 0, 0, 0, 0, 0, 0, 0, 0, 0, 27, 16, 2, 2, 0, 1, 0, 0, 0, 0, 0, 0, 109, 36, 10, 20, 7, 7, 20, 18, 11, 8, 6, 3, 3, 1, 4, 1, 3, 2, 0, 1, 2, 0, 0, 0, 2, 2, 2, 0, 0, 0, 1, 0, 0, 1, 0, 0, 0, 0, 1, 1, 0, 2, 32, 27, 13, 6, 1, 0, 0, 47, 11, 12, 6, 4, 1, 0, 0, 0, 4094, 19, 0, 0, 0, 0, 0, 0, 0, 0, 0, 0, 0, 0, 0, 0, 0, 0, 0, 0, 0, 0, 0, 0, 0, 2, 0, 0, 0, 1334, 867, 0, 0, 180, 178, 99, 78, 20, 76, 0, 20, 5599750, 1719750, 97, 8512, 960, 0, 0, 17081377080000
3610, 312, 24, 288, 2972, 88, 26, 62, 7038, 1129, 21433, 4573, 328, 79, 3922, 4, 3295, 2, 1791, 72, 1252, 0, 7610, 10585, 6372, 34022, 129, 49, 53, 21, 178, 0, 6594, 2690, 0, 0, 10439, 11, 166, 113, 80, 49, 66, 47, 31, 2690, 28, 59, 142, 1135, 1100, 2225, 1523, 2023, 3461, 12, 12490, 1337, 564, 2468, 0, 0, 0, 1624, 30, 49, 62, 71, 121, 80, 15, 0, 0, 0, 24, 1, 22, 34, 12, 19, 6, 10, 7, 1917, 0, 1148, 22, 35, 30, 60, 70, 51, 24, 14, 0, 0, 7, 2, 19, 25, 7, 6, 5, 3, 5, 1375, 0, 52, 167, 362, 367, 224, 73, 7, 0, 0, 2891, 2434, 2511, 653, 332, 104, 44, 5, 23, 25, 3, 5, 0, 0, 0, 0, 0, 0, 0, 0, 386, 476, 390, 608, 0, 0, 1, 1, 29, 51, 70, 51, 10, 0, 0, 0, 0, 0, 0, 0, 0, 0, 0, 0, 24, 25, 5, 0, 2, 4, 0, 0, 0, 0, 0, 0, 156, 27, 12, 17, 7, 2, 2, 2, 5, 19, 9, 8, 2, 6, 6, 3, 1, 2, 6, 2, 3, 3, 6, 6, 1, 0, 4, 0, 1, 0, 0, 1, 5, 2, 0, 0, 0, 0, 2, 0, 0, 9, 36, 23, 9, 6, 0, 0, 0, 33, 11, 16, 15, 3, 5, 1, 0, 0, 5783, 67, 0, 0, 0, 0, 0, 0, 0, 0, 0, 0, 0, 0, 0, 0, 0, 0, 0, 0, 0, 0, 0, 0, 0, 2, 0, 0, 0, 2020, 1395, 0, 0, 178, 301, 62, 49, 13, 48, 0, 11, 3667750, 954250, 66, 20169536, 512, -1, 0, 17166463148000
1585, 189, 10, 179, 1445, 51, 13, 38, 2881, 690, 11136, 3805, 258, 76, 1774, 0, 1617, 3, 861, 45, 493, 0, 3177, 4358, 2654, 12810, 70, 37, 30, 7, 1, 0, 1509, 1287, 0, 0, 5091, 7, 35, 22, 34, 26, 9, 22, 22, 1287, 11, 26, 64, 149, 538, 1087, 855, 1026, 1813, 10, 5371, 628, 220, 1112, 0, 0, 0, 871, 29, 14, 34, 45, 39, 31, 10, 0, 0, 0, 0, 6, 15, 5, 22, 0, 16, 3, 0, 1006, 0, 572, 17, 17, 24, 32, 34, 18, 2, 0, 0, 0, 3, 5, 8, 1, 7, 10, 2, 0, 1, 679, 0, 22, 51, 150, 138, 93, 35, 4, 0, 0, 1303, 967, 518, 374, 215, 17, 23, 1, 0, 0, 0, 0, 0, 0, 0, 0, 0, 0, 0, 0, 128, 183, 182, 226, 0, 0, 0, 2, 13, 18, 34, 20, 1, 0, 0, 0, 0, 0, 0, 0, 0, 0, 0, 0, 21, 16, 7, 1, 0, 5, 0, 0, 0, 0, 0, 0, 99, 10, 9, 8, 1, 3, 0, 1, 0, 10, 4, 1, 3, 2, 1, 2, 3, 2, 2, 0, 2, 2, 0, 1, 1, 1, 1, 0, 0, 0, 1, 0, 0, 0, 0, 2, 1, 0, 2, 1, 0, 4, 33, 22, 12, 7, 0, 0, 0, 31, 16, 13, 10, 4, 2, 2, 0, 0, 2311, 7, 0, 0, 0, 0, 0, 0, 0, 0, 0, 0, 0, 0, 0, 0, 0, 0, 0, 0, 0, 0, 0, 0, 0, 2, 0, 0, 0, 1025, 670, 0, 0, 79, 171, 50, 42, 8, 42, 0, 7, 2874000, 619750, 49, 4608, 320, 674, 0, 17166468716000
22305, 1884, 216, 1668, 18940, 955, 468, 483, 52115, 9629, 197791, 95369, 263, 1003, 24233, 12, 21219, 73, 11825, 271, 11292, 80, 54152, 70498, 42404, 186470, 587, 802, 117, 175, 1501, 0, 23484, 34567, 0, 0, 58920, 1214, 1066, 552, 922, 654, 663, 181, 523, 34567, 179, 959, 2454, 3774, 9612, 12346, 11285, 9772, 17665, 61, 71464, 7629, 4051, 19278, 0, 0, 0, 11165, 442, 299, 433, 524, 502, 372, 200, 199, 66, 0, 554, 72, 178, 209, 207, 102, 94, 217, 411, 12158, 0, 7580, 205, 184, 202, 290, 316, 262, 178, 52, 0, 0, 85, 206, 98, 89, 60, 60, 54, 331, 378, 7908, 0, 1151, 2115, 3344, 2874, 1194, 558, 55, 1, 0, 15765, 25938, 8293, 8177, 4400, 498, 184, 243, 58, 0, 0, 0, 0, 0, 0, 0, 0, 0, 0, 0, 6592, 1567, 3133, 1998, 0, 0, 11, 58, 276, 510, 498, 154, 32, 0, 0, 0, 0, 0, 0, 0, 0, 0, 0, 0, 380, 180, 49, 10, 13, 47, 6, 0, 0, 0, 0, 0, 1175, 94, 44, 37, 21, 28, 16, 30, 27, 54, 34, 26, 4, 15, 12, 12, 16, 13, 13, 11, 4, 8, 6, 10, 4, 4, 5, 5, 11, 6, 3, 1, 2, 4, 2, 1, 2, 5, 2, 2, 3, 117, 372, 319, 169, 68, 5, 0, 0, 465, 168, 167, 149, 85, 56, 3, 0, 0, 46180, 35, 0, 0, 0, 0, 0, 0, 0, 0, 0, 0, 0, 0, 0, 0, 0, 0, 0, 0, 0, 0, 0, 0, 0, 8, 0, 0, 0, 13750, 8746, 0, 0, 609, 882, 1396, 1099, 278, 1097, 0, 270, 80189743, 22465500, 1399, 114496, 6848, -1, 0, 17166567611500
2096, 224, 20, 204, 1704, 108, 47, 60, 3575, 772, 23298, 9650, 153, 93, 2320, 8, 1953, 6, 1042, 52, 660, 64, 4011, 5279, 3233, 28859, 113, 41, 16, 19, 59, 0, 5709, 1616, 0, 0, 6333, 32, 55, 36, 38, 23, 18, 45, 17, 1616, 19, 54, 89, 159, 849, 1355, 975, 1273, 2289, 5, 11280, 697, 288, 1382, 1, 0, 0, 967, 29, 33, 37, 60, 59, 49, 9, 0, 0, 0, 6, 4, 9, 9, 12, 7, 2, 6, 23, 1165, 0, 690, 8, 19, 25, 39, 49, 50, 11, 0, 0, 0, 4, 9, 15, 4, 1, 1, 4, 3, 6, 844, 0, 24, 98, 200, 178, 123, 31, 5, 1, 0, 1544, 1228, 470, 307, 198, 123, 50, 5, 19, 1, 1, 1, 1, 1, 1, 1, 1, 0, 0, 0, 169, 255, 236, 298, 0, 0, 0, 4, 8, 28, 49, 20, 3, 0, 0, 0, 0, 0, 0, 0, 0, 0, 0, 0, 42, 13, 5, 1, 2, 8, 0, 0, 0, 0, 0, 0, 135, 18, 11, 11, 4, 4, 1, 4, 10, 12, 6, 4, 4, 2, 3, 3, 5, 0, 6, 1, 3, 3, 0, 1, 2, 1, 3, 0, 1, 0, 0, 0, 0, 3, 2, 1, 3, 0, 0, 0, 1, 6, 38, 36, 10, 6, 1, 0, 0, 47, 21, 13, 14, 5, 3, 0, 0, 0, 2940, 4, 0, 0, 0, 0, 0, 0, 0, 0, 0, 0, 0, 0, 0, 0, 0, 0, 0, 0, 0, 0, 0, 0, 0, 4, 0, 0, 0, 1197, 840, 0, 0, 135, 175, 115, 96, 19, 96, 0, 19, 7313000, 1239000, 121, 10368, 896, 674, 0, 17166579260500
49221, 1556, 195, 1361, 17793, 755, 262, 493, 46691, 6749, 229135, 85761, 203, 666, 50790, 11, 19189, 46, 11365, 168, 13102, 16, 51453, 64992, 41238, 630799, 366, 141, 45, 31, 898, 0, 66263, 19836, 0, 0, 94919, 276, 354, 4744, 292, 249, 151, 102, 51, 19836, 3222, 767, 1609, 2922, 82937, 6123, 6051, 6041, 10976, 44, 112597, 11960, 3119, 15698, 0, 0, 0, 9800, 173, 191, 287, 384, 331, 164, 125, 177, 1215, 0, 108, 66, 107, 115, 73, 76, 79, 132, 203, 11888, 0, 5290, 101, 131, 126, 218, 296, 218, 145, 128, 1201, 0, 41, 30, 43, 57, 73, 38, 48, 72, 167, 7285, 0, 274, 3693, 5860, 2383, 580, 281, 31, 0, 0, 17670, 15793, 9569, 2188, 943, 344, 163, 16, 5, 3, 0, 0, 0, 0, 0, 0, 0, 0, 0, 0, 6163, 2845, 4094, 4506, 0, 0, 1, 795, 78, 203, 234, 114, 8, 0, 0, 0, 0, 0, 0, 0, 0, 0, 0, 0, 221, 112, 34, 7, 15, 51, 8, 1, 0, 0, 0, 0, 2288, 66, 21, 28, 24, 14, 19, 13, 22, 30, 27, 17, 26, 16, 1486, 9, 13, 11, 6, 5, 1, 2, 7, 5, 7, 4, 6, 2, 4, 9, 2, 0, 3, 2, 1, 2, 3, 4, 3, 4, 4, 48, 293, 186, 102, 48, 6, 0, 0, 311, 138, 95, 68, 52, 26, 9, 0, 0, 42514, 27, 0, 0, 0, 0, 0, 0, 0, 0, 0, 0, 0, 0, 0, 0, 0, 0, 0, 0, 0, 0, 0, 0, 0, 5, 0, 0, 0, 12493, 7564, 0, 0, 1945, 631, 1317, 984, 325, 983, 0, 319, 70096250, 25778000, 1331, 112448, 7616, -1, 0, 17166693828000
1923, 247, 31, 216, 1673, 124, 53, 71, 3537, 566, 24214, 10257, 146, 73, 2170, 3, 1937, 4, 1038, 52, 655, 64, 3978, 5206, 3152, 28693, 113, 34, 1, 5, 57, 0, 6541, 1510, 0, 0, 5896, 26, 51, 37, 32, 25, 15, 37, 16, 1510, 19, 40, 72, 179, 896, 1153, 805, 1187, 2213, 7, 11729, 646, 275, 1307, 0, 0, 0, 928, 33, 32, 30, 53, 63, 41, 12, 0, 0, 0, 3, 5, 8, 4, 9, 14, 6, 4, 16, 1123, 0, 666, 7, 20, 20, 33, 47, 51, 29, 0, 0, 0, 6, 2, 13, 1, 0, 3, 1, 3, 5, 839, 0, 24, 97, 199, 176, 123, 30, 5, 1, 0, 1420, 1168, 567, 339, 174, 76, 20, 3, 2, 1, 2, 0, 0, 0, 0, 0, 0, 0, 0, 0, 167, 255, 233, 296, 0, 0, 1, 3, 9, 30, 39, 24, 5, 0, 0, 0, 0, 0, 0, 0, 0, 0, 0, 0, 37, 10, 6, 1, 1, 3, 0, 0, 0, 0, 0, 0, 115, 20, 12, 11, 5, 4, 1, 4, 9, 13, 5, 6, 2, 2, 4, 4, 3, 2, 3, 1, 1, 0, 2, 1, 1, 2, 1, 0, 2, 0, 0, 1, 0, 2, 3, 0, 3, 1, 1, 1, 1, 7, 30, 24, 8, 5, 1, 0, 0, 38, 12, 12, 7, 6, 3, 0, 0, 0, 2827, 4, 0, 0, 0, 0, 0, 0, 0, 0, 0, 0, 0, 0, 0, 0, 0, 0, 0, 0, 0, 0, 0, 0, 0, 4, 0, 0, 0, 1175, 841, 0, 0, 135, 165, 135, 110, 23, 110, 0, 23, 8238500, 1696750, 141, 12032, 640, 674, 0, 17166705935000
45529, 1241, 117, 1124, 16117, 797, 446, 351, 39536, 4584, 164871, 45880, 239, 404, 46772, 28, 17430, 28, 10083, 148, 11368, 0, 45081, 56395, 35355, 340504, 295, 112, 24, 14, 1467, 0, 56946, 15223, 0, 0, 83915, 85, 192, 4594, 139, 158, 72, 86, 53, 15223, 3199, 523, 1034, 2309, 80427, 4249, 3308, 4959, 8447, 33, 92662, 10651, 2507, 13171, 0, 0, 0, 8301, 143, 169, 214, 284, 237, 139, 122, 134, 1210, 0, 27, 26, 44, 41, 33, 29, 36, 85, 146, 10486, 0, 5211, 80, 85, 102, 186, 211, 149, 97, 78, 1363, 0, 31, 16, 35, 18, 30, 18, 33, 75, 108, 7198, 0, 53, 3323, 5173, 2100, 485, 207, 27, 0, 0, 15610, 11947, 8016, 1068, 559, 352, 122, 42, 27, 31, 8, 3, 3, 0, 0, 0, 0, 0, 0, 0, 5148, 2448, 3772, 4114, 0, 0, 1, 786, 62, 167, 139, 85, 5, 0, 0, 0, 0, 0, 0, 0, 0, 0, 0, 0, 151, 68, 25, 6, 5, 14, 3, 0, 0, 0, 0, 0, 2008, 57, 21, 25, 13, 7, 14, 10, 11, 29, 22, 14, 17, 9, 1493, 11, 7, 13, 8, 2, 4, 1, 8, 3, 9, 5, 3, 3, 6, 3, 2, 2, 1, 0, 5, 0, 1, 3, 2, 3, 1, 28, 181, 103, 76, 23, 4, 0, 0, 205, 81, 56, 42, 32, 12, 0, 0, 0, 35479, 22, 0, 0, 0, 0, 0, 0, 0, 0, 0, 0, 0, 0, 0, 0, 0, 0, 0, 0, 0, 0, 0, 0, 0, 2, 0, 0, 0, 10792, 7318, 0, 0, 1857, 929, 645, 520, 122, 519, 0, 120, 37930500, 8962506, 663, 60672, 4032, -1, 0, 17166788370500
1863, 236, 22, 214, 1623, 88, 34, 54, 3518, 494, 18330, 5953, 191, 58, 2099, 1, 1857, 3, 1036, 52, 651, 0, 3894, 5072, 3112, 26050, 113, 32, 4, 0, 31, 0, 5967, 1435, 0, 0, 5643, 30, 47, 28, 35, 22, 18, 36, 12, 1435, 17, 40, 79, 135, 684, 1235, 739, 1238, 2135, 8, 10244, 610, 255, 1268, 0, 0, 0, 909, 28, 22, 28, 38, 58, 47, 25, 0, 0, 0, 2, 4, 7, 11, 6, 7, 6, 1, 16, 1095, 0, 603, 8, 19, 18, 38, 47, 54, 10, 0, 0, 0, 5, 4, 13, 2, 0, 3, 1, 4, 7, 758, 0, 24, 96, 199, 174, 123, 30, 5, 0, 0, 1385, 1172, 561, 353, 151, 78, 30, 3, 7, 1, 2, 0, 0, 0, 0, 0, 0, 0, 0, 0, 166, 253, 232, 294, 0, 0, 0, 4, 9, 28, 46, 20, 2, 0, 0, 0, 0, 0, 0, 0, 0, 0, 0, 0, 31, 7, 5, 3, 1, 1, 0, 0, 0, 0, 0, 0, 100, 18, 13, 11, 5, 3, 1, 3, 6, 14, 4, 6, 2, 3, 4, 3, 3, 2, 4, 2, 1, 0, 2, 2, 1, 3, 2, 0, 1, 0, 0, 1, 1, 3, 2, 0, 2, 1, 1, 0, 1, 4, 21, 21, 8, 5, 0, 0, 0, 28, 9, 8, 9, 6, 2, 0, 0, 0, 2779, 4, 0, 0, 0, 0, 0, 0, 0, 0, 0, 0, 0, 0, 0, 0, 0, 0, 0, 0, 0, 0, 0, 0, 0, 2, 0, 0, 0, 1151, 768, 0, 0, 132, 206, 71, 56, 14, 56, 0, 14, 4574500, 1026000, 77, 4608, 896, 674, 0, 17166797535500
45814, 1252, 84, 1168, 16382, 861, 485, 375, 40594, 4325, 151863, 32000, 267, 342, 47068, 30, 17764, 28, 10333, 159, 11589, 0, 46217, 57662, 36137, 893960, 325, 95, 22, 8, 1632, 0, 58398, 15256, 0, 0, 84401, 111, 222, 4600, 145, 163, 83, 97, 49, 15256, 3194, 527, 1079, 2313, 80575, 4605, 3535, 4984, 8382, 32, 93194, 10702, 2551, 13416, 0, 0, 0, 8366, 137, 146, 213, 269, 263, 199, 117, 140, 1222, 0, 27, 20, 40, 35, 26, 18, 43, 95, 154, 10614, 0, 5260, 74, 83, 107, 174, 210, 182, 121, 78, 1367, 0, 40, 10, 34, 8, 17, 23, 28, 86, 157, 7253, 0, 70, 3375, 5241, 2134, 522, 218, 29, 0, 0, 15787, 12352, 8244, 974, 605, 402, 89, 42, 46, 26, 11, 6, 7, 3, 4, 3, 0, 0, 0, 0, 5205, 2536, 3848, 4218, 0, 0, 3, 793, 57, 177, 163, 79, 6, 0, 0, 0, 0, 0, 0, 0, 0, 0, 0, 0, 133, 55, 35, 6, 6, 12, 0, 0, 0, 0, 0, 0, 1956, 53, 22, 23, 11, 6, 14, 15, 12, 25, 24, 13, 21, 14, 1491, 12, 11, 12, 5, 5, 6, 4, 10, 4, 8, 9, 3, 2, 3, 5, 0, 1, 1, 3, 2, 1, 0, 3, 3, 1, 3, 25, 164, 96, 54, 19, 1, 0, 0, 161, 72, 43, 50, 30, 10, 0, 0, 0, 36235, 27, 0, 0, 0, 0, 0, 0, 0, 0, 0, 0, 0, 0, 0, 0, 0, 0, 0, 0, 0, 0, 0, 0, 0, 2, 0, 0, 0, 10941, 7471, 0, 0, 1874, 1200, 445, 333, 110, 333, 0, 109, 24678750, 8320249, 465, 31104, 3328, -1, 0, 17166873467000
1861, 230, 14, 216, 1647, 65, 13, 52, 3518, 530, 16635, 4947, 211, 53, 2091, 5, 1855, 3, 1036, 52, 651, 0, 3894, 5095, 3128, 25358, 113, 33, 9, 9, 14, 0, 5545, 1450, 0, 0, 5671, 23, 46, 34, 37, 22, 18, 32, 12, 1450, 19, 38, 66, 140, 645, 1300, 878, 1202, 2035, 7, 9551, 601, 254, 1282, 0, 0, 0, 917, 25, 23, 27, 43, 55, 46, 27, 0, 0, 0, 4, 5, 4, 13, 9, 11, 1, 1, 16, 1099, 0, 615, 12, 17, 19, 43, 42, 51, 7, 0, 0, 0, 4, 3, 13, 1, 0, 2, 1, 4, 7, 771, 0, 24, 96, 199, 174, 123, 30, 5, 0, 0, 1356, 1159, 553, 447, 162, 106, 26, 5, 6, 1, 2, 0, 0, 0, 0, 0, 0, 0, 0, 0, 166, 253, 232, 294, 0, 0, 0, 3, 6, 34, 39, 22, 5, 0, 0, 0, 0, 0, 0, 0, 0, 0, 0, 0, 28, 6, 7, 3, 1, 0, 0, 0, 0, 0, 0, 0, 95, 17, 13, 11, 3, 3, 1, 3, 4, 11, 6, 7, 2, 3, 7, 2, 3, 3, 4, 3, 1, 0, 2, 1, 0, 4, 2, 0, 1, 0, 0, 1, 1, 1, 3, 0, 3, 1, 1, 1, 1, 4, 20, 20, 5, 6, 1, 0, 0, 24, 8, 6, 8, 8, 4, 0, 0, 0, 2792, 4, 0, 0, 0, 0, 0, 0, 0, 0, 0, 0, 0, 0, 0, 0, 0, 0, 0, 0, 0, 0, 0, 0, 0, 2, 0, 0, 0, 1149, 775, 0, 0, 133, 233, 53, 48, 4, 48, 0, 4, 4051000, 269750, 59, 3456, 192, 674, 0, 17166881784500
45730, 1097, 83, 1014, 15871, 418, 136, 282, 40652, 3773, 137327, 22520, 296, 274, 46829, 29, 16753, 18, 10310, 149, 11727, 0, 45308, 55657, 35679, 915293, 322, 132, 70, 0, 386, 0, 57047, 14859, 0, 0, 83723, 104, 174, 4662, 184, 158, 81, 90, 41, 14859, 3190, 508, 996, 2211, 80933, 4227, 3260, 4821, 8312, 28, 88825, 10389, 2513, 13080, 0, 0, 0, 8257, 114, 124, 181, 244, 319, 178, 115, 141, 1228, 0, 16, 13, 60, 32, 25, 26, 55, 90, 149, 10435, 0, 4418, 64, 79, 100, 151, 182, 182, 106, 78, 1340, 0, 25, 16, 16, 17, 12, 45, 24, 89, 137, 6319, 0, 67, 3417, 5359, 2194, 498, 162, 30, 0, 0, 15292, 12217, 8282, 1306, 853, 372, 164, 28, 17, 21, 11, 7, 8, 3, 4, 3, 0, 0, 0, 0, 5197, 2718, 3812, 4306, 0, 1, 0, 784, 50, 152, 179, 87, 6, 0, 0, 0, 0, 0, 0, 0, 0, 0, 0, 0, 95, 47, 27, 2, 6, 11, 1, 0, 0, 0, 0, 0, 1874, 52, 22, 22, 9, 8, 11, 11, 10, 28, 17, 12, 20, 15, 1490, 15, 15, 11, 7, 6, 7, 3, 5, 5, 12, 8, 3, 1, 4, 1, 0, 4, 3, 1, 2, 4, 3, 2, 4, 2, 3, 22, 114, 78, 43, 17, 6, 0, 0, 141, 52, 33, 34, 20, 6, 0, 0, 0, 36131, 23, 0, 0, 0, 0, 0, 0, 0, 0, 0, 0, 0, 0, 0, 0, 0, 0, 0, 0, 0, 0, 0, 0, 0, 2, 0, 0, 0, 10793, 6537, 0, 0, 1863, 1069, 310, 229, 79, 229, 0, 78, 17956000, 5795249, 330, 21440, 2560, -1, 0, 17166950448000
1830, 224, 20, 204, 1642, 67, 16, 51, 3518, 443, 14969, 3233, 235, 53, 2054, 4, 1851, 2, 1036, 52, 651, 0, 3894, 5051, 3092, 25535, 113, 34, 4, 2, 31, 0, 5744, 1409, 0, 0, 5522, 21, 51, 28, 39, 21, 17, 30, 13, 1409, 18, 37, 76, 174, 745, 1128, 684, 1063, 2242, 7, 9615, 604, 253, 1264, 0, 0, 0, 904, 24, 18, 25, 42, 56, 52, 32, 0, 0, 0, 3, 4, 8, 10, 2, 10, 0, 2, 17, 1097, 0, 598, 9, 15, 20, 30, 36, 48, 34, 1, 0, 0, 3, 2, 13, 1, 0, 2, 1, 2, 5, 762, 0, 23, 97, 200, 173, 123, 30, 5, 0, 0, 1355, 1175, 564, 303, 158, 105, 30, 3, 6, 1, 2, 0, 0, 0, 0, 0, 0, 0, 0, 0, 166, 253, 232, 294, 0, 0, 0, 3, 7, 30, 47, 20, 2, 0, 0, 0, 0, 0, 0, 0, 0, 0, 0, 0, 25, 6, 4, 3, 1, 1, 0, 0, 0, 0, 0, 0, 95, 20, 13, 11, 3, 4, 0, 2, 3, 15, 4, 6, 1, 2, 4, 2, 3, 4, 4, 1, 1, 0, 2, 2, 1, 3, 3, 0, 1, 0, 0, 1, 0, 1, 3, 0, 3, 1, 1, 1, 1, 6, 19, 17, 7, 4, 1, 0, 0, 29, 6, 6, 7, 7, 2, 0, 0, 0, 2766, 4, 0, 0, 0, 0, 0, 0, 0, 0, 0, 0, 0, 0, 0, 0, 0, 0, 0, 0, 0, 0, 0, 0, 0, 2, 0, 0, 0, 1145, 765, 0, 0, 128, 227, 42, 36, 5, 36, 0, 5, 2686500, 358500, 48, 2688, 64, 674, 0, 17166957932500
45689, 1180, 67, 1113, 16912, 1316, 885, 430, 41419, 3610, 145023, 25207, 285, 250, 46869, 22, 18725, 12, 10410, 153, 11698, 0, 48409, 61099, 36608, 962889, 305, 290, 45, 145, 2588, 0, 57413, 15625, 0, 0, 83912, 101, 275, 4605, 150, 165, 109, 91, 47, 15625, 3191, 480, 1060, 2627, 80354, 3997, 3452, 5355, 8148, 35, 92711, 10635, 2567, 13903, 0, 0, 0, 8348, 117, 117, 176, 249, 271, 209, 130, 139, 1224, 0, 32, 17, 35, 40, 49, 23, 64, 126, 162, 10432, 0, 6526, 77, 79, 97, 160, 206, 229, 129, 83, 1371, 0, 39, 4, 19, 18, 17, 17, 440, 803, 170, 7430, 0, 55, 3383, 5248, 2151, 531, 289, 41, 0, 0, 15722, 12458, 8436, 1590, 833, 576, 220, 189, 44, 54, 29, 16, 16, 11, 12, 3, 0, 0, 0, 0, 5279, 2584, 3835, 4258, 0, 0, 2, 789, 78, 210, 155, 93, 8, 0, 0, 0, 0, 0, 0, 0, 0, 0, 0, 0, 101, 44, 24, 5, 7, 4, 1, 0, 0, 0, 0, 0, 1855, 51, 21, 25, 10, 6, 11, 11, 9, 29, 21, 15, 14, 10, 1488, 12, 12, 14, 8, 5, 4, 3, 4, 0, 12, 7, 1, 3, 10, 3, 1, 2, 1, 3, 3, 2, 1, 5, 4, 1, 2, 17, 109, 64, 51, 19, 3, 0, 0, 123, 49, 35, 32, 19, 9, 0, 0, 0, 36699, 33, 0, 0, 0, 0, 0, 0, 0, 0, 0, 0, 0, 0, 0, 0, 0, 0, 0, 0, 0, 0, 0, 0, 0, 2, 0, 0, 0, 10879, 8817, 0, 0, 1848, 1259, 352, 270, 79, 270, 0, 78, 20017500, 5954253, 372, 43264, 4800, -1, 0, 17167030444000
1884, 220, 19, 201, 1643, 65, 11, 54, 3518, 492, 16067, 4340, 218, 51, 2104, 1, 1857, 3, 1036, 52, 651, 0, 3894, 5075, 3108, 25484, 113, 34, 4, 5, 11, 0, 5827, 1448, 0, 0, 5668, 28, 48, 32, 39, 20, 21, 35, 14, 1448, 16, 38, 69, 134, 752, 1341, 771, 1194, 2018, 10, 9609, 576, 260, 1282, 0, 0, 0, 919, 26, 16, 25, 33, 59, 51, 26, 0, 0, 0, 3, 4, 10, 13, 2, 11, 2, 0, 17, 1093, 0, 611, 10, 18, 20, 40, 33, 62, 12, 0, 0, 0, 4, 4, 13, 1, 0, 2, 1, 2, 7, 772, 0, 23, 97, 200, 173, 123, 30, 5, 0, 0, 1357, 1209, 554, 358, 154, 78, 28, 1, 1, 1, 2, 0, 0, 0, 0, 0, 0, 0, 0, 0, 166, 253, 232, 294, 0, 0, 0, 3, 6, 33, 34, 30, 3, 0, 0, 0, 0, 0, 0, 0, 0, 0, 0, 0, 25, 6, 6, 1, 1, 1, 0, 0, 0, 0, 0, 0, 94, 18, 13, 11, 5, 3, 0, 3, 3, 11, 4, 8, 1, 2, 5, 2, 3, 3, 5, 2, 1, 0, 2, 2, 1, 5, 2, 1, 1, 1, 0, 0, 1, 2, 3, 0, 3, 1, 1, 1, 1, 4, 17, 21, 7, 4, 0, 0, 0, 26, 6, 7, 5, 9, 3, 0, 0, 0, 2783, 4, 0, 0, 0, 0, 0, 0, 0, 0, 0, 0, 0, 0, 0, 0, 0, 0, 0, 0, 0, 0, 0, 0, 0, 2, 0, 0, 0, 1143, 776, 0, 0, 133, 211, 53, 45, 8, 45, 0, 8, 3518250, 529000, 59, 5376, 192, 674, 0, 17167038477500
45432, 1057, 64, 993, 15813, 422, 131, 290, 40647, 3305, 133513, 20424, 304, 218, 46489, 23, 16686, 14, 10304, 147, 11691, 0, 45342, 55496, 35571, 644436, 322, 156, 58, 3, 308, 0, 57388, 14591, 0, 0, 82710, 108, 179, 4669, 162, 152, 76, 95, 40, 14591, 3192, 510, 995, 2131, 81030, 4036, 3047, 4780, 7644, 33, 87392, 10248, 2498, 12951, 0, 0, 0, 8185, 95, 116, 167, 231, 300, 199, 121, 137, 1228, 0, 15, 13, 61, 33, 20, 15, 55, 84, 153, 10330, 0, 4377, 59, 81, 85, 138, 175, 179, 117, 95, 1339, 0, 18, 11, 19, 10, 8, 34, 22, 73, 143, 6307, 0, 68, 3408, 5339, 2174, 506, 166, 30, 0, 0, 15110, 12080, 8294, 1281, 814, 368, 164, 36, 69, 29, 11, 7, 8, 3, 4, 3, 0, 0, 0, 0, 5193, 2690, 3808, 4294, 0, 1, 0, 788, 38, 159, 165, 104, 4, 0, 0, 0, 0, 0, 0, 0, 0, 0, 0, 0, 81, 41, 23, 1, 2, 6, 1, 0, 0, 0, 0, 0, 1816, 51, 21, 22, 11, 7, 12, 11, 6, 28, 17, 13, 18, 15, 1487, 15, 14, 14, 6, 7, 7, 2, 4, 5, 10, 8, 3, 1, 6, 6, 1, 4, 3, 1, 2, 5, 1, 2, 2, 1, 4, 20, 82, 67, 32, 18, 4, 0, 0, 108, 41, 33, 30, 13, 3, 0, 0, 0, 35903, 28, 0, 0, 0, 0, 0, 0, 0, 0, 0, 0, 0, 0, 0, 0, 0, 0, 0, 0, 0, 0, 0, 0, 0, 2, 0, 0, 0, 10700, 6520, 0, 0, 1857, 1081, 269, 201, 65, 200, 0, 65, 15896000, 5501999, 288, 33088, 3712, -1, 0, 17167105234000
1887, 221, 15, 206, 1645, 69, 17, 52, 3518, 468, 14678, 2702, 239, 54, 2108, 5, 1854, 2, 1036, 52, 651, 0, 3894, 5078, 3109, 25900, 113, 37, 8, 31, 31, 0, 5725, 1453, 0, 0, 5702, 22, 51, 33, 35, 23, 19, 33, 12, 1453, 19, 45, 72, 150, 793, 1186, 733, 1264, 2100, 6, 9855, 590, 252, 1279, 0, 0, 0, 917, 25, 19, 27, 44, 55, 50, 29, 0, 0, 0, 3, 4, 6, 11, 6, 13, 0, 2, 15, 1106, 0, 597, 9, 12, 16, 28, 31, 40, 40, 17, 0, 0, 3, 2, 13, 0, 0, 2, 1, 2, 3, 764, 0, 23, 97, 200, 173, 123, 30, 5, 0, 0, 1330, 1171, 545, 441, 181, 105, 30, 3, 6, 1, 2, 0, 0, 0, 0, 0, 0, 0, 0, 0, 166, 253, 232, 294, 0, 0, 1, 0, 11, 34, 34, 26, 3, 0, 0, 0, 0, 0, 0, 0, 0, 0, 0, 0, 24, 4, 6, 4, 1, 1, 0, 0, 0, 0, 0, 0, 96, 18, 13, 11, 4, 3, 1, 2, 3, 13, 5, 6, 1, 4, 4, 2, 4, 3, 4, 1, 1, 0, 2, 2, 1, 3, 2, 0, 1, 0, 0, 1, 0, 1, 3, 0, 3, 1, 1, 0, 1, 4, 19, 19, 4, 7, 1, 0, 0, 30, 7, 5, 5, 7, 3, 0, 0, 0, 2774, 4, 0, 0, 0, 0, 0, 0, 0, 0, 0, 0, 0, 0, 0, 0, 0, 0, 0, 0, 0, 0, 0, 0, 0, 2, 0, 0, 0, 1153, 765, 0, 0, 128, 234, 40, 32, 8, 32, 0, 8, 2698750, 669000, 46, 4224, 320, 674, 0, 17167112573000
49446, 1901, 137, 1764, 19599, 1262, 642, 619, 48499, 6039, 208471, 59677, 232, 506, 51356, 24, 21615, 61, 12392, 250, 13058, 0, 54552, 69032, 42821, 271008, 503, 314, 70, 53, 1393, 0, 64087, 19552, 0, 0, 96128, 187, 320, 4666, 245, 228, 151, 166, 117, 19552, 3230, 577, 1567, 2981, 82113, 5760, 5087, 7717, 13150, 47, 117055, 12146, 3210, 16381, 1, 0, 1, 10299, 187, 228, 296, 430, 413, 250, 122, 139, 1221, 0, 43, 66, 69, 88, 72, 30, 86, 149, 211, 12771, 0, 6548, 131, 110, 165, 249, 297, 240, 155, 97, 1370, 0, 72, 5, 50, 26, 20, 53, 46, 84, 145, 8861, 0, 128, 3661, 5685, 2487, 754, 306, 36, 1, 0, 18870, 14826, 9562, 1755, 1099, 650, 147, 34, 47, 22, 6, 6, 8, 3, 4, 3, 0, 0, 0, 0, 5719, 3087, 4252, 4856, 0, 1, 2, 790, 80, 232, 255, 144, 12, 0, 0, 0, 0, 0, 0, 0, 0, 0, 0, 0, 184, 73, 48, 10, 10, 26, 10, 0, 0, 0, 0, 0, 2165, 78, 31, 33, 19, 12, 12, 26, 13, 37, 37, 17, 19, 15, 1494, 20, 11, 21, 11, 12, 9, 7, 8, 4, 12, 9, 10, 1, 8, 7, 2, 4, 1, 3, 0, 4, 2, 4, 3, 3, 4, 33, 237, 135, 79, 39, 7, 0, 0, 243, 96, 73, 69, 38, 26, 1, 0, 0, 42873, 35, 0, 0, 0, 0, 0, 0, 0, 0, 0, 0, 0, 0, 0, 0, 0, 0, 0, 0, 0, 0, 0, 0, 0, 2, 0, 0, 0, 13347, 9088, 0, 0, 2033, 1622, 901, 645, 243, 645, 0, 242, 49152000, 19549499, 922, 85504, 8320, -1, 0, 17167216808500
2071, 263, 29, 234, 1708, 99, 36, 63, 3725, 695, 22647, 8223, 164, 72, 2335, 5, 1964, 7, 1088, 54, 687, 0, 4123, 5452, 3331, 29096, 120, 30, 13, 31, 13, 0, 7289, 1686, 0, 0, 6309, 28, 48, 32, 40, 28, 21, 34, 14, 1686, 17, 51, 78, 161, 908, 1315, 870, 1284, 2335, 8, 12051, 688, 285, 1400, 0, 0, 0, 993, 31, 31, 55, 47, 67, 45, 0, 0, 0, 0, 2, 4, 4, 12, 21, 4, 9, 1, 21, 1191, 0, 685, 12, 24, 24, 39, 49, 36, 17, 0, 0, 0, 4, 0, 17, 0, 0, 3, 2, 8, 7, 845, 0, 26, 102, 215, 176, 126, 37, 5, 0, 0, 1488, 1292, 580, 436, 159, 97, 52, 6, 5, 5, 2, 0, 0, 0, 0, 0, 0, 0, 0, 0, 179, 267, 241, 302, 0, 0, 0, 3, 13, 22, 42, 30, 5, 0, 0, 0, 0, 0, 0, 0, 0, 0, 0, 0, 26, 14, 8, 2, 2, 0, 0, 0, 0, 0, 0, 0, 117, 20, 16, 12, 4, 3, 0, 4, 4, 14, 9, 4, 4, 1, 4, 2, 3, 2, 2, 0, 2, 1, 2, 3, 2, 4, 1, 1, 1, 0, 0, 0, 1, 2, 1, 1, 2, 1, 1, 1, 1, 4, 32, 24, 9, 7, 0, 0, 0, 40, 11, 6, 11, 7, 4, 0, 0, 0, 3009, 4, 0, 0, 0, 0, 0, 0, 0, 0, 0, 0, 0, 0, 0, 0, 0, 0, 0, 0, 0, 0, 0, 0, 0, 2, 0, 0, 0, 1242, 826, 0, 0, 141, 193, 125, 107, 18, 107, 0, 18, 7792000, 1556250, 131, 10816, 1088, 674, 0, 17167228132000
133413, 2903, 238, 2665, 43850, 1073, 347, 726, 113882, 10629, 411037, 88822, 277, 743, 136321, 51, 46135, 42, 28365, 453, 33669, 0, 126987, 155330, 100014, 656817, 857, 431, 95, 12, 1503, 0, 160251, 41507, 0, 0, 239476, 270, 512, 13878, 417, 369, 200, 258, 134, 41507, 9527, 1444, 3185, 6180, 241173, 10159, 7829, 12738, 20121, 83, 248932, 29755, 7099, 36428, 1, 0, 0, 22731, 295, 332, 476, 675, 733, 492, 334, 405, 3626, 0, 64, 42, 144, 152, 82, 79, 176, 265, 438, 28657, 0, 11845, 172, 221, 241, 398, 529, 480, 440, 549, 3509, 0, 75, 37, 56, 34, 42, 66, 49, 189, 413, 17423, 0, 163, 9977, 15622, 6193, 1237, 407, 70, 0, 0, 42985, 33841, 23938, 2416, 2140, 843, 410, 77, 26, 40, 12, 7, 8, 0, 0, 0, 0, 0, 0, 0, 15236, 7382, 11051, 12320, 0, 1, 0, 2352, 153, 374, 432, 204, 12, 0, 0, 0, 0, 0, 0, 0, 0, 0, 0, 0, 262, 121, 48, 13, 10, 33, 6, 2, 0, 0, 0, 0, 5456, 136, 56, 63, 35, 22, 24, 32, 27, 66, 37, 32, 38, 36, 4453, 54, 28, 34, 18, 16, 16, 9, 13, 11, 23, 16, 8, 10, 16, 5, 5, 7, 6, 1, 3, 7, 3, 4, 7, 2, 7, 61, 307, 225, 117, 47, 19, 0, 0, 401, 140, 98, 77, 51, 22, 4, 0, 0, 102102, 75, 0, 0, 0, 0, 0, 0, 0, 0, 0, 0, 0, 0, 0, 0, 0, 0, 0, 0, 0, 0, 0, 0, 0, 2, 0, 0, 0, 29642, 18054, 0, 0, 5398, 2340, 1231, 976, 254, 973, 0, 250, 72912000, 19859249, 1264, 128128, 11200, 0, 0, 17167433650500
2629, 426, 22, 404, 2619, 209, 84, 125, 5794, 803, 28650, 9714, 202, 97, 3055, 6, 3045, 9, 1819, 70, 939, 0, 6572, 8929, 5435, 42727, 153, 49, 20, 9, 41, 0, 7038, 2223, 0, 0, 8444, 33, 66, 57, 61, 61, 21, 45, 17, 2223, 26, 74, 184, 265, 950, 1965, 1123, 1747, 3017, 14, 15361, 1049, 367, 2159, 0, 0, 0, 1632, 41, 49, 66, 105, 100, 56, 4, 6, 0, 0, 2, 4, 6, 19, 17, 19, 18, 37, 32, 1905, 0, 983, 23, 34, 34, 53, 82, 61, 32, 7, 0, 0, 4, 3, 11, 8, 13, 7, 8, 3, 4, 1248, 0, 30, 119, 284, 232, 201, 55, 18, 0, 0, 2510, 1784, 671, 384, 452, 173, 78, 7, 6, 10, 6, 3, 4, 3, 4, 3, 0, 0, 0, 0, 266, 360, 313, 414, 0, 0, 0, 0, 15, 52, 68, 43, 3, 0, 0, 0, 0, 0, 0, 0, 0, 0, 0, 0, 35, 19, 7, 1, 0, 7, 0, 0, 0, 0, 0, 0, 146, 26, 14, 16, 8, 3, 2, 5, 2, 21, 3, 5, 3, 5, 7, 7, 2, 6, 4, 1, 3, 1, 6, 1, 2, 3, 3, 2, 1, 0, 1, 1, 1, 1, 0, 2, 0, 1, 1, 1, 2, 9, 47, 26, 6, 6, 2, 0, 0, 45, 20, 15, 8, 7, 4, 1, 0, 0, 4564, 4, 0, 0, 0, 0, 0, 0, 0, 0, 0, 0, 0, 0, 0, 0, 0, 0, 0, 0, 0, 0, 0, 0, 0, 2, 0, 0, 0, 1995, 1250, 0, 0, 175, 403, 159, 112, 47, 111, 0, 44, 8411500, 3587000, 163, 13248, 896, 674, 0, 17167447975500
82903, 2818, 260, 2558, 53086, 12341, 9373, 2771, 113400, 16315, 429050, 102683, 264, 1410, 85752, 64, 70133, 245, 32067, 854, 24515, 64, 141963, 190766, 104828, 588953, 2090, 12194, 274, 21, 40586, 0, 110323, 51858, 0, 0, 186637, 401, 1925, 5500, 1656, 1043, 914, 371, 306, 51858, 3465, 1148, 5324, 9971, 95809, 24810, 19232, 24757, 39460, 129, 249591, 22610, 7834, 46326, 2, 1, 0, 27262, 647, 548, 846, 1214, 1205, 917, 591, 594, 2093, 0, 188, 102, 440, 549, 386, 381, 366, 610, 856, 32039, 0, 31013, 391, 452, 483, 762, 817, 626, 295, 268, 1989, 0, 168, 134, 228, 1010, 294, 229, 181, 302, 655, 33895, 0, 611, 5362, 9207, 4752, 2693, 1603, 62, 225, 0, 48440, 38009, 22660, 8053, 6400, 2166, 1489, 234, 62, 59, 34, 17, 11, 7, 8, 6, 3, 3, 0, 0, 9904, 6828, 7783, 9600, 0, 0, 44, 971, 521, 1070, 825, 442, 58, 0, 0, 0, 0, 0, 0, 0, 0, 0, 0, 0, 469, 268, 94, 18, 9, 54, 12, 0, 0, 0, 0, 0, 3439, 306, 133, 135, 61, 27, 36, 74, 75, 156, 58, 29, 36, 69, 1512, 95, 96, 70, 19, 27, 32, 36, 59, 28, 65, 12, 18, 20, 44, 46, 7, 22, 7, 25, 6, 8, 27, 6, 12, 0, 9, 70, 503, 439, 265, 158, 29, 0, 0, 788, 224, 182, 147, 111, 45, 8, 0, 3, 97701, 91, 0, 0, 0, 0, 0, 0, 0, 0, 0, 0, 0, 0, 0, 0, 0, 0, 0, 0, 0, 0, 0, 0, 0, 7, 0, 0, 0, 36670, 35928, 0, 0, 3529, 3268, 2447, 1164, 1260, 1160, 0, 1247, 88371750, 103523620, 2451, 267968, 47104, 676, 0, 17167662479500
298242, 6714, 713, 6001, 135261, 11165, 7259, 3767, 338014, 41467, 1254810, 355147, 269, 3123, 304985, 252, 154258, 380, 83992, 2733, 83387, 0, 377219, 482292, 288669, 1719657, 5975, 6990, 777, 216, 28262, 0, 382499, 130832, 0, 0, 604512, 1369, 4741, 25440, 2044, 1910, 2136, 1263, 578, 130832, 16426, 4349, 10806, 29162, 423752, 48885, 48800, 65580, 104745, 365, 688314, 69840, 21769, 119732, 1, 1, 2, 71725, 1480, 1426, 2120, 2941, 2849, 2152, 956, 851, 6485, 0, 655, 517, 773, 792, 707, 640, 1080, 1299, 2398, 84124, 0, 53435, 987, 1011, 1224, 1899, 2080, 1643, 813, 756, 6805, 0, 366, 132, 333, 915, 510, 414, 633, 1179, 1935, 64236, 0, 1396, 20924, 34338, 16921, 6522, 3008, 212, 66, 0, 125555, 107072, 70773, 18530, 14595, 4518, 2277, 529, 409, 154, 102, 119, 31, 19, 20, 15, 3, 3, 0, 0, 33674, 23088, 26625, 33522, 0, 2, 42, 4104, 765, 1990, 2143, 1431, 97, 0, 0, 0, 0, 0, 0, 0, 0, 0, 0, 0, 1136, 595, 215, 41, 32, 223, 26, 3, 0, 0, 0, 0, 11936, 771, 321, 384, 321, 216, 66, 218, 171, 321, 163, 103, 110, 107, 7487, 163, 262, 227, 104, 131, 149, 103, 119, 45, 133, 91, 62, 44, 81, 55, 20, 71, 58, 43, 30, 24, 19, 20, 14, 22, 97, 205, 1209, 939, 618, 213, 52, 0, 0, 1660, 520, 403, 394, 274, 124, 19, 0, 5, 293822, 175, 0, 0, 0, 0, 0, 0, 0, 0, 0, 0, 0, 0, 0, 0, 0, 0, 0, 0, 0, 0, 0, 0, 0, 4, 0, 0, 0, 91894, 68644, 0, 0, 12998, 4648, 5746, 3850, 1856, 3845, 0, 1826, 291075765, 147210951, 5824, 567744, 118016, 0, 0, 17168289884500
2744, 491, 48, 443, 2624, 246, 86, 160, 5794, 1056, 50629, 27775, 114, 120, 3235, 4, 3114, 13, 1819, 70, 939, 0, 6576, 9077, 5523, 56366, 153, 30, 12, 3, 11, 0, 8722, 2339, 0, 0, 9032, 33, 64, 51, 61, 72, 18, 46, 19, 2339, 33, 84, 187, 360, 1012, 1851, 1372, 1729, 3330, 12, 19087, 1205, 384, 2178, 0, 0, 0, 1652, 62, 60, 69, 104, 107, 38, 7, 16, 0, 0, 4, 9, 15, 19, 19, 33, 8, 15, 10, 1983, 0, 1005, 28, 36, 33, 70, 82, 65, 32, 4, 0, 0, 10, 4, 6, 18, 11, 9, 4, 5, 5, 1283, 0, 30, 119, 284, 232, 201, 55, 18, 0, 0, 2727, 1727, 644, 429, 321, 156, 71, 5, 4, 8, 2, 0, 0, 0, 0, 0, 0, 0, 0, 0, 266, 360, 313, 414, 0, 0, 1, 2, 15, 49, 69, 44, 2, 0, 0, 0, 0, 0, 0, 0, 0, 0, 0, 0, 49, 18, 6, 3, 0, 4, 1, 1, 0, 0, 0, 0, 178, 29, 13, 14, 10, 2, 0, 8, 2, 18, 7, 5, 4, 3, 9, 7, 4, 4, 2, 1, 2, 2, 6, 1, 1, 2, 4, 3, 1, 0, 0, 1, 2, 0, 1, 0, 0, 1, 2, 1, 1, 11, 55, 32, 11, 4, 2, 0, 0, 53, 27, 20, 5, 13, 4, 0, 0, 0, 4651, 4, 0, 0, 0, 0, 0, 0, 0, 0, 0, 0, 0, 0, 0, 0, 0, 0, 0, 0, 0, 0, 0, 0, 0, 2, 0, 0, 0, 2046, 1284, 0, 0, 174, 240, 394, 302, 88, 301, 0, 82, 22907500, 7562000, 395, 30976, 6720, 676, 0, 17168315199000
41532, 472, 30, 442, 12065, 171, 59, 111, 31813, 2363, 101656, 14644, 312, 97, 42005, 16, 12420, 5, 7783, 62, 10137, 0, 35670, 42630, 27853, 188272, 125, 58, 11, 21, 301, 0, 47210, 11355, 0, 0, 70074, 68, 83, 4545, 66, 64, 30, 48, 23, 11355, 3141, 389, 728, 1674, 79131, 1495, 1332, 1982, 3550, 19, 66453, 8795, 1943, 9820, 0, 0, 0, 6064, 52, 49, 75, 110, 139, 121, 91, 129, 1222, 0, 4, 2, 17, 17, 28, 10, 38, 66, 131, 7739, 0, 2964, 22, 30, 30, 59, 89, 107, 83, 76, 1343, 0, 9, 0, 11, 2, 18, 10, 14, 54, 229, 4456, 0, 24, 3149, 4854, 1813, 209, 76, 12, 0, 0, 11837, 9402, 7038, 409, 165, 58, 25, 15, 5, 4, 3, 0, 0, 0, 0, 0, 0, 0, 0, 0, 4760, 2019, 3358, 3588, 0, 0, 2, 784, 38, 79, 53, 32, 0, 0, 0, 0, 0, 0, 0, 0, 0, 0, 0, 0, 42, 13, 7, 2, 0, 2, 1, 0, 0, 0, 0, 0, 1636, 13, 10, 9, 6, 3, 4, 7, 5, 10, 3, 4, 8, 6, 1481, 10, 4, 12, 3, 2, 1, 1, 1, 3, 3, 4, 1, 2, 4, 2, 2, 1, 0, 0, 1, 0, 0, 0, 0, 0, 2, 4, 42, 35, 11, 5, 2, 0, 0, 57, 17, 15, 7, 4, 4, 0, 0, 0, 28905, 18, 0, 0, 0, 0, 0, 0, 0, 0, 0, 0, 0, 0, 0, 0, 0, 0, 0, 0, 0, 0, 0, 0, 0, 2, 0, 0, 0, 7994, 4742, 0, 0, 1631, 412, 179, 144, 34, 144, 0, 34, 11043500, 2894750, 187, 23808, 3520, 0, 0, 17168366027000
2547, 385, 24, 361, 2678, 126, 34, 92, 5794, 698, 22291, 6689, 259, 68, 2932, 3, 3027, 7, 1819, 70, 939, 0, 6577, 8854, 5367, 35349, 153, 33, 14, 2, 53, 0, 5244, 2137, 0, 0, 8153, 26, 69, 45, 62, 70, 20, 49, 19, 2137, 22, 65, 145, 204, 1027, 1829, 1100, 1740, 2913, 13, 12065, 1066, 380, 2091, 0, 0, 0, 1611, 46, 49, 54, 85, 105, 55, 17, 8, 0, 0, 1, 6, 6, 12, 14, 25, 17, 26, 36, 1887, 0, 975, 20, 31, 26, 51, 74, 77, 40, 4, 0, 0, 5, 3, 6, 8, 17, 7, 4, 2, 4, 1242, 0, 30, 119, 284, 232, 201, 55, 18, 0, 0, 2584, 1688, 663, 380, 421, 177, 72, 3, 2, 6, 2, 0, 0, 0, 0, 0, 0, 0, 0, 0, 266, 360, 313, 414, 0, 0, 0, 2, 11, 48, 59, 56, 5, 0, 0, 0, 0, 0, 0, 0, 0, 0, 0, 0, 24, 19, 5, 2, 0, 0, 0, 0, 0, 0, 0, 0, 118, 28, 16, 15, 6, 3, 1, 4, 4, 21, 5, 6, 0, 5, 5, 7, 5, 5, 5, 1, 4, 2, 3, 0, 3, 3, 2, 2, 1, 0, 1, 4, 0, 1, 1, 0, 0, 0, 2, 0, 1, 5, 33, 19, 7, 3, 2, 0, 0, 27, 16, 12, 7, 5, 3, 0, 0, 0, 4485, 4, 0, 0, 0, 0, 0, 0, 0, 0, 0, 0, 0, 0, 0, 0, 0, 0, 0, 0, 0, 0, 0, 0, 0, 2, 0, 0, 0, 1976, 1254, 0, 0, 172, 402, 72, 64, 8, 64, 0, 8, 5267500, 527750, 80, 7168, 896, 676, 0, 17168377172500
57287, 599, 38, 561, 27347, 318, 142, 176, 70279, 4944, 145295, 16901, 483, 280, 57888, 42, 28960, 14, 17927, 334, 16441, 0, 73730, 94757, 57294, 266325, 740, 1309, 218, 84, 1325, 0, 57086, 22804, 0, 0, 115735, 172, 233, 5371, 475, 401, 197, 253, 374, 22804, 3232, 691, 1181, 5783, 82404, 14487, 10360, 10888, 14478, 53, 88338, 13969, 3623, 22463, 0, 0, 0, 15520, 171, 237, 194, 333, 371, 476, 227, 152, 1281, 0, 36, 3, 381, 56, 69, 83, 147, 227, 490, 17470, 0, 7886, 150, 198, 209, 318, 327, 288, 205, 241, 1132, 0, 102, 1, 23, 23, 23, 83, 35, 369, 287, 10008, 0, 183, 4062, 6678, 3602, 1290, 588, 38, 0, 0, 21436, 26477, 14052, 4373, 2351, 1959, 130, 18, 9, 9, 8, 4, 4, 0, 0, 0, 0, 0, 0, 0, 6642, 4920, 4879, 6826, 0, 0, 4, 797, 120, 433, 408, 303, 5, 0, 0, 0, 0, 0, 0, 0, 0, 0, 0, 0, 121, 43, 15, 29, 1, 1, 0, 2, 0, 0, 0, 0, 1920, 27, 41, 44, 1, 4, 11, 67, 12, 17, 8, 7, 10, 39, 1481, 16, 19, 21, 40, 2, 5, 2, 7, 29, 8, 31, 33, 2, 4, 2, 24, 10, 0, 10, 0, 1, 0, 1, 0, 1, 4, 47, 103, 128, 29, 9, 2, 0, 0, 182, 26, 29, 35, 44, 4, 0, 0, 0, 57179, 49, 0, 0, 0, 0, 0, 0, 0, 0, 0, 0, 0, 0, 0, 0, 0, 0, 0, 0, 0, 0, 0, 0, 0, 2, 0, 0, 0, 18845, 10724, 0, 0, 2043, 613, 229, 163, 65, 163, 0, 64, 13243250, 5586250, 236, 33344, 14976, 0, 0, 17168449820000
4175, 494, 30, 464, 3670, 233, 50, 183, 9740, 1075, 43119, 14608, 225, 115, 4670, 6, 4320, 13, 2583, 179, 1621, 0, 10411, 13829, 8437, 50993, 295, 153, 16, 1, 34, 0, 8592, 3290, 0, 0, 12884, 38, 108, 86, 99, 79, 38, 55, 25, 3290, 39, 110, 225, 741, 1110, 2292, 3780, 2365, 3624, 15, 23056, 1460, 540, 3454, 0, 0, 0, 2260, 56, 56, 84, 113, 133, 81, 36, 58, 0, 0, 13, 9, 11, 19, 6, 11, 4, 11, 8, 2785, 0, 1345, 87, 75, 69, 84, 89, 77, 28, 18, 0, 0, 18, 4, 6, 6, 67, 2, 6, 3, 6, 1754, 0, 105, 231, 443, 405, 320, 99, 18, 0, 0, 3629, 3382, 1377, 489, 597, 225, 131, 6, 35, 5, 5, 3, 3, 4, 4, 0, 0, 0, 0, 0, 496, 628, 497, 782, 0, 0, 0, 0, 24, 57, 113, 80, 16, 0, 0, 0, 0, 0, 0, 0, 0, 0, 0, 0, 46, 30, 7, 3, 0, 8, 1, 0, 0, 0, 0, 0, 169, 34, 15, 15, 8, 3, 2, 7, 5, 19, 10, 12, 3, 8, 40, 5, 5, 6, 2, 2, 30, 4, 5, 0, 4, 3, 2, 2, 3, 0, 0, 4, 2, 1, 1, 1, 0, 0, 5, 0, 0, 8, 52, 34, 17, 9, 2, 0, 0, 40, 22, 28, 13, 13, 7, 0, 0, 0, 7718, 41, 0, 0, 0, 0, 0, 0, 0, 0, 0, 0, 0, 0, 0, 0, 0, 0, 0, 0, 0, 0, 0, 0, 0, 2, 0, 0, 0, 2804, 1805, 0, 0, 270, 471, 209, 137, 72, 137, 0, 70, 11305750, 5826750, 215, 30272, 120512, 676, 0, 17168520300000
73414, 1411, 126, 1285, 43863, 1591, 996, 591, 110018, 9576, 262478, 70968, 419, 679, 74828, 45, 48164, 47, 27386, 502, 21363, 0, 117073, 157743, 91695, 389094, 1112, 2350, 372, 293, 6218, 0, 67978, 36120, 0, 0, 166280, 786, 741, 5587, 854, 592, 403, 459, 411, 36120, 3380, 1704, 3294, 6928, 87580, 19641, 20215, 21511, 33893, 120, 127868, 21473, 6113, 36054, 0, 0, 0, 23752, 417, 337, 446, 739, 676, 861, 432, 439, 1530, 0, 81, 69, 117, 110, 162, 215, 312, 520, 711, 27332, 0, 15961, 296, 400, 350, 548, 641, 671, 415, 310, 1198, 0, 135, 1020, 68, 131, 209, 123, 231, 811, 225, 17837, 0, 363, 4801, 7683, 5189, 2220, 976, 92, 33, 0, 39665, 37472, 21156, 8512, 3954, 2018, 356, 62, 40, 40, 38, 87, 4, 0, 0, 0, 0, 0, 0, 0, 8266, 6977, 6120, 8822, 0, 0, 5, 830, 292, 734, 888, 472, 32, 0, 0, 0, 0, 0, 0, 0, 0, 0, 0, 0, 242, 96, 33, 34, 5, 27, 5, 1, 0, 0, 0, 0, 2414, 98, 58, 78, 41, 32, 15, 86, 16, 39, 25, 14, 15, 40, 1483, 20, 13, 73, 38, 9, 9, 31, 7, 32, 13, 34, 40, 6, 4, 5, 30, 13, 1, 6, 0, 1, 2, 0, 3, 3, 4, 60, 240, 218, 143, 61, 6, 0, 0, 393, 92, 69, 80, 90, 17, 1, 0, 0, 88291, 56, 0, 0, 0, 0, 0, 0, 0, 0, 0, 0, 0, 0, 0, 0, 0, 0, 0, 0, 0, 0, 0, 0, 0, 2, 0, 0, 0, 29451, 20244, 0, 0, 2445, 926, 1075, 759, 310, 758, 0, 306, 56499766, 24468491, 1077, 105856, 29312, 0, 0, 17168651539000
46419, 866, 64, 802, 16119, 511, 156, 354, 43225, 3343, 141960, 24009, 304, 184, 47286, 23, 17274, 13, 11008, 243, 11951, 0, 47743, 58448, 38011, 234271, 431, 299, 40, 5, 325, 0, 58128, 14889, 0, 0, 84417, 117, 161, 4662, 214, 158, 101, 88, 74, 14889, 3191, 523, 1027, 2307, 80238, 6184, 4891, 4142, 7002, 23, 91318, 10391, 2546, 13694, 0, 0, 0, 8968, 101, 95, 173, 219, 282, 181, 132, 185, 1221, 0, 11, 17, 29, 45, 31, 40, 54, 120, 159, 11051, 0, 4061, 109, 94, 103, 135, 214, 179, 182, 155, 1234, 0, 19, 3, 26, 13, 71, 14, 9, 39, 55, 6217, 0, 149, 3374, 5376, 2244, 578, 193, 37, 0, 0, 15444, 13634, 8612, 1166, 969, 706, 305, 36, 72, 13, 8, 6, 8, 6, 8, 6, 0, 0, 0, 0, 5381, 2636, 3934, 4424, 0, 0, 1, 780, 49, 126, 189, 162, 14, 0, 0, 0, 0, 0, 0, 0, 0, 0, 0, 0, 75, 35, 23, 2, 4, 7, 2, 1, 0, 0, 0, 0, 1794, 60, 30, 29, 17, 5, 7, 16, 7, 34, 8, 19, 8, 7, 1516, 18, 11, 17, 9, 6, 31, 5, 9, 0, 11, 8, 3, 0, 2, 1, 2, 7, 2, 0, 4, 1, 3, 2, 5, 1, 1, 17, 77, 46, 29, 22, 5, 0, 0, 70, 39, 32, 21, 20, 16, 1, 0, 0, 37799, 57, 0, 0, 0, 0, 0, 0, 0, 0, 0, 0, 0, 0, 0, 0, 0, 0, 0, 0, 0, 0, 0, 0, 0, 2, 0, 0, 0, 11451, 6364, 0, 0, 1928, 862, 360, 243, 114, 239, 0, 111, 19235281, 9292513, 377, 51072, 118208, 676, 0, 17168766665000
258732, 3663, 223, 3440, 110313, 5442, 3722, 1718, 277262, 23181, 728973, 109023, 380, 1301, 262402, 148, 120941, 109, 69909, 1226, 69940, 0, 305140, 389348, 235159, 1257852, 2870, 5771, 703, 260, 16852, 0, 286236, 97054, 0, 0, 499423, 884, 1813, 24592, 1620, 1308, 873, 900, 754, 97054, 16101, 3712, 5735, 19091, 406882, 38843, 37913, 41043, 62095, 216, 452036, 60518, 15851, 91537, 2, 0, 0, 58507, 803, 783, 947, 1544, 1591, 1737, 940, 861, 6432, 0, 162, 102, 532, 229, 284, 324, 593, 1101, 1467, 69351, 0, 37826, 586, 718, 747, 1088, 1311, 1296, 776, 780, 6519, 0, 233, 26, 124, 214, 388, 262, 298, 1339, 777, 47986, 0, 939, 18653, 29554, 13837, 4615, 2098, 180, 64, 0, 94699, 93157, 58292, 13383, 8541, 4585, 924, 233, 201, 122, 97, 183, 45, 28, 33, 24, 3, 3, 0, 0, 29479, 18649, 21812, 27218, 0, 0, 10, 3985, 505, 1545, 1526, 845, 81, 0, 0, 0, 0, 0, 0, 0, 0, 0, 0, 0, 443, 252, 124, 27, 13, 40, 6, 0, 1, 0, 0, 0, 9392, 277, 157, 199, 184, 82, 42, 181, 53, 119, 68, 73, 48, 81, 7439, 78, 65, 164, 82, 31, 50, 71, 28, 62, 47, 78, 72, 13, 18, 11, 45, 38, 6, 25, 9, 7, 6, 9, 12, 14, 11, 123, 434, 456, 245, 86, 26, 0, 0, 685, 198, 142, 165, 166, 50, 1, 0, 1, 234825, 169, 0, 0, 0, 0, 0, 0, 0, 0, 0, 0, 0, 0, 0, 0, 0, 0, 0, 0, 0, 0, 0, 0, 0, 2, 0, 0, 0, 73775, 50596, 0, 0, 10069, 3971, 1569, 1029, 532, 1028, 0, 525, 85812750, 45753717, 1638, 214528, 133120, 0, 0, 17169131151500
3910, 531, 42, 489, 3457, 318, 109, 209, 9201, 955, 49213, 17168, 186, 101, 4441, 5, 4134, 11, 2492, 160, 1526, 0, 9900, 13097, 7994, 55467, 271, 181, 19, 2, 11, 0, 11819, 3075, 0, 0, 12117, 33, 96, 93, 96, 78, 41, 46, 26, 3075, 36, 98, 203, 695, 1069, 2260, 3359, 2132, 3623, 15, 26860, 1434, 538, 3211, 0, 1, 0, 2164, 56, 52, 78, 114, 141, 85, 33, 44, 0, 0, 8, 6, 12, 16, 13, 22, 6, 17, 15, 2652, 0, 1266, 72, 68, 63, 66, 98, 84, 29, 25, 0, 0, 10, 2, 6, 9, 55, 10, 3, 5, 7, 1664, 0, 94, 216, 419, 382, 303, 94, 18, 0, 0, 3467, 3196, 1096, 450, 499, 197, 164, 8, 37, 5, 6, 3, 4, 3, 4, 3, 0, 0, 0, 0, 464, 591, 471, 728, 0, 0, 0, 2, 21, 56, 96, 92, 9, 0, 0, 0, 0, 0, 0, 0, 0, 0, 0, 0, 39, 21, 9, 1, 1, 4, 3, 1, 0, 0, 0, 0, 155, 33, 18, 14, 7, 3, 1, 6, 3, 21, 6, 10, 2, 4, 16, 40, 6, 7, 6, 2, 12, 4, 4, 2, 2, 4, 1, 1, 2, 0, 0, 3, 1, 2, 0, 0, 1, 1, 2, 3, 1, 10, 45, 26, 9, 11, 3, 0, 0, 38, 17, 21, 13, 8, 8, 0, 0, 0, 7228, 36, 0, 0, 0, 0, 0, 0, 0, 0, 0, 0, 0, 0, 0, 0, 0, 0, 0, 0, 0, 0, 0, 0, 0, 2, 0, 0, 0, 2701, 1705, 0, 0, 251, 456, 273, 173, 100, 172, 0, 95, 14217750, 8942250, 275, 32512, 101248, 676, 0, 17169194127500
62096, 874, 65, 809, 31920, 492, 217, 267, 81130, 6824, 169814, 26962, 477, 378, 62976, 42, 34290, 10, 20164, 393, 18189, 0, 84849, 110608, 65818, 298498, 893, 1362, 332, 90, 1792, 0, 58812, 26615, 0, 0, 130463, 221, 536, 5439, 577, 426, 337, 376, 289, 26615, 3289, 974, 1399, 6389, 84390, 11773, 14667, 15346, 21332, 83, 96746, 15279, 4338, 26487, 0, 0, 0, 17412, 252, 263, 268, 524, 468, 673, 287, 168, 1245, 0, 67, 34, 329, 87, 96, 118, 223, 451, 490, 19665, 0, 10582, 233, 243, 274, 403, 444, 404, 192, 216, 1093, 0, 88, 7, 25, 136, 148, 88, 148, 667, 178, 12599, 0, 330, 4382, 7061, 3962, 1675, 738, 41, 0, 0, 24476, 29805, 17262, 5072, 3181, 1470, 358, 37, 29, 27, 27, 78, 0, 0, 0, 0, 0, 0, 0, 0, 7042, 5764, 5383, 7580, 0, 0, 4, 815, 188, 500, 558, 304, 15, 0, 0, 0, 0, 0, 0, 0, 0, 0, 0, 0, 115, 80, 50, 1, 3, 8, 3, 0, 0, 0, 0, 0, 2041, 68, 42, 64, 33, 32, 11, 70, 12, 25, 10, 14, 10, 35, 1485, 12, 19, 53, 33, 4, 4, 26, 2, 26, 6, 33, 31, 3, 3, 3, 27, 15, 1, 7, 1, 1, 0, 0, 1, 0, 3, 44, 124, 138, 67, 24, 4, 0, 0, 204, 39, 34, 50, 73, 10, 2, 0, 0, 65932, 46, 0, 0, 0, 0, 0, 0, 0, 0, 0, 0, 0, 0, 0, 0, 0, 0, 0, 0, 0, 0, 0, 0, 0, 2, 0, 0, 0, 21426, 13689, 0, 0, 2228, 802, 373, 278, 93, 277, 0, 93, 20583000, 7430500, 380, 45440, 12992, 0, 0, 17169279034500
3836, 521, 35, 486, 3527, 270, 84, 186, 9240, 878, 39432, 13495, 234, 99, 4357, 5, 4161, 7, 2503, 164, 1536, 0, 9951, 13144, 8039, 48179, 275, 155, 11, 0, 12, 0, 7665, 3020, 0, 0, 11907, 38, 100, 93, 98, 70, 37, 48, 30, 3020, 31, 111, 202, 694, 1143, 2021, 3398, 2003, 3644, 11, 20750, 1442, 531, 3213, 0, 0, 0, 2158, 54, 52, 83, 127, 144, 69, 34, 44, 0, 0, 10, 9, 8, 26, 2, 12, 8, 10, 6, 2674, 0, 1278, 73, 69, 65, 69, 91, 86, 32, 23, 0, 0, 11, 2, 2, 11, 54, 5, 2, 2, 5, 1692, 0, 94, 216, 424, 385, 306, 93, 18, 0, 0, 3578, 3078, 1140, 464, 463, 140, 136, 6, 35, 5, 5, 3, 4, 3, 4, 3, 0, 0, 0, 0, 466, 592, 478, 732, 0, 0, 0, 0, 25, 55, 87, 92, 18, 0, 0, 0, 0, 0, 0, 0, 0, 0, 0, 0, 40, 23, 12, 2, 0, 1, 0, 0, 0, 0, 0, 0, 151, 33, 15, 15, 9, 4, 4, 5, 1, 24, 5, 11, 3, 6, 17, 39, 10, 7, 3, 1, 10, 2, 6, 1, 3, 6, 2, 0, 1, 0, 1, 3, 0, 1, 1, 0, 0, 0, 3, 1, 0, 9, 44, 28, 14, 8, 1, 0, 0, 40, 19, 21, 8, 13, 5, 0, 0, 0, 7261, 36, 0, 0, 0, 0, 0, 0, 0, 0, 0, 0, 0, 0, 0, 0, 0, 0, 0, 0, 0, 0, 0, 0, 0, 2, 0, 0, 0, 2701, 1727, 0, 0, 258, 534, 163, 119, 44, 118, 0, 42, 9894266, 3241750, 168, 19968, 104384, 676, 0, 17169317209500
73338, 1481, 135, 1346, 40107, 1914, 1259, 653, 103791, 9722, 260329, 54625, 398, 650, 74831, 68, 44528, 71, 24419, 725, 23504, 0, 109381, 144566, 82268, 406504, 2512, 1864, 383, 93, 4944, 0, 84434, 36325, 0, 0, 159089, 1403, 1016, 5596, 692, 502, 644, 509, 345, 36325, 3363, 4126, 3095, 7830, 86638, 15078, 19625, 19997, 33038, 107, 146511, 18338, 5688, 35163, 0, 0, 0, 21213, 382, 387, 481, 745, 687, 906, 304, 157, 1251, 0, 88, 76, 364, 138, 111, 126, 189, 394, 517, 24510, 0, 15580, 325, 300, 436, 615, 608, 536, 200, 184, 1333, 0, 118, 154, 36, 167, 167, 100, 155, 636, 353, 18231, 0, 1317, 4984, 8933, 4878, 2262, 1073, 57, 0, 0, 32520, 36035, 21789, 6487, 4544, 1792, 693, 74, 78, 34, 33, 78, 8, 4, 4, 0, 0, 0, 0, 0, 9117, 7826, 6561, 10700, 0, 0, 6, 829, 262, 688, 808, 476, 23, 0, 0, 0, 0, 0, 0, 0, 0, 0, 0, 0, 213, 135, 61, 3, 4, 30, 2, 2, 0, 0, 0, 0, 2462, 168, 87, 175, 583, 307, 17, 105, 23, 63, 27, 34, 22, 45, 1481, 24, 40, 87, 45, 33, 31, 39, 29, 28, 24, 44, 34, 11, 5, 8, 29, 23, 2, 11, 6, 3, 5, 8, 3, 15, 20, 62, 231, 205, 109, 38, 9, 0, 0, 333, 93, 59, 91, 98, 18, 3, 0, 0, 85539, 61, 0, 0, 0, 0, 0, 0, 0, 0, 0, 0, 0, 0, 0, 0, 0, 0, 0, 0, 0, 0, 0, 0, 0, 4, 0, 0, 0, 26287, 19578, 0, 0, 3756, 1423, 775, 555, 211, 555, 0, 203, 43265000, 16799744, 781, 89664, 36928, 0, 0, 17169447374000
3934, 556, 61, 495, 3623, 302, 90, 212, 9292, 1161, 50433, 19586, 184, 118, 4490, 5, 4322, 11, 2562, 157, 1545, 0, 10048, 13478, 8245, 54779, 269, 192, 17, 23, 15, 0, 10602, 3139, 0, 0, 12184, 37, 102, 96, 107, 80, 38, 57, 28, 3139, 38, 101, 222, 599, 1256, 2090, 3232, 2574, 3439, 14, 25488, 1481, 582, 3295, 0, 0, 0, 2261, 62, 63, 93, 137, 148, 62, 31, 24, 6, 0, 3, 6, 10, 30, 8, 15, 14, 12, 43, 2746, 0, 1332, 70, 66, 64, 80, 98, 67, 34, 31, 0, 0, 7, 3, 10, 4, 53, 15, 2, 8, 4, 1736, 0, 92, 212, 435, 387, 306, 95, 18, 0, 0, 3527, 3290, 1251, 518, 427, 158, 171, 9, 9, 6, 15, 3, 4, 3, 4, 3, 0, 0, 0, 0, 465, 600, 480, 734, 0, 0, 0, 0, 23, 57, 100, 91, 9, 0, 0, 0, 0, 0, 0, 0, 0, 0, 0, 0, 47, 21, 10, 3, 2, 6, 1, 0, 0, 0, 0, 0, 171, 36, 15, 15, 9, 2, 2, 6, 3, 20, 6, 9, 3, 5, 15, 33, 7, 6, 4, 4, 10, 2, 8, 2, 4, 3, 3, 2, 1, 1, 1, 0, 2, 2, 0, 1, 1, 2, 3, 1, 1, 10, 53, 28, 18, 9, 4, 0, 0, 46, 23, 19, 12, 15, 8, 1, 0, 0, 7386, 34, 0, 0, 0, 0, 0, 0, 0, 0, 0, 0, 0, 0, 0, 0, 0, 0, 0, 0, 0, 0, 0, 0, 0, 2, 0, 0, 0, 2820, 1780, 0, 0, 255, 448, 291, 205, 85, 205, 0, 82, 16360000, 7410750, 296, 27264, 78272, 676, 0, 17169483025500
1185264, 22395, 1386, 21009, 956299, 31745, 22906, 8432, 2785720, 184006, 3798460, 497633, 722, 14418, 1207763, 293, 1051911, 567, 593263, 14518, 526698, 205126, 2610816, 3395828, 1805437, 8807222, 95112, 34488, 2915, 25466, 103599, 12645, 865448, 1832034, 0, 0, 2832848, 20960, 21608, 88638, 29700, 15938, 14558, 17947, 20631, 1832034, 36460, 29207, 44020, 121895, 1098432, 288337, 335947, 561468, 810021, 3009, 1881741, 286120, 212753, 920204, 3, 0, 0, 494752, 12555, 6343, 10470, 12248, 22043, 17413, 15514, 11347, 24749, 0, 960, 2209, 5826, 5539, 1865, 4054, 2278, 3676, 5381, 595646, 0, 379144, 5339, 4611, 5036, 8701, 16549, 11575, 9927, 4281, 16980, 0, 10504, 4264, 1995, 5715, 1085, 2697, 1547, 2963, 4057, 427316, 0, 13873, 105984, 193103, 127966, 55404, 24758, 2182, 3428, 0, 867826, 1052054, 716790, 159701, 83988, 44522, 7114, 6245, 1058, 593, 434, 449, 417, 333, 328, 76, 29, 21, 0, 0, 229444, 138192, 159062, 158838, 0, 36, 139, 13179, 16554, 22872, 11885, 10914, 1436, 1155, 628, 1313, 575, 123, 0, 0, 0, 0, 0, 0, 8220, 1950, 345, 51, 40, 167, 33, 7, 0, 0, 0, 0, 31278, 1015, 420, 705, 2770, 1194, 126, 384, 213, 442, 243, 354, 143, 140, 14889, 197, 537, 1243, 1045, 177, 164, 179, 868, 96, 228, 144, 149, 880, 52, 42, 92, 1035, 410, 233, 65, 46, 57, 37, 52, 54, 90, 611, 3128, 5364, 4626, 1235, 78, 0, 0, 7414, 1329, 2165, 3537, 702, 211, 26, 0, 1, 2115442, 5853, 0, 0, 0, 0, 0, 0, 0, 0, 0, 0, 0, 0, 0, 0, 0, 0, 0, 0, 27088, 0, 9593, 12451, 1012, 52602, 9568, 13955, 443, 626765, 452551, 0, 0, 31239, 22452, 8083, 5268, 2740, 5257, 0, 2666, 403446251, 215363042, 8209, 1140864, 260736, -1, 0, 17171382255500
1023, 126, 31, 95, 820, 96, 59, 36, 1699, 445, 13799, 6076, 123, 47, 1149, 0, 999, 4, 481, 30, 289, 64, 1913, 2577, 1512, 11722, 50, 13, 5, 2, 152, 0, 3003, 815, 0, 0, 3245, 6, 32, 18, 13, 10, 8, 21, 20, 815, 9, 21, 35, 110, 502, 751, 459, 667, 1013, 5, 6547, 359, 135, 682, 0, 0, 0, 472, 14, 15, 17, 29, 26, 20, 3, 0, 0, 0, 0, 1, 17, 7, 16, 3, 9, 6, 1, 536, 0, 430, 10, 10, 25, 23, 26, 11, 3, 0, 0, 0, 2, 6, 12, 8, 4, 7, 2, 5, 1, 491, 0, 12, 32, 85, 82, 61, 14, 2, 1, 0, 777, 580, 236, 151, 124, 26, 59, 3, 2, 2, 3, 1, 1, 1, 1, 1, 1, 0, 0, 0, 74, 112, 103, 150, 0, 0, 2, 2, 5, 10, 18, 16, 0, 0, 0, 0, 0, 0, 0, 0, 0, 0, 0, 0, 25, 10, 1, 0, 0, 2, 1, 0, 0, 0, 0, 0, 63, 9, 7, 7, 0, 4, 0, 2, 0, 9, 1, 2, 3, 2, 1, 1, 2, 0, 3, 0, 1, 1, 1, 0, 0, 1, 1, 0, 0, 0, 0, 0, 0, 0, 0, 0, 2, 0, 0, 0, 0, 1, 23, 17, 4, 4, 0, 0, 0, 21, 15, 5, 6, 3, 1, 0, 0, 0, 1361, 3, 0, 0, 0, 0, 0, 0, 0, 0, 0, 0, 0, 0, 0, 0, 0, 0, 0, 0, 0, 0, 0, 0, 0, 4, 0, 0, 0, 560, 478, 0, 0, 61, 31, 106, 78, 28, 78, 0, 27, 5513500, 2783000, 105, 8896, 2752, 676, 0, 17171389155000
4610098, 76685, 3798, 72887, 5094629, 156653, 93990, 62403, 13773568, 947612, 19102405, 1069402, 717, 83569, 4688060, 811, 5530877, 17520, 3571344, 37304, 1966993, 2683620, 12535134, 16503650, 8667447, 59733662, 1123841, 310022, 8315, 246994, 247634, 79544, 6336428, 9913730, 0, 0, 12402564, 244143, 234498, 254613, 226791, 77318, 68187, 75997, 46759, 9913730, 33158, 170427, 938530, 1003349, 2614340, 2227980, 1739458, 2353237, 2995602, 8914, 11267669, 1227134, 846516, 4691624, 35, 6, 17, 3263324, 71217, 46856, 58190, 77508, 98714, 105663, 74543, 39220, 18952, 0, 31576, 93102, 151891, 107700, 40679, 46262, 75787, 124997, 200448, 2981745, 0, 1614203, 18078, 14936, 37462, 45195, 55088, 52588, 44565, 18473, 18829, 0, 221636, 24918, 48232, 16182, 19070, 33090, 32270, 25450, 15850, 1482719, 0, 69218, 244403, 491532, 610882, 335018, 185848, 16193, 13899, 0, 5232540, 5528731, 3299906, 960124, 493756, 255993, 36918, 19510, 1000, 2026, 283, 351, 229, 80, 56, 33, 37, 21, 0, 0, 1120341, 320548, 526104, 404260, 0, 245, 2671, 13493, 53398, 100323, 60530, 80142, 24959, 18175, 13177, 18010, 6825, 1085, 0, 0, 0, 0, 0, 0, 37101, 11803, 1907, 315, 386, 347, 72, 12, 0, 0, 0, 0, 109741, 6814, 4750, 4588, 1578, 983, 868, 897, 2301, 2964, 1662, 1531, 323, 1163, 3862, 1502, 2454, 10365, 2151, 294, 381, 1354, 1429, 628, 404, 1325, 274, 2300, 543, 513, 171, 936, 148, 1098, 1010, 398, 684, 212, 377, 320, 1867, 3417, 16270, 25564, 22451, 15445, 2848, 0, 0, 52993, 12526, 8893, 7413, 3638, 1327, 239, 0, 5, 9092424, 122433, 0, 0, 0, 0, 0, 0, 0, 0, 0, 0, 0, 0, 0, 0, 0, 0, 0, 0, 370590, 0, 58683, 75294, 15576, 342678, 199319, 343987, 4343, 3826773, 1862737, 0, 0, 67455, 128711, 22280, 11511, 10409, 11490, 0, 10243, 872716053, 782500219, 24479, 3898176, 292800, 674, 0, 17180940357500
74313, 5503, 533, 4970, 69559, 14881, 10964, 3723, 143906, 24206, 667966, 228440, 215, 2372, 80010, 113, 90955, 316, 39954, 1959, 25369, 160, 178464, 242851, 133223, 807219, 4478, 11408, 265, 271, 47713, 0, 149476, 76643, 0, 0, 211147, 913, 2806, 2098, 1978, 1337, 1003, 801, 807, 76643, 547, 1538, 4689, 15058, 27207, 43506, 34828, 42527, 68166, 230, 345263, 22106, 10385, 61761, 2, 2, 1, 35223, 1030, 940, 1402, 1978, 1939, 1635, 571, 340, 968, 0, 161, 139, 605, 768, 564, 450, 416, 565, 895, 41463, 0, 42657, 548, 673, 867, 1240, 1548, 1315, 349, 132, 922, 0, 293, 173, 324, 1139, 470, 197, 267, 398, 655, 46335, 0, 1009, 3915, 6940, 5968, 4712, 2489, 109, 227, 0, 61253, 51131, 24923, 15676, 7623, 3456, 2195, 500, 114, 388, 69, 18, 4, 4, 4, 3, 3, 4, 0, 0, 9294, 7955, 8120, 9976, 0, 1, 48, 222, 700, 1587, 1524, 785, 79, 0, 0, 0, 0, 0, 0, 0, 0, 0, 0, 0, 819, 427, 100, 28, 24, 128, 21, 2, 0, 0, 0, 0, 3632, 678, 375, 349, 112, 105, 61, 170, 160, 387, 118, 106, 40, 99, 78, 140, 201, 149, 82, 62, 59, 124, 100, 40, 71, 40, 26, 29, 52, 63, 20, 18, 18, 41, 40, 19, 41, 16, 36, 6, 19, 137, 943, 638, 435, 191, 23, 0, 0, 1164, 426, 340, 320, 167, 84, 17, 0, 4, 121625, 92, 0, 0, 0, 0, 0, 0, 0, 0, 0, 0, 0, 0, 0, 0, 0, 0, 0, 0, 0, 0, 0, 0, 0, 14, 0, 0, 0, 46274, 48387, 0, 0, 4387, 5002, 4279, 2588, 1629, 2582, 0, 1602, 192652243, 130020808, 4309, 422144, 68736, -1, 0, 17181274340500
931, 73, 7, 66, 684, 108, 56, 52, 1522, 346, 10226, 3293, 148, 38, 1004, 0, 874, 5, 447, 25, 262, 64, 1695, 2261, 1359, 10616, 65, 26, 10, 133, 176, 0, 3048, 755, 0, 0, 2916, 5, 34, 12, 19, 7, 7, 11, 11, 755, 6, 22, 95, 77, 365, 670, 386, 602, 970, 4, 5904, 319, 125, 585, 0, 0, 0, 431, 16, 21, 19, 26, 13, 9, 5, 0, 0, 0, 2, 1, 8, 7, 11, 0, 0, 4, 0, 507, 0, 353, 13, 13, 8, 14, 14, 11, 4, 0, 0, 0, 3, 2, 12, 0, 4, 0, 2, 1, 0, 406, 0, 10, 29, 89, 66, 51, 14, 2, 1, 0, 628, 473, 248, 227, 119, 12, 90, 3, 1, 1, 1, 1, 1, 1, 1, 1, 1, 0, 0, 0, 69, 105, 88, 132, 0, 0, 0, 3, 3, 10, 20, 10, 1, 0, 0, 0, 0, 0, 0, 0, 0, 0, 0, 0, 15, 5, 1, 0, 1, 4, 0, 0, 0, 0, 0, 0, 54, 13, 5, 6, 3, 1, 1, 1, 1, 4, 3, 2, 2, 2, 1, 2, 1, 1, 1, 1, 2, 1, 0, 0, 0, 0, 1, 0, 0, 0, 0, 0, 0, 0, 0, 1, 1, 0, 1, 0, 0, 4, 18, 11, 1, 5, 1, 0, 0, 17, 11, 5, 4, 3, 1, 0, 0, 0, 1206, 2, 0, 0, 0, 0, 0, 0, 0, 0, 0, 0, 0, 0, 0, 0, 0, 0, 0, 0, 0, 0, 0, 0, 0, 4, 0, 0, 0, 515, 395, 0, 0, 62, 41, 86, 52, 34, 52, 0, 34, 3897500, 2716250, 86, 6912, 1920, 677, 0, 17181279453500
26007, 1085, 149, 936, 20563, 2134, 1310, 821, 50406, 8095, 196819, 63588, 255, 600, 27110, 100, 24087, 101, 12355, 862, 9438, 0, 55132, 71991, 42325, 235012, 2122, 2226, 447, 182, 6270, 0, 48871, 21362, 0, 0, 70019, 228, 1034, 1043, 389, 406, 742, 433, 102, 21362, 212, 559, 2180, 4526, 7858, 11665, 11700, 14844, 26422, 91, 103804, 6394, 3200, 19832, 0, 0, 0, 11125, 375, 261, 483, 508, 640, 564, 276, 46, 119, 0, 121, 251, 366, 176, 195, 87, 119, 89, 412, 12581, 0, 9475, 243, 182, 350, 623, 399, 301, 30, 15, 107, 0, 100, 23, 62, 149, 57, 74, 29, 61, 399, 10771, 0, 362, 1697, 2909, 2177, 1622, 582, 56, 33, 0, 18360, 16486, 9777, 4874, 5066, 788, 531, 49, 105, 0, 0, 0, 0, 0, 0, 0, 0, 0, 0, 0, 2874, 3444, 3120, 4108, 0, 0, 11, 30, 152, 343, 559, 434, 38, 0, 0, 0, 0, 0, 0, 0, 0, 0, 0, 0, 220, 162, 67, 12, 5, 38, 10, 5, 0, 0, 0, 0, 1047, 268, 112, 114, 121, 87, 13, 92, 44, 131, 37, 13, 35, 20, 17, 20, 47, 75, 33, 71, 40, 40, 66, 4, 67, 29, 7, 7, 40, 4, 11, 19, 14, 10, 14, 14, 2, 8, 7, 6, 48, 34, 225, 198, 91, 39, 7, 0, 0, 285, 87, 96, 118, 35, 31, 8, 0, 0, 42430, 70, 0, 0, 0, 0, 0, 0, 0, 0, 0, 0, 0, 0, 0, 0, 0, 0, 0, 0, 0, 0, 0, 0, 0, 2, 0, 0, 0, 13868, 11368, 0, 0, 1813, 762, 1119, 683, 423, 681, 0, 414, 51077000, 35815489, 1138, 102592, 25344, -1, 0, 17181377863000
1462, 115, 22, 93, 1005, 56, 24, 31, 2217, 597, 14421, 6588, 153, 57, 1578, 0, 1168, 2, 616, 38, 394, 0, 2364, 3212, 1911, 12226, 70, 12, 5, 0, 171, 0, 3154, 1077, 0, 0, 4217, 8, 74, 25, 29, 25, 21, 28, 30, 1077, 10, 27, 129, 122, 720, 878, 607, 979, 1249, 6, 6339, 445, 187, 862, 0, 0, 0, 606, 24, 17, 22, 20, 31, 27, 16, 0, 0, 0, 5, 2, 21, 24, 13, 0, 18, 20, 7, 653, 0, 431, 11, 16, 21, 31, 21, 20, 0, 0, 0, 0, 1, 12, 11, 1, 10, 3, 3, 1, 0, 509, 0, 23, 43, 119, 108, 83, 16, 2, 0, 0, 1013, 803, 322, 261, 121, 31, 79, 1, 1, 1, 2, 0, 0, 0, 0, 0, 0, 0, 0, 0, 108, 147, 139, 208, 0, 0, 0, 2, 2, 19, 33, 10, 1, 0, 0, 0, 0, 0, 0, 0, 0, 0, 0, 0, 32, 11, 2, 0, 0, 2, 1, 0, 0, 0, 0, 0, 82, 10, 12, 11, 2, 4, 0, 1, 0, 14, 1, 5, 1, 0, 3, 3, 2, 2, 4, 0, 0, 1, 2, 0, 1, 0, 2, 0, 0, 0, 0, 0, 0, 0, 0, 0, 1, 1, 1, 0, 0, 3, 23, 17, 11, 4, 0, 0, 0, 25, 12, 8, 8, 6, 0, 0, 0, 0, 1817, 3, 0, 0, 0, 0, 0, 0, 0, 0, 0, 0, 0, 0, 0, 0, 0, 0, 0, 0, 0, 0, 0, 0, 0, 2, 0, 0, 0, 707, 511, 0, 0, 86, 35, 90, 70, 20, 70, 0, 20, 5462500, 1599000, 90, 7552, 1792, 677, 0, 17181385073500
