
27488, 1172, 152, 1014, 18891, 1178, 398, 776, 47974, 13412, 208729, 77197, 228, 1285, 28661, 52, 22117, 231, 12150, 750, 9008, 0, 49508, 67860, 40149, 216889, 1319, 881, 78, 41, 786, 0, 39161, 25805, 0, 0, 79826, 181, 809, 591, 322, 456, 549, 293, 252, 25806, 196, 508, 1456, 5238, 9165, 13304, 13410, 20692, 24087, 66, 100768, 7269, 3667, 19825, 0, 1, 0, 12702, 364, 540, 574, 665, 468, 221, 49, 35, 53, 0, 209, 95, 80, 331, 242, 255, 426, 607, 884, 12542, 0, 7944, 232, 259, 328, 462, 337, 158, 81, 49, 13, 0, 61, 72, 109, 201, 98, 162, 260, 356, 633, 7911, 0, 274, 1405, 2979, 2436, 1403, 491, 15, 5, 0, 17881, 17541, 13262, 5137, 3414, 899, 1164, 101, 46, 21, 3, 0, 0, 0, 0, 0, 0, 0, 0, 0, 2768, 3504, 2736, 4245, 0, 0, 1, 9, 145, 403, 516, 327, 27, 0, 0, 0, 0, 0, 0, 0, 0, 0, 0, 0, 504, 255, 38, 3, 22, 106, 14, 5, 1, 0, 0, 0, 1567, 156, 69, 69, 32, 21, 18, 27, 31, 92, 60, 53, 47, 13, 33, 43, 51, 69, 21, 26, 25, 27, 47, 30, 14, 16, 14, 27, 31, 43, 6, 11, 11, 7, 2, 1, 4, 2, 9, 7, 20, 81, 605, 358, 203, 102, 17, 0, 0, 570, 265, 219, 171, 103, 56, 6, 0, 2, 42360, 25, 0, 0, 0, 0, 0, 0, 0, 0, 0, 0, 0, 0, 0, 0, 0, 0, 0, 0, 0, 0, 0, 0, 0, 0, 0, 0, 0, 14767, 9122, 0, 0, 1347, 591, 1523, 914, 577, 913, 0, 571, 66565750, 46674499, 1512, 125376, 64, 674, 0, 33119101483500
12702, 1574, 188, 1386, 9825, 2169, 1513, 654, 22573, 7065, 169880, 83946, 132, 880, 14327, 53, 12920, 123, 5113, 273, 3806, 0, 26790, 38402, 21240, 143318, 639, 164, 43, 11, 3093, 0, 27352, 15414, 0, 0, 40336, 85, 211, 474, 212, 145, 154, 118, 148, 15414, 116, 288, 706, 4240, 4801, 7024, 6597, 7622, 12757, 43, 69478, 4265, 1964, 10224, 0, 0, 0, 5245, 224, 233, 329, 376, 302, 97, 28, 0, 0, 0, 20, 27, 93, 194, 106, 98, 90, 111, 155, 5940, 0, 6417, 128, 168, 201, 204, 239, 138, 48, 26, 192, 0, 48, 21, 98, 104, 55, 48, 78, 74, 83, 7152, 0, 176, 561, 1022, 810, 671, 526, 39, 1, 0, 11130, 8989, 4909, 4908, 2005, 319, 195, 7, 3, 1, 3, 0, 0, 0, 0, 0, 0, 0, 0, 0, 1572, 1060, 1174, 1316, 0, 0, 1, 14, 78, 169, 332, 136, 12, 0, 0, 0, 0, 0, 0, 0, 0, 0, 0, 0, 302, 106, 28, 4, 9, 51, 13, 4, 0, 0, 0, 0, 1074, 112, 52, 48, 36, 23, 11, 36, 19, 72, 21, 17, 8, 4, 10, 8, 18, 17, 9, 15, 17, 10, 14, 5, 6, 1, 6, 5, 4, 2, 2, 6, 4, 0, 1, 1, 3, 1, 4, 0, 1, 56, 366, 225, 156, 58, 24, 0, 0, 462, 170, 117, 97, 43, 38, 9, 0, 1, 21256, 25, 0, 0, 0, 0, 0, 0, 0, 0, 0, 0, 0, 0, 0, 0, 0, 0, 0, 0, 0, 0, 0, 0, 0, 2, 0, 0, 0, 6422, 7377, 0, 0, 682, 930, 1356, 972, 351, 970, 0, 343, 69500750, 29217757, 1353, 118080, 5632, -1, 0, 33119186423500
866, 58, 12, 46, 597, 54, 22, 32, 1059, 720, 6506, 1941, 162, 63, 926, 4, 749, 5, 351, 11, 179, 0, 1219, 1923, 1198, 7212, 19, 22, 6, 3, 59, 0, 1541, 705, 0, 0, 2646, 4, 18, 2, 8, 5, 3, 18, 14, 705, 9, 23, 50, 118, 297, 503, 637, 428, 811, 5, 3608, 290, 126, 541, 0, 0, 0, 445, 17, 25, 18, 15, 8, 0, 0, 0, 0, 0, 2, 2, 6, 31, 8, 9, 9, 9, 0, 452, 0, 331, 11, 7, 15, 11, 9, 1, 0, 0, 0, 0, 2, 4, 14, 16, 7, 9, 7, 2, 2, 322, 0, 7, 18, 47, 58, 35, 12, 2, 0, 0, 612, 460, 297, 228, 153, 20, 71, 0, 0, 0, 0, 0, 0, 0, 0, 0, 0, 0, 0, 0, 50, 56, 73, 76, 0, 0, 0, 1, 5, 11, 12, 3, 1, 0, 0, 0, 0, 0, 0, 0, 0, 0, 0, 0, 27, 11, 5, 1, 1, 8, 0, 0, 0, 0, 0, 0, 70, 5, 1, 1, 1, 1, 1, 0, 1, 2, 2, 1, 0, 1, 1, 1, 0, 0, 1, 1, 2, 1, 1, 1, 0, 0, 1, 0, 0, 0, 0, 0, 2, 0, 0, 2, 0, 0, 0, 0, 0, 3, 30, 16, 10, 3, 1, 0, 0, 25, 9, 11, 10, 4, 6, 0, 0, 0, 1005, 2, 0, 0, 0, 0, 0, 0, 0, 0, 0, 0, 0, 0, 0, 0, 0, 0, 0, 0, 0, 0, 0, 0, 0, 2, 0, 0, 0, 467, 327, 0, 0, 32, 46, 48, 27, 21, 27, 0, 21, 2003500, 1604500, 48, 3968, 512, 0, 0, 33119189676500
3823, 611, 73, 538, 3057, 246, 78, 168, 6145, 2245, 60475, 34363, 101, 268, 4436, 4, 3569, 25, 1835, 75, 1067, 0, 6963, 10018, 6268, 46281, 153, 35, 20, 13, 12, 0, 8200, 3284, 0, 0, 12489, 30, 64, 66, 75, 56, 44, 53, 31, 3284, 40, 103, 243, 475, 1548, 2323, 1683, 2686, 4512, 15, 21369, 1609, 530, 2603, 0, 0, 0, 1971, 68, 90, 124, 140, 104, 22, 0, 0, 0, 0, 5, 14, 32, 71, 59, 15, 25, 7, 32, 2259, 0, 1258, 46, 58, 54, 103, 72, 44, 8, 0, 0, 0, 14, 14, 31, 18, 11, 15, 6, 12, 23, 1499, 0, 60, 137, 293, 289, 201, 77, 10, 0, 0, 3381, 2219, 1010, 481, 339, 65, 98, 2, 2, 0, 0, 0, 0, 0, 0, 0, 0, 0, 0, 0, 312, 372, 383, 478, 0, 0, 0, 4, 20, 56, 58, 50, 5, 0, 0, 0, 0, 0, 0, 0, 0, 0, 0, 0, 107, 38, 5, 1, 4, 32, 1, 0, 0, 0, 0, 0, 337, 39, 15, 12, 8, 9, 5, 5, 4, 12, 23, 9, 8, 8, 9, 8, 6, 3, 2, 2, 2, 4, 5, 2, 3, 2, 2, 1, 2, 1, 1, 1, 2, 0, 0, 0, 0, 2, 0, 0, 1, 20, 155, 54, 27, 14, 1, 0, 0, 120, 65, 41, 31, 15, 8, 1, 0, 0, 5425, 35, 0, 0, 0, 0, 0, 0, 0, 0, 0, 0, 0, 0, 0, 0, 0, 0, 0, 0, 0, 0, 0, 0, 0, 2, 0, 0, 0, 2331, 1520, 0, 0, 234, 229, 516, 380, 135, 379, 0, 126, 27992750, 10172500, 510, 2120960, 4160, -1, 0, 33128146670500
1043, 128, 26, 102, 850, 53, 29, 23, 1746, 587, 10280, 4171, 169, 60, 1171, 0, 1015, 5, 506, 32, 294, 0, 1917, 2666, 1593, 9704, 55, 11, 2, 0, 111, 0, 2423, 875, 0, 0, 3375, 3, 23, 5, 18, 5, 5, 16, 12, 875, 5, 18, 29, 100, 567, 655, 479, 740, 1073, 5, 4839, 400, 147, 723, 0, 0, 0, 491, 22, 24, 23, 28, 28, 13, 1, 0, 0, 0, 0, 1, 5, 5, 5, 11, 6, 2, 6, 589, 0, 424, 14, 13, 23, 26, 25, 5, 0, 0, 0, 0, 2, 1, 3, 9, 7, 11, 9, 8, 3, 477, 0, 12, 31, 81, 88, 65, 15, 2, 0, 0, 843, 595, 292, 239, 92, 40, 18, 0, 0, 0, 0, 0, 0, 0, 0, 0, 0, 0, 0, 0, 81, 104, 109, 144, 0, 0, 1, 0, 7, 15, 20, 10, 0, 0, 0, 0, 0, 0, 0, 0, 0, 0, 0, 0, 29, 14, 3, 0, 0, 1, 0, 0, 0, 0, 0, 0, 78, 7, 8, 7, 2, 2, 0, 1, 0, 10, 2, 2, 1, 2, 2, 1, 2, 0, 3, 1, 2, 2, 0, 0, 0, 0, 1, 0, 0, 0, 1, 0, 0, 0, 0, 0, 0, 1, 0, 0, 0, 4, 32, 17, 7, 2, 0, 0, 0, 24, 14, 10, 12, 4, 0, 0, 0, 0, 1427, 3, 0, 0, 0, 0, 0, 0, 0, 0, 0, 0, 0, 0, 0, 0, 0, 0, 0, 0, 0, 0, 0, 0, 0, 2, 0, 0, 0, 611, 462, 0, 0, 65, 61, 73, 56, 17, 56, 0, 17, 4101250, 1384750, 73, 5824, 512, 0, 0, 33128151810500
3292, 355, 18, 337, 2980, 60, 15, 45, 5779, 1692, 20620, 6450, 280, 174, 3647, 4, 3281, 16, 1725, 69, 982, 0, 6550, 9128, 5692, 28798, 131, 54, 15, 15, 121, 0, 3077, 2739, 0, 0, 10240, 11, 53, 50, 68, 69, 48, 47, 39, 2739, 28, 57, 152, 354, 1288, 2089, 1412, 2115, 3751, 15, 10054, 1267, 465, 2383, 0, 0, 0, 1756, 46, 69, 96, 106, 82, 33, 3, 0, 0, 0, 5, 9, 24, 31, 42, 22, 17, 4, 13, 2024, 0, 1241, 39, 50, 44, 77, 68, 25, 15, 0, 0, 0, 10, 10, 20, 20, 8, 13, 4, 6, 6, 1462, 0, 51, 124, 275, 256, 194, 73, 9, 0, 0, 2935, 2123, 934, 490, 313, 78, 73, 2, 2, 1, 1, 5, 0, 0, 0, 0, 0, 0, 0, 0, 288, 337, 357, 438, 0, 0, 0, 3, 26, 52, 55, 42, 3, 0, 0, 0, 0, 0, 0, 0, 0, 0, 0, 0, 74, 34, 14, 0, 3, 4, 0, 0, 0, 0, 0, 0, 231, 32, 15, 15, 8, 6, 3, 3, 7, 13, 13, 3, 7, 3, 5, 6, 8, 6, 3, 6, 3, 4, 2, 2, 2, 1, 3, 2, 1, 1, 1, 0, 2, 0, 1, 0, 1, 0, 1, 0, 0, 11, 105, 37, 18, 8, 0, 0, 0, 70, 38, 42, 20, 8, 6, 0, 0, 0, 4891, 33, 0, 0, 0, 0, 0, 0, 0, 0, 0, 0, 0, 0, 0, 0, 0, 0, 0, 0, 0, 0, 0, 0, 0, 2, 0, 0, 0, 2054, 1432, 0, 0, 200, 330, 79, 67, 12, 66, 0, 12, 5286500, 1096500, 80, 2388736, 640, -1, 0, 33138129819500
1082, 78, 7, 71, 834, 24, 14, 10, 1642, 549, 4446, 617, 369, 54, 1160, 0, 976, 5, 482, 28, 284, 0, 1808, 2522, 1533, 7319, 56, 13, 8, 0, 0, 0, 1024, 845, 0, 0, 3217, 4, 29, 7, 20, 6, 7, 17, 15, 845, 7, 22, 32, 96, 445, 697, 426, 760, 1053, 1, 2641, 363, 142, 683, 0, 0, 0, 472, 19, 24, 18, 19, 23, 24, 4, 0, 0, 0, 1, 1, 0, 4, 6, 9, 7, 0, 3, 572, 0, 380, 13, 15, 18, 20, 9, 8, 10, 0, 0, 0, 5, 0, 3, 3, 19, 10, 9, 0, 5, 419, 0, 14, 32, 78, 81, 62, 15, 2, 0, 0, 826, 550, 292, 197, 90, 18, 10, 0, 0, 0, 0, 0, 0, 0, 0, 0, 0, 0, 0, 0, 83, 95, 106, 132, 0, 0, 0, 1, 3, 10, 29, 8, 0, 0, 0, 0, 0, 0, 0, 0, 0, 0, 0, 0, 24, 15, 3, 1, 0, 0, 0, 0, 0, 0, 0, 0, 74, 9, 9, 8, 0, 2, 0, 1, 2, 10, 2, 2, 2, 3, 2, 2, 3, 1, 0, 0, 1, 0, 0, 1, 0, 0, 0, 0, 0, 0, 0, 0, 0, 0, 1, 0, 0, 0, 1, 0, 0, 6, 31, 9, 8, 1, 0, 0, 0, 16, 10, 18, 9, 3, 0, 0, 0, 0, 1379, 3, 0, 0, 0, 0, 0, 0, 0, 0, 0, 0, 0, 0, 0, 0, 0, 0, 0, 0, 0, 0, 0, 0, 0, 2, 0, 0, 0, 583, 432, 0, 0, 70, 79, 10, 10, 0, 10, 0, 0, 665500, 0, 10, 1280, 128, 0, 0, 33138132042500
6451, 571, 31, 540, 5821, 197, 50, 147, 11767, 2785, 40311, 10597, 291, 253, 7023, 6, 6493, 23, 3540, 136, 2022, 0, 13184, 18118, 11222, 67063, 282, 147, 57, 30, 79, 0, 9801, 5157, 0, 0, 19475, 37, 103, 127, 162, 129, 115, 78, 43, 5157, 54, 137, 356, 621, 1982, 4010, 2950, 4456, 6956, 32, 21834, 2340, 862, 4676, 0, 0, 0, 3492, 94, 106, 157, 193, 184, 77, 17, 0, 0, 0, 8, 12, 35, 68, 47, 47, 52, 17, 35, 3999, 0, 2366, 61, 78, 68, 134, 145, 80, 17, 0, 0, 0, 22, 9, 37, 61, 17, 8, 23, 16, 19, 2737, 0, 109, 275, 558, 541, 372, 151, 16, 0, 0, 5408, 4325, 2018, 1306, 621, 245, 203, 6, 6, 28, 4, 10, 0, 0, 0, 0, 0, 0, 0, 0, 588, 754, 680, 916, 0, 0, 1, 5, 42, 102, 115, 97, 4, 0, 0, 0, 0, 0, 0, 0, 0, 0, 0, 0, 109, 59, 12, 5, 4, 5, 0, 0, 0, 0, 0, 0, 348, 68, 23, 17, 15, 10, 2, 12, 16, 29, 23, 10, 14, 9, 9, 14, 16, 7, 6, 7, 6, 6, 4, 4, 8, 3, 5, 7, 7, 2, 1, 1, 6, 1, 2, 4, 2, 1, 6, 0, 0, 14, 130, 64, 36, 20, 3, 0, 0, 115, 50, 46, 38, 13, 13, 0, 0, 0, 9694, 57, 0, 0, 0, 0, 0, 0, 0, 0, 0, 0, 0, 0, 0, 0, 0, 0, 0, 0, 0, 0, 0, 0, 0, 2, 0, 0, 0, 4095, 2741, 0, 0, 391, 557, 172, 110, 62, 109, 0, 61, 8528000, 5087750, 176, 4741760, 896, -1, 0, 33158128349500
975, 90, 9, 81, 845, 45, 28, 17, 1745, 448, 5133, 1241, 339, 35, 1065, 0, 994, 2, 506, 32, 294, 0, 1916, 2595, 1545, 7308, 55, 11, 6, 0, 50, 0, 1130, 746, 0, 0, 2931, 2, 34, 10, 14, 9, 7, 20, 12, 746, 6, 16, 32, 85, 475, 585, 463, 555, 1034, 5, 2752, 319, 128, 693, 0, 0, 0, 484, 18, 21, 18, 21, 19, 20, 10, 0, 0, 0, 1, 2, 4, 7, 9, 6, 3, 1, 4, 574, 0, 379, 7, 6, 20, 15, 22, 17, 9, 0, 0, 0, 2, 1, 3, 10, 6, 8, 9, 3, 2, 431, 0, 12, 31, 81, 88, 65, 15, 2, 0, 0, 797, 590, 252, 207, 105, 33, 13, 0, 0, 0, 0, 0, 0, 0, 0, 0, 0, 0, 0, 0, 81, 104, 109, 144, 0, 0, 0, 2, 8, 14, 18, 10, 1, 0, 0, 0, 0, 0, 0, 0, 0, 0, 0, 0, 19, 7, 5, 0, 0, 0, 0, 0, 0, 0, 0, 0, 53, 7, 8, 7, 0, 2, 0, 0, 3, 7, 2, 0, 1, 3, 0, 1, 3, 0, 5, 3, 2, 1, 0, 1, 1, 0, 0, 0, 0, 0, 0, 0, 0, 0, 0, 0, 1, 0, 2, 0, 0, 2, 20, 9, 6, 1, 0, 0, 0, 10, 12, 2, 8, 5, 2, 0, 0, 0, 1368, 3, 0, 0, 0, 0, 0, 0, 0, 0, 0, 0, 0, 0, 0, 0, 0, 0, 0, 0, 0, 0, 0, 0, 0, 2, 0, 0, 0, 588, 436, 0, 0, 63, 90, 11, 10, 1, 10, 0, 1, 763250, 31500, 11, 1344, 128, 0, 0, 33158130916000
2666, 280, 9, 271, 2860, 56, 13, 43, 5712, 746, 13538, 2276, 421, 69, 2947, 0, 3113, 3, 1714, 65, 972, 0, 6477, 8567, 5300, 26581, 127, 71, 21, 23, 23, 0, 2962, 2132, 0, 0, 8064, 8, 64, 45, 66, 60, 47, 48, 26, 2132, 19, 44, 155, 274, 941, 1566, 1150, 1786, 3038, 12, 7696, 1104, 402, 2059, 0, 0, 0, 1531, 34, 40, 55, 69, 92, 71, 19, 0, 0, 0, 1, 4, 10, 11, 19, 15, 2, 2, 5, 1842, 0, 1120, 25, 30, 28, 50, 72, 47, 28, 2, 0, 0, 7, 3, 5, 13, 9, 6, 2, 4, 6, 1347, 0, 51, 122, 273, 255, 189, 73, 9, 0, 0, 2489, 1788, 931, 539, 365, 131, 81, 4, 6, 10, 1, 5, 0, 0, 0, 0, 0, 0, 0, 0, 286, 334, 352, 434, 0, 0, 0, 4, 23, 48, 65, 35, 4, 0, 0, 0, 0, 0, 0, 0, 0, 0, 0, 0, 24, 18, 4, 2, 1, 0, 0, 0, 0, 0, 0, 0, 120, 25, 11, 12, 9, 4, 2, 2, 5, 17, 7, 5, 2, 5, 5, 4, 4, 5, 5, 7, 3, 3, 0, 0, 3, 2, 4, 2, 2, 0, 2, 2, 1, 1, 0, 3, 1, 0, 2, 0, 0, 5, 36, 19, 9, 4, 1, 0, 0, 22, 17, 22, 6, 3, 4, 0, 0, 0, 4436, 33, 0, 0, 0, 0, 0, 0, 0, 0, 0, 0, 0, 0, 0, 0, 0, 0, 0, 0, 0, 0, 0, 0, 0, 2, 0, 0, 0, 1882, 1341, 0, 0, 173, 289, 27, 25, 2, 25, 0, 2, 1857750, 163750, 29, 2343104, 192, -1, 0, 33168126214000
1041, 61, 4, 57, 820, 23, 14, 9, 1642, 438, 3697, 188, 444, 40, 1102, 0, 958, 2, 482, 28, 284, 0, 1808, 2482, 1506, 6879, 56, 14, 7, 0, 5, 0, 1059, 770, 0, 0, 2965, 3, 33, 9, 18, 10, 12, 17, 12, 770, 9, 15, 30, 86, 489, 509, 443, 666, 1049, 4, 2407, 313, 143, 646, 0, 0, 0, 453, 17, 18, 16, 14, 30, 18, 10, 1, 0, 0, 1, 2, 1, 3, 7, 2, 1, 0, 1, 559, 0, 359, 12, 12, 16, 18, 13, 9, 9, 0, 0, 0, 4, 2, 5, 1, 11, 7, 10, 0, 1, 407, 0, 14, 32, 78, 81, 62, 15, 2, 0, 0, 773, 553, 230, 188, 99, 54, 19, 0, 0, 0, 0, 0, 0, 0, 0, 0, 0, 0, 0, 0, 83, 95, 106, 132, 0, 0, 1, 0, 1, 16, 26, 6, 0, 0, 0, 0, 0, 0, 0, 0, 0, 0, 0, 0, 16, 15, 1, 1, 0, 0, 0, 0, 0, 0, 0, 0, 60, 9, 9, 8, 0, 1, 0, 1, 1, 9, 2, 2, 3, 3, 3, 1, 2, 1, 1, 2, 0, 0, 1, 2, 1, 0, 0, 0, 0, 1, 0, 0, 0, 0, 0, 0, 0, 0, 1, 0, 0, 5, 25, 5, 6, 1, 0, 0, 0, 11, 7, 12, 8, 5, 0, 0, 0, 0, 1340, 2, 0, 0, 0, 0, 0, 0, 0, 0, 0, 0, 0, 0, 0, 0, 0, 0, 0, 0, 0, 0, 0, 0, 0, 2, 0, 0, 0, 561, 420, 0, 0, 69, 64, 4, 4, 0, 4, 0, 0, 299500, 0, 4, 768, 128, 0, 0, 33168128062500
7214, 567, 45, 522, 6290, 136, 33, 103, 13212, 3120, 39003, 10974, 338, 283, 7783, 1, 6957, 10, 3652, 131, 2270, 0, 14501, 20476, 12371, 59750, 235, 172, 58, 37, 61, 0, 7462, 5513, 0, 0, 21402, 28, 193, 167, 168, 134, 150, 97, 61, 5513, 56, 138, 354, 1259, 2648, 4543, 3124, 4448, 7156, 23, 19171, 2750, 1034, 5072, 0, 0, 0, 3637, 69, 105, 139, 143, 198, 132, 22, 3, 0, 0, 8, 13, 79, 68, 45, 26, 41, 41, 12, 4115, 0, 2521, 59, 86, 58, 102, 144, 78, 43, 12, 0, 0, 23, 8, 28, 57, 27, 12, 12, 16, 8, 2912, 0, 100, 303, 666, 621, 397, 164, 19, 0, 0, 6122, 5217, 3333, 1297, 648, 234, 93, 9, 11, 52, 6, 10, 0, 0, 0, 0, 0, 0, 0, 0, 684, 835, 751, 1096, 0, 0, 2, 10, 60, 112, 125, 79, 16, 0, 0, 0, 0, 0, 0, 0, 0, 0, 0, 0, 101, 51, 17, 4, 2, 10, 2, 0, 0, 0, 0, 0, 396, 64, 20, 21, 10, 7, 5, 5, 9, 27, 14, 9, 9, 6, 6, 10, 3, 5, 8, 12, 9, 6, 2, 9, 3, 3, 4, 4, 1, 2, 2, 4, 11, 3, 1, 1, 2, 1, 3, 2, 0, 16, 148, 71, 37, 19, 4, 0, 0, 139, 51, 40, 34, 17, 11, 4, 0, 0, 11003, 103, 0, 0, 0, 0, 0, 0, 0, 0, 0, 0, 0, 0, 0, 0, 0, 0, 0, 0, 0, 0, 0, 0, 0, 2, 0, 0, 0, 4296, 2941, 0, 0, 338, 476, 165, 121, 44, 121, 0, 41, 9132000, 3356500, 166, 35522368, 1152, -1, 0, 33318130215000
1914, 199, 29, 170, 1412, 110, 40, 68, 3622, 841, 21253, 10545, 170, 113, 2114, 0, 1724, 14, 918, 27, 573, 0, 3728, 5552, 3120, 16676, 58, 59, 1, 0, 28, 0, 3155, 1529, 0, 0, 6101, 16, 47, 109, 36, 20, 18, 51, 11, 1529, 14, 50, 120, 979, 737, 1245, 913, 1106, 1508, 5, 8356, 771, 229, 1352, 0, 0, 0, 914, 30, 36, 36, 55, 43, 34, 26, 0, 0, 0, 0, 42, 8, 44, 14, 30, 27, 30, 13, 966, 0, 575, 15, 21, 26, 36, 30, 27, 7, 0, 0, 0, 46, 16, 3, 5, 15, 7, 18, 3, 3, 621, 0, 19, 55, 170, 153, 150, 22, 4, 0, 0, 1699, 916, 721, 147, 129, 24, 29, 0, 0, 0, 0, 0, 0, 0, 0, 0, 0, 0, 0, 0, 201, 208, 164, 242, 0, 0, 0, 2, 12, 33, 41, 12, 4, 0, 0, 0, 0, 0, 0, 0, 0, 0, 0, 0, 41, 16, 5, 0, 0, 5, 3, 1, 0, 0, 0, 0, 137, 8, 8, 9, 3, 1, 1, 1, 2, 12, 3, 0, 1, 1, 1, 0, 1, 2, 0, 0, 2, 1, 2, 0, 0, 1, 1, 0, 1, 0, 0, 0, 0, 0, 0, 0, 0, 0, 2, 0, 0, 10, 52, 23, 21, 11, 1, 0, 0, 63, 20, 15, 10, 8, 2, 0, 0, 0, 3013, 16, 0, 0, 0, 0, 0, 0, 0, 0, 0, 0, 0, 0, 0, 0, 0, 0, 0, 0, 0, 0, 0, 0, 0, 2, 0, 0, 0, 1137, 686, 0, 0, 69, 87, 175, 117, 56, 117, 0, 55, 8568500, 4700000, 174, 13760, 1856, 0, 0, 33318140841500
4745, 401, 17, 384, 4177, 96, 32, 64, 9282, 1981, 22371, 4649, 414, 164, 5146, 1, 4645, 1, 2430, 86, 1592, 0, 10042, 14193, 8480, 37254, 147, 182, 60, 124, 16, 0, 3960, 3588, 0, 0, 13987, 19, 167, 138, 118, 68, 101, 74, 41, 3588, 36, 87, 180, 1181, 1478, 3394, 1706, 2836, 4674, 16, 11652, 1962, 710, 3397, 0, 0, 0, 2370, 45, 81, 89, 104, 149, 82, 14, 0, 0, 0, 12, 8, 26, 47, 15, 19, 14, 27, 12, 2754, 0, 1684, 29, 67, 38, 74, 91, 76, 23, 3, 0, 0, 8, 10, 15, 36, 30, 10, 7, 6, 6, 1957, 0, 69, 201, 475, 445, 274, 117, 11, 0, 0, 4000, 3636, 2807, 856, 491, 155, 100, 6, 5, 37, 1, 5, 0, 0, 0, 0, 0, 0, 0, 0, 491, 590, 511, 788, 0, 0, 1, 4, 49, 68, 94, 51, 13, 0, 0, 0, 0, 0, 0, 0, 0, 0, 0, 0, 58, 36, 23, 2, 5, 0, 0, 0, 0, 0, 0, 0, 242, 38, 13, 18, 7, 3, 4, 2, 2, 18, 10, 5, 5, 9, 3, 4, 4, 3, 5, 7, 3, 1, 4, 10, 2, 2, 4, 1, 2, 3, 1, 1, 5, 1, 2, 1, 0, 0, 1, 0, 0, 7, 89, 43, 16, 15, 0, 0, 0, 68, 39, 22, 20, 12, 11, 0, 0, 0, 7621, 71, 0, 0, 0, 0, 0, 0, 0, 0, 0, 0, 0, 0, 0, 0, 0, 0, 0, 0, 0, 0, 0, 0, 0, 2, 0, 0, 0, 2825, 1986, 0, 0, 215, 387, 65, 52, 13, 52, 0, 13, 3941000, 966750, 67, 47317952, 384, -1, 0, 33518125052500
1824, 169, 18, 151, 1526, 36, 13, 23, 3742, 762, 8951, 2032, 418, 99, 1993, 2, 1776, 3, 970, 27, 583, 0, 3824, 5643, 3139, 12766, 58, 76, 0, 0, 31, 0, 1267, 1402, 0, 0, 5672, 6, 38, 115, 49, 14, 19, 40, 9, 1402, 12, 33, 82, 992, 986, 1106, 752, 844, 1430, 5, 4588, 722, 239, 1370, 0, 0, 0, 961, 25, 32, 23, 32, 48, 49, 21, 15, 0, 0, 0, 61, 19, 35, 17, 13, 9, 10, 12, 1030, 0, 600, 9, 17, 28, 40, 21, 23, 19, 0, 0, 0, 54, 7, 12, 7, 16, 3, 18, 4, 2, 634, 0, 19, 54, 169, 151, 165, 21, 4, 0, 0, 1776, 927, 844, 126, 108, 15, 29, 0, 0, 0, 0, 0, 0, 0, 0, 0, 0, 0, 0, 0, 215, 209, 159, 248, 0, 0, 0, 5, 10, 37, 45, 9, 2, 0, 0, 0, 0, 0, 0, 0, 0, 0, 0, 0, 38, 18, 4, 0, 0, 0, 0, 0, 0, 0, 0, 0, 120, 8, 8, 8, 4, 0, 1, 1, 0, 10, 3, 0, 1, 2, 3, 0, 2, 2, 0, 0, 2, 0, 1, 0, 1, 0, 2, 0, 0, 1, 0, 0, 0, 0, 0, 0, 0, 0, 1, 0, 0, 6, 45, 18, 23, 10, 1, 0, 0, 55, 17, 17, 10, 3, 1, 0, 0, 0, 3016, 15, 0, 0, 0, 0, 0, 0, 0, 0, 0, 0, 0, 0, 0, 0, 0, 0, 0, 0, 0, 0, 0, 0, 0, 2, 0, 0, 0, 1179, 694, 0, 0, 66, 155, 27, 22, 5, 22, 0, 5, 2155750, 497000, 27, 3008, 384, 0, 0, 33518129528000
4460, 388, 12, 376, 4084, 92, 29, 63, 9304, 1439, 17946, 1553, 518, 105, 4848, 1, 4535, 1, 2432, 86, 1593, 0, 10063, 13918, 8284, 35230, 147, 118, 69, 42, 26, 0, 4365, 3375, 0, 0, 13081, 20, 178, 136, 113, 62, 97, 73, 39, 3375, 38, 79, 155, 1197, 1347, 3004, 1830, 2521, 4453, 17, 10678, 1768, 682, 3264, 0, 0, 0, 2267, 40, 80, 75, 90, 142, 76, 16, 0, 0, 0, 23, 1, 30, 45, 8, 8, 10, 23, 8, 2630, 0, 1639, 30, 62, 32, 67, 90, 79, 35, 0, 0, 0, 7, 2, 12, 27, 25, 8, 5, 5, 8, 1935, 0, 69, 201, 475, 445, 274, 118, 11, 0, 0, 3653, 3644, 2821, 842, 500, 169, 74, 8, 7, 61, 3, 5, 0, 0, 0, 0, 0, 0, 0, 0, 491, 592, 510, 790, 0, 0, 0, 6, 60, 66, 79, 60, 9, 0, 0, 0, 0, 0, 0, 0, 0, 0, 0, 0, 30, 34, 16, 2, 1, 0, 0, 0, 0, 0, 0, 0, 178, 37, 13, 18, 8, 3, 4, 2, 2, 15, 8, 5, 6, 7, 3, 4, 3, 3, 4, 5, 4, 1, 4, 9, 4, 1, 4, 1, 2, 1, 3, 1, 5, 2, 1, 0, 0, 1, 2, 0, 0, 7, 54, 27, 12, 10, 1, 0, 0, 39, 20, 19, 18, 6, 8, 1, 0, 0, 7391, 71, 0, 0, 0, 0, 0, 0, 0, 0, 0, 0, 0, 0, 0, 0, 0, 0, 0, 0, 0, 0, 0, 0, 0, 2, 0, 0, 0, 2721, 1958, 0, 0, 201, 418, 25, 17, 8, 17, 0, 8, 1325750, 640750, 27, 47284544, 64, -1, 0, 33718121217500
1604, 153, 4, 149, 1443, 34, 13, 21, 3622, 549, 6210, 474, 583, 51, 1758, 2, 1664, 5, 918, 27, 573, 0, 3728, 5356, 2986, 11150, 58, 82, 2, 3, 21, 0, 1052, 1232, 0, 0, 4972, 6, 41, 114, 40, 14, 18, 34, 8, 1232, 11, 23, 65, 988, 700, 720, 725, 788, 1463, 4, 3663, 570, 217, 1286, 0, 0, 0, 866, 20, 31, 26, 24, 41, 42, 22, 15, 0, 0, 3, 61, 4, 14, 8, 8, 7, 10, 16, 956, 0, 542, 15, 13, 21, 23, 16, 36, 23, 0, 0, 0, 61, 1, 8, 6, 7, 6, 15, 6, 1, 578, 0, 19, 55, 170, 153, 150, 22, 4, 0, 0, 1511, 938, 884, 141, 117, 78, 31, 1, 1, 1, 1, 0, 0, 0, 0, 0, 0, 0, 0, 0, 201, 208, 164, 242, 0, 0, 0, 4, 12, 33, 45, 10, 1, 0, 0, 0, 0, 0, 0, 0, 0, 0, 0, 0, 26, 12, 1, 0, 0, 1, 0, 0, 0, 0, 0, 0, 73, 7, 8, 8, 3, 0, 1, 1, 3, 5, 2, 0, 3, 1, 5, 0, 2, 1, 1, 1, 1, 0, 1, 1, 1, 0, 2, 0, 0, 0, 0, 1, 0, 0, 0, 0, 0, 0, 2, 0, 0, 2, 26, 8, 12, 5, 0, 0, 0, 25, 7, 13, 5, 1, 2, 0, 0, 0, 2845, 15, 0, 0, 0, 0, 0, 0, 0, 0, 0, 0, 0, 0, 0, 0, 0, 0, 0, 0, 0, 0, 0, 0, 0, 2, 0, 0, 0, 1085, 649, 0, 0, 61, 171, 9, 7, 2, 7, 0, 2, 552000, 149500, 9, 576, 256, 0, 0, 33718124322500
4487, 381, 9, 372, 4143, 101, 32, 69, 9407, 1386, 18516, 2212, 508, 94, 4868, 0, 4605, 1, 2460, 82, 1607, 0, 10170, 14091, 8355, 37070, 143, 117, 63, 42, 34, 0, 3977, 3402, 0, 0, 13217, 16, 187, 128, 107, 69, 106, 74, 36, 3402, 40, 70, 161, 1198, 1422, 2892, 1715, 2547, 4699, 19, 10565, 1773, 674, 3291, 0, 0, 0, 2262, 46, 77, 69, 86, 138, 96, 22, 0, 0, 0, 23, 2, 26, 46, 12, 14, 10, 18, 8, 2637, 0, 1688, 31, 60, 37, 67, 77, 85, 34, 0, 0, 0, 8, 4, 8, 38, 29, 13, 3, 13, 8, 1955, 0, 69, 204, 476, 454, 272, 121, 11, 0, 0, 3566, 3525, 2923, 905, 541, 176, 76, 8, 25, 59, 3, 5, 0, 0, 0, 0, 0, 0, 0, 0, 496, 598, 513, 792, 0, 0, 0, 7, 51, 69, 84, 63, 9, 0, 0, 0, 0, 0, 0, 0, 0, 0, 0, 0, 38, 21, 12, 1, 2, 1, 0, 0, 0, 0, 0, 0, 169, 32, 13, 18, 7, 3, 3, 2, 2, 17, 7, 6, 6, 6, 3, 4, 3, 3, 5, 5, 3, 1, 3, 9, 4, 1, 3, 1, 2, 2, 3, 1, 6, 1, 0, 1, 0, 0, 3, 0, 0, 3, 49, 19, 13, 14, 0, 0, 0, 40, 15, 21, 11, 6, 6, 1, 0, 0, 7434, 72, 0, 0, 0, 0, 0, 0, 0, 0, 0, 0, 0, 0, 0, 0, 0, 0, 0, 0, 0, 0, 0, 0, 0, 2, 0, 0, 0, 2751, 2000, 0, 0, 195, 410, 33, 21, 12, 21, 0, 12, 1723750, 833500, 35, 47305536, 256, -1, 0, 33918119369000
1607, 159, 11, 148, 1479, 31, 8, 23, 3742, 439, 7101, 890, 526, 49, 1766, 2, 1687, 3, 970, 27, 583, 0, 3824, 5440, 3038, 11675, 58, 88, 2, 3, 21, 0, 1237, 1217, 0, 0, 4962, 6, 36, 121, 44, 12, 17, 32, 7, 1217, 12, 27, 44, 1063, 715, 795, 760, 733, 1342, 0, 4125, 587, 216, 1283, 0, 0, 0, 895, 17, 26, 23, 28, 41, 44, 20, 20, 0, 0, 0, 63, 23, 15, 9, 6, 5, 0, 0, 993, 0, 518, 12, 15, 21, 28, 18, 34, 25, 1, 0, 0, 60, 2, 4, 2, 7, 3, 9, 0, 1, 584, 0, 19, 54, 169, 151, 165, 21, 4, 0, 0, 1591, 860, 843, 133, 116, 78, 31, 1, 1, 1, 1, 0, 0, 0, 0, 0, 0, 0, 0, 0, 215, 209, 159, 248, 0, 0, 0, 3, 11, 35, 43, 15, 0, 0, 0, 0, 0, 0, 0, 0, 0, 0, 0, 0, 21, 9, 2, 0, 0, 0, 0, 0, 0, 0, 0, 0, 70, 7, 8, 8, 2, 0, 1, 1, 4, 5, 2, 0, 3, 1, 4, 0, 2, 1, 1, 1, 1, 0, 1, 1, 1, 0, 1, 0, 0, 0, 0, 1, 0, 0, 0, 0, 0, 0, 2, 0, 0, 2, 18, 10, 11, 9, 1, 0, 0, 29, 5, 11, 5, 1, 0, 0, 0, 0, 2880, 15, 0, 0, 0, 0, 0, 0, 0, 0, 0, 0, 0, 0, 0, 0, 0, 0, 0, 0, 0, 0, 0, 0, 0, 2, 0, 0, 0, 1102, 636, 0, 0, 59, 167, 12, 9, 3, 8, 0, 3, 704750, 253500, 11, 1600, 320, 0, 0, 33918122919500
4660, 368, 7, 361, 4228, 111, 40, 71, 9627, 1524, 18873, 2233, 510, 92, 5028, 0, 4726, 1, 2519, 90, 1648, 0, 10394, 14504, 8620, 38138, 154, 120, 61, 40, 26, 0, 4297, 3545, 0, 0, 13673, 16, 189, 123, 114, 73, 101, 68, 37, 3545, 33, 66, 174, 1172, 1378, 3134, 2177, 2509, 4605, 20, 10732, 1803, 706, 3398, 0, 0, 0, 2351, 44, 86, 60, 97, 133, 99, 32, 0, 0, 0, 14, 2, 28, 52, 24, 13, 8, 12, 13, 2736, 0, 1724, 29, 66, 36, 75, 87, 78, 24, 0, 0, 0, 10, 7, 11, 35, 22, 5, 6, 4, 12, 2007, 0, 72, 210, 494, 453, 285, 123, 11, 0, 0, 3708, 3803, 2952, 826, 537, 156, 75, 6, 12, 50, 3, 5, 0, 0, 0, 0, 0, 0, 0, 0, 505, 621, 522, 818, 0, 0, 0, 9, 48, 75, 88, 61, 9, 0, 0, 0, 0, 0, 0, 0, 0, 0, 0, 0, 29, 24, 16, 1, 1, 3, 0, 0, 0, 0, 0, 0, 175, 34, 14, 20, 6, 6, 3, 2, 3, 15, 6, 5, 5, 8, 3, 5, 4, 2, 6, 6, 3, 2, 6, 9, 4, 1, 3, 1, 3, 2, 3, 2, 5, 1, 0, 0, 0, 0, 2, 1, 0, 3, 55, 19, 12, 8, 0, 0, 0, 30, 18, 11, 14, 12, 11, 1, 0, 0, 7676, 78, 0, 0, 0, 0, 0, 0, 0, 0, 0, 0, 0, 0, 0, 0, 0, 0, 0, 0, 0, 0, 0, 0, 0, 2, 0, 0, 0, 2837, 2043, 0, 0, 207, 411, 23, 14, 9, 14, 0, 9, 1552000, 873750, 25, 47317824, 256, -1, 0, 34118117430000
2466, 202, 19, 183, 1805, 48, 6, 41, 4998, 693, 12038, 2499, 415, 104, 2668, 2, 2063, 4, 1127, 34, 812, 0, 5080, 7059, 3975, 17220, 142, 90, 0, 3, 36, 0, 2784, 1828, 0, 0, 7545, 33, 70, 175, 91, 31, 25, 36, 13, 1828, 23, 52, 213, 1162, 1207, 1496, 1352, 1053, 1808, 7, 6640, 790, 379, 1730, 0, 0, 0, 1005, 39, 50, 44, 49, 63, 52, 23, 20, 0, 0, 1, 74, 4, 38, 21, 11, 10, 0, 0, 1186, 0, 698, 27, 23, 28, 46, 42, 29, 23, 4, 0, 0, 60, 5, 12, 10, 7, 6, 9, 2, 1, 808, 0, 25, 70, 263, 221, 198, 30, 5, 0, 0, 2208, 1157, 979, 186, 121, 113, 34, 0, 0, 0, 0, 0, 0, 0, 0, 0, 0, 0, 0, 0, 293, 263, 256, 316, 0, 0, 1, 4, 13, 43, 50, 32, 1, 0, 0, 0, 0, 0, 0, 0, 0, 0, 0, 0, 37, 14, 3, 2, 0, 2, 0, 0, 0, 0, 0, 0, 129, 45, 10, 15, 4, 11, 24, 14, 9, 10, 9, 0, 6, 1, 5, 1, 6, 1, 2, 2, 2, 1, 0, 1, 1, 0, 2, 0, 0, 0, 1, 1, 0, 0, 0, 1, 0, 0, 2, 0, 0, 3, 41, 46, 12, 4, 1, 0, 0, 63, 19, 14, 7, 2, 3, 0, 0, 0, 4089, 19, 0, 0, 0, 0, 0, 0, 0, 0, 0, 0, 0, 0, 0, 0, 0, 0, 0, 0, 0, 0, 0, 0, 0, 2, 0, 0, 0, 1341, 855, 0, 0, 199, 199, 35, 28, 7, 28, 0, 7, 1993250, 562500, 35, 3648, 448, 0, 0, 34118123449000
4253, 371, 8, 363, 4039, 94, 31, 63, 9246, 1033, 17658, 2478, 523, 60, 4624, 0, 4459, 1, 2423, 82, 1585, 0, 9997, 13659, 8113, 35424, 143, 144, 63, 40, 26, 0, 3814, 3204, 0, 0, 12387, 19, 186, 135, 113, 61, 97, 71, 41, 3204, 28, 68, 155, 1187, 1232, 2903, 1626, 2385, 4306, 17, 9734, 1658, 647, 3140, 0, 0, 0, 2175, 31, 58, 58, 77, 128, 110, 46, 2, 0, 0, 24, 2, 24, 45, 12, 14, 1, 9, 6, 2548, 0, 1580, 22, 55, 29, 68, 82, 89, 39, 3, 0, 0, 7, 2, 5, 47, 20, 5, 2, 3, 7, 1869, 0, 69, 201, 472, 445, 269, 118, 11, 0, 0, 3431, 3339, 3022, 790, 511, 169, 67, 6, 12, 44, 3, 5, 0, 0, 0, 0, 0, 0, 0, 0, 489, 591, 505, 786, 0, 0, 1, 7, 52, 71, 76, 62, 10, 0, 0, 0, 0, 0, 0, 0, 0, 0, 0, 0, 16, 19, 8, 2, 1, 0, 0, 0, 0, 0, 0, 0, 134, 32, 13, 19, 9, 2, 1, 0, 3, 16, 7, 5, 6, 7, 4, 5, 4, 2, 7, 5, 3, 1, 3, 9, 3, 2, 3, 1, 2, 1, 2, 1, 5, 2, 0, 0, 0, 0, 1, 0, 0, 3, 32, 14, 9, 3, 1, 0, 0, 21, 10, 13, 7, 5, 5, 1, 0, 0, 7192, 71, 0, 0, 0, 0, 0, 0, 0, 0, 0, 0, 0, 0, 0, 0, 0, 0, 0, 0, 0, 0, 0, 0, 0, 2, 0, 0, 0, 2654, 1915, 0, 0, 190, 408, 20, 17, 3, 17, 0, 3, 1582250, 238750, 22, 47316864, 192, -1, 0, 34318114638500
1581, 145, 5, 140, 1479, 30, 8, 22, 3744, 420, 6254, 508, 598, 35, 1726, 1, 1686, 5, 970, 27, 584, 0, 3825, 5435, 3026, 11183, 58, 82, 0, 1, 21, 0, 1246, 1182, 0, 0, 4839, 5, 39, 131, 41, 10, 18, 30, 7, 1182, 15, 25, 45, 1121, 653, 730, 801, 741, 1223, 6, 3673, 588, 215, 1270, 0, 0, 0, 880, 13, 20, 19, 31, 51, 39, 22, 20, 0, 0, 0, 61, 35, 12, 11, 6, 4, 0, 0, 966, 0, 531, 12, 8, 11, 19, 37, 37, 26, 4, 0, 0, 63, 1, 3, 2, 0, 7, 11, 0, 1, 597, 0, 19, 55, 169, 151, 165, 21, 4, 0, 0, 1578, 878, 849, 134, 115, 81, 31, 1, 1, 1, 1, 0, 0, 0, 0, 0, 0, 0, 0, 0, 216, 208, 160, 246, 0, 0, 0, 2, 8, 39, 43, 14, 1, 0, 0, 0, 0, 0, 0, 0, 0, 0, 0, 0, 16, 11, 1, 0, 0, 0, 0, 0, 0, 0, 0, 0, 56, 7, 8, 8, 2, 0, 1, 0, 4, 5, 2, 0, 3, 1, 5, 0, 1, 1, 1, 1, 1, 0, 1, 0, 1, 0, 2, 0, 0, 0, 0, 1, 0, 0, 0, 0, 0, 0, 2, 0, 0, 1, 16, 5, 8, 6, 0, 0, 0, 16, 5, 8, 6, 1, 0, 0, 0, 0, 2851, 15, 0, 0, 0, 0, 0, 0, 0, 0, 0, 0, 0, 0, 0, 0, 0, 0, 0, 0, 0, 0, 0, 0, 0, 2, 0, 0, 0, 1089, 643, 0, 0, 58, 164, 6, 5, 1, 4, 0, 1, 377750, 89250, 5, 1216, 320, 0, 0, 34318117765500
4216, 352, 8, 344, 4027, 86, 27, 59, 9239, 1047, 15605, 897, 592, 58, 4568, 0, 4451, 1, 2419, 82, 1584, 0, 9991, 13663, 8105, 34878, 143, 131, 65, 40, 29, 0, 3813, 3182, 0, 0, 12274, 16, 183, 128, 112, 59, 98, 71, 35, 3182, 30, 66, 148, 1175, 1273, 2740, 1646, 2168, 4511, 16, 9227, 1696, 657, 3127, 0, 0, 0, 2179, 33, 71, 57, 76, 126, 100, 34, 2, 0, 0, 24, 3, 27, 39, 10, 12, 1, 9, 4, 2549, 0, 1598, 23, 59, 30, 65, 80, 86, 32, 1, 0, 0, 7, 2, 6, 37, 19, 5, 2, 3, 7, 1886, 0, 69, 201, 472, 444, 269, 118, 11, 0, 0, 3390, 3475, 2941, 778, 523, 185, 76, 8, 13, 59, 3, 5, 0, 0, 0, 0, 0, 0, 0, 0, 489, 590, 505, 784, 0, 0, 1, 5, 56, 74, 68, 60, 15, 0, 0, 0, 0, 0, 0, 0, 0, 0, 0, 0, 16, 19, 8, 1, 1, 0, 0, 0, 0, 0, 0, 0, 133, 31, 13, 19, 8, 4, 2, 1, 4, 14, 7, 5, 5, 6, 3, 4, 4, 2, 6, 6, 3, 1, 4, 8, 3, 1, 3, 1, 2, 2, 3, 1, 5, 2, 0, 0, 0, 1, 1, 0, 0, 3, 31, 16, 8, 3, 0, 0, 0, 20, 12, 11, 6, 7, 4, 1, 0, 0, 7195, 72, 0, 0, 0, 0, 0, 0, 0, 0, 0, 0, 0, 0, 0, 0, 0, 0, 0, 0, 0, 0, 0, 0, 0, 2, 0, 0, 0, 2649, 1919, 0, 0, 189, 395, 10, 5, 4, 5, 0, 3, 562000, 379000, 11, 47316672, 192, -1, 0, 34518111667500
1507, 144, 6, 138, 1405, 30, 11, 19, 3622, 360, 5448, 7, 664, 27, 1651, 1, 1621, 3, 918, 27, 573, 0, 3728, 5269, 2931, 10651, 58, 85, 0, 1, 21, 0, 1084, 1136, 0, 0, 4654, 4, 40, 117, 40, 13, 17, 30, 7, 1136, 13, 20, 45, 1020, 594, 813, 687, 663, 1291, 6, 3470, 540, 208, 1223, 0, 0, 0, 802, 13, 20, 16, 26, 45, 50, 25, 20, 0, 0, 3, 61, 1, 9, 7, 1, 1, 0, 0, 934, 0, 522, 11, 8, 15, 24, 25, 34, 26, 4, 0, 0, 56, 0, 3, 3, 5, 2, 9, 0, 1, 590, 0, 19, 55, 170, 153, 150, 22, 4, 0, 0, 1425, 889, 881, 138, 115, 81, 31, 1, 1, 1, 1, 0, 0, 0, 0, 0, 0, 0, 0, 0, 201, 208, 164, 242, 0, 0, 0, 4, 12, 35, 38, 14, 1, 0, 0, 0, 0, 0, 0, 0, 0, 0, 0, 0, 15, 8, 1, 0, 0, 0, 0, 0, 0, 0, 0, 0, 48, 7, 8, 8, 2, 0, 1, 0, 4, 5, 2, 0, 3, 1, 5, 0, 1, 1, 1, 1, 1, 0, 1, 0, 1, 0, 2, 0, 1, 0, 0, 1, 0, 0, 0, 0, 0, 0, 2, 0, 0, 1, 13, 5, 6, 3, 0, 0, 0, 11, 4, 7, 4, 1, 1, 0, 0, 0, 2774, 15, 0, 0, 0, 0, 0, 0, 0, 0, 0, 0, 0, 0, 0, 0, 0, 0, 0, 0, 0, 0, 0, 0, 0, 2, 0, 0, 0, 1028, 638, 0, 0, 59, 162, 1, 0, 1, 0, 0, 1, 0, 74500, 1, 832, 256, 0, 0, 34518114391500
5971, 315, 16, 299, 4643, 111, 38, 73, 10592, 1322, 67378, 4621, 157, 98, 6286, 4, 5258, 5, 2919, 76, 1731, 0, 11248, 15776, 9268, 86501, 131, 92, 53, 21, 26, 0, 49920, 4309, 0, 0, 17720, 12, 154, 242, 118, 136, 75, 57, 31, 4309, 42, 89, 195, 1255, 1398, 6197, 3828, 2794, 3734, 15, 56404, 2091, 733, 3528, 0, 0, 0, 2555, 45, 59, 65, 67, 127, 100, 44, 28, 117, 0, 29, 1, 30, 30, 12, 26, 10, 9, 14, 3046, 0, 1811, 25, 49, 30, 75, 70, 64, 25, 11, 24, 0, 7, 2, 18, 42, 20, 12, 8, 10, 7, 2058, 0, 53, 217, 450, 589, 320, 77, 25, 0, 0, 4234, 3505, 2796, 1002, 440, 113, 50, 4, 4, 25, 3, 5, 0, 0, 0, 0, 0, 0, 0, 0, 485, 715, 531, 888, 0, 0, 0, 6, 29, 146, 69, 56, 8, 0, 0, 0, 0, 0, 0, 0, 0, 0, 0, 0, 31, 15, 10, 2, 2, 2, 0, 0, 0, 0, 0, 0, 261, 28, 12, 16, 11, 3, 46, 0, 8, 15, 12, 5, 6, 5, 5, 4, 2, 3, 5, 4, 4, 1, 5, 7, 2, 2, 47, 0, 2, 0, 0, 0, 4, 3, 0, 0, 0, 1, 1, 0, 1, 12, 39, 21, 24, 3, 1, 0, 0, 49, 10, 21, 9, 4, 6, 1, 0, 0, 8129, 57, 0, 0, 0, 0, 0, 0, 0, 0, 0, 0, 0, 0, 0, 0, 0, 0, 0, 0, 0, 0, 0, 0, 0, 2, 0, 0, 0, 3253, 2112, 0, 0, 276, 316, 71, 48, 22, 48, 0, 21, 3571750, 2264000, 169, 7393024, 384, -1, 0, 34549404601000
2127, 200, 19, 181, 1899, 58, 15, 43, 4396, 880, 15626, 6723, 281, 99, 2327, 0, 2103, 8, 1216, 45, 712, 0, 4548, 6058, 3743, 15929, 70, 185, 27, 39, 125, 0, 1920, 1801, 0, 0, 6831, 12, 33, 64, 35, 71, 15, 26, 25, 1801, 22, 40, 90, 145, 643, 2434, 1007, 957, 2078, 7, 6239, 755, 284, 1625, 0, 0, 0, 1224, 30, 41, 40, 57, 36, 24, 12, 8, 7, 0, 0, 4, 3, 26, 14, 6, 21, 4, 0, 1401, 0, 614, 19, 16, 27, 46, 40, 32, 17, 0, 0, 0, 2, 4, 9, 1, 10, 2, 2, 0, 1, 780, 0, 22, 49, 189, 229, 186, 33, 4, 0, 0, 1394, 1951, 1089, 571, 259, 20, 45, 1, 0, 0, 0, 0, 0, 0, 0, 0, 0, 0, 0, 0, 172, 316, 224, 406, 0, 0, 0, 2, 8, 24, 65, 27, 2, 0, 0, 0, 0, 0, 0, 0, 0, 0, 0, 0, 42, 20, 7, 2, 1, 4, 0, 0, 0, 0, 0, 0, 125, 10, 8, 8, 1, 4, 0, 4, 1, 7, 4, 1, 2, 1, 2, 2, 3, 2, 0, 1, 0, 1, 1, 2, 1, 2, 1, 0, 1, 0, 0, 0, 1, 0, 0, 2, 1, 0, 2, 0, 0, 3, 50, 27, 14, 8, 1, 0, 0, 45, 22, 14, 12, 8, 2, 1, 0, 0, 3539, 7, 0, 0, 0, 0, 0, 0, 0, 0, 0, 0, 0, 0, 0, 0, 0, 0, 0, 0, 0, 0, 0, 0, 0, 2, 0, 0, 0, 1415, 767, 0, 0, 80, 134, 99, 80, 17, 80, 0, 16, 5555000, 1357000, 98, 8128, 384, 674, 0, 34549412414000
147225, 9266, 308, 8958, 119234, 3651, 1366, 2285, 273509, 31709, 730127, 27581, 374, 3019, 157067, 201, 132598, 125, 71907, 5576, 51419, 0, 300199, 378123, 232315, 1561323, 11554, 2949, 328, 101, 406, 0, 373936, 135966, 0, 0, 409456, 1693, 3631, 2453, 3341, 1922, 2073, 2565, 1374, 135966, 1037, 2176, 4581, 10541, 53108, 89022, 80775, 86795, 136885, 522, 546754, 35159, 17846, 102786, 0, 0, 1, 61666, 1473, 1692, 2595, 3684, 3901, 3846, 142, 1, 0, 0, 240, 200, 213, 639, 869, 397, 160, 56, 1390, 74836, 0, 49045, 713, 1116, 1562, 2555, 4248, 3355, 730, 0, 0, 0, 248, 19, 469, 127, 816, 199, 115, 424, 347, 60560, 0, 2079, 8821, 14130, 13913, 9929, 2278, 269, 0, 0, 98338, 90062, 42420, 23558, 12929, 5812, 3080, 314, 137, 184, 0, 0, 0, 0, 0, 0, 0, 0, 0, 0, 18912, 14632, 17875, 19684, 0, 0, 5, 105, 937, 2608, 2833, 1853, 126, 0, 0, 0, 0, 0, 0, 0, 0, 0, 0, 0, 1237, 535, 159, 47, 96, 11, 1, 0, 0, 0, 0, 0, 6420, 1709, 1181, 1173, 330, 282, 4, 386, 378, 1092, 287, 341, 51, 144, 238, 325, 425, 373, 290, 140, 145, 421, 365, 187, 50, 142, 49, 3, 139, 45, 92, 3, 94, 188, 229, 49, 92, 47, 46, 0, 48, 156, 1503, 528, 351, 259, 10, 0, 0, 1156, 859, 393, 554, 112, 16, 3, 0, 0, 221515, 101, 0, 0, 0, 0, 0, 0, 0, 0, 0, 0, 0, 0, 0, 0, 0, 0, 0, 0, 0, 0, 0, 0, 0, 2, 0, 0, 0, 77730, 60450, 0, 0, 11701, 11555, 372, 299, 69, 298, 0, 69, 23103500, 5317000, 653, 113088, 2432, 0, 0, 34549777477500
4101, 544, 29, 515, 4025, 139, 43, 96, 9119, 1290, 33973, 14173, 268, 98, 4644, 4, 4476, 1, 2420, 84, 1555, 0, 9918, 13650, 8135, 37560, 145, 91, 62, 37, 9, 0, 4296, 3231, 0, 0, 12588, 19, 173, 105, 108, 62, 99, 76, 43, 3231, 37, 88, 183, 1030, 1300, 2771, 1693, 2200, 4745, 14, 14196, 1799, 655, 3149, 0, 0, 0, 2204, 38, 72, 57, 94, 132, 117, 40, 1, 0, 0, 7, 2, 22, 62, 16, 15, 0, 11, 6, 2614, 0, 1567, 29, 56, 31, 93, 98, 101, 34, 2, 0, 0, 7, 5, 9, 47, 12, 8, 4, 3, 6, 1910, 0, 70, 205, 454, 424, 273, 118, 11, 0, 0, 3664, 3209, 2794, 688, 403, 150, 53, 3, 9, 26, 2, 0, 0, 0, 0, 0, 0, 0, 0, 0, 473, 586, 496, 786, 0, 0, 0, 7, 56, 74, 67, 64, 8, 0, 0, 0, 0, 0, 0, 0, 0, 0, 0, 0, 35, 21, 12, 1, 1, 3, 0, 0, 0, 0, 0, 0, 173, 33, 12, 18, 5, 5, 3, 5, 4, 16, 12, 7, 2, 7, 4, 3, 6, 1, 3, 4, 4, 1, 2, 9, 2, 1, 4, 2, 1, 1, 0, 1, 5, 2, 2, 0, 2, 0, 1, 0, 0, 8, 45, 31, 10, 5, 2, 0, 0, 38, 21, 20, 10, 8, 4, 1, 0, 0, 7167, 73, 0, 0, 0, 0, 0, 0, 0, 0, 0, 0, 0, 0, 0, 0, 0, 0, 0, 0, 0, 0, 0, 0, 0, 2, 0, 0, 0, 2698, 1932, 0, 0, 197, 461, 161, 138, 23, 136, 0, 21, 10464250, 2158750, 159, 39848704, 896, -1, 0, 34718116589500
1510, 186, 19, 167, 1451, 48, 10, 38, 3742, 344, 10504, 3717, 356, 38, 1696, 0, 1668, 1, 970, 27, 583, 0, 3824, 5387, 3005, 12116, 58, 103, 0, 0, 21, 0, 1048, 1152, 0, 0, 4755, 5, 37, 134, 41, 12, 16, 31, 8, 1152, 10, 23, 48, 1184, 638, 565, 753, 819, 1218, 5, 4742, 601, 215, 1229, 0, 0, 0, 831, 13, 19, 26, 42, 54, 40, 29, 18, 0, 0, 0, 63, 33, 7, 6, 3, 5, 6, 6, 943, 0, 503, 7, 9, 10, 28, 30, 30, 42, 4, 0, 0, 64, 1, 0, 1, 5, 1, 9, 0, 1, 581, 0, 19, 54, 169, 151, 165, 21, 4, 0, 0, 1549, 853, 813, 108, 105, 105, 39, 2, 1, 2, 1, 5, 0, 0, 0, 0, 0, 0, 0, 0, 215, 209, 159, 248, 0, 0, 1, 2, 18, 33, 40, 12, 1, 0, 0, 0, 0, 0, 0, 0, 0, 0, 0, 0, 15, 12, 1, 0, 0, 0, 0, 0, 0, 0, 0, 0, 59, 7, 8, 9, 2, 0, 1, 0, 4, 6, 3, 0, 4, 1, 3, 0, 2, 1, 1, 1, 1, 0, 0, 0, 1, 0, 2, 0, 0, 0, 0, 1, 0, 0, 0, 0, 0, 0, 1, 0, 0, 2, 18, 9, 7, 4, 0, 0, 0, 23, 4, 8, 4, 2, 0, 0, 0, 0, 2838, 14, 0, 0, 0, 0, 0, 0, 0, 0, 0, 0, 0, 0, 0, 0, 0, 0, 0, 0, 0, 0, 0, 0, 0, 2, 0, 0, 0, 1071, 634, 0, 0, 59, 157, 50, 43, 7, 43, 0, 7, 3023750, 569750, 50, 4288, 576, 0, 0, 34718121841500
4304, 369, 18, 351, 4080, 96, 35, 61, 9311, 1215, 18623, 2698, 499, 71, 4673, 0, 4509, 2, 2442, 82, 1593, 0, 10073, 13847, 8235, 36319, 143, 126, 50, 34, 9, 0, 3828, 3230, 0, 0, 12542, 20, 187, 133, 115, 60, 100, 71, 39, 3230, 31, 68, 164, 1207, 1189, 2690, 1595, 2228, 4871, 18, 10316, 1759, 659, 3190, 0, 0, 0, 2221, 38, 73, 62, 81, 132, 108, 27, 0, 0, 0, 23, 3, 25, 41, 14, 18, 3, 10, 6, 2599, 0, 1598, 28, 63, 31, 70, 82, 91, 31, 0, 0, 0, 7, 4, 8, 28, 14, 8, 2, 3, 6, 1914, 0, 69, 202, 472, 448, 272, 119, 11, 0, 0, 3543, 3453, 2958, 882, 506, 184, 76, 8, 13, 59, 3, 5, 0, 0, 0, 0, 0, 0, 0, 0, 492, 593, 508, 788, 0, 0, 0, 9, 45, 79, 78, 57, 12, 0, 0, 0, 0, 0, 0, 0, 0, 0, 0, 0, 19, 23, 12, 1, 1, 0, 0, 0, 0, 0, 0, 0, 146, 31, 13, 19, 8, 5, 2, 0, 5, 14, 6, 6, 5, 5, 3, 5, 4, 1, 5, 5, 3, 1, 4, 9, 3, 1, 3, 2, 2, 2, 2, 1, 6, 2, 0, 0, 0, 0, 2, 0, 0, 3, 35, 19, 10, 7, 0, 0, 0, 28, 10, 14, 9, 9, 5, 1, 0, 0, 7296, 73, 0, 0, 0, 0, 0, 0, 0, 0, 0, 0, 0, 0, 0, 0, 0, 0, 0, 0, 0, 0, 0, 0, 0, 2, 0, 0, 0, 2698, 1934, 0, 0, 189, 376, 39, 31, 7, 31, 0, 7, 2568250, 555750, 41, 47317376, 256, -1, 0, 34918108721000
1489, 151, 12, 139, 1412, 23, 4, 19, 3622, 356, 6236, 734, 580, 27, 1640, 1, 1613, 3, 918, 27, 573, 0, 3728, 5257, 2935, 10690, 58, 83, 0, 0, 21, 0, 1079, 1119, 0, 0, 4593, 4, 41, 119, 41, 15, 16, 32, 7, 1119, 11, 24, 38, 962, 634, 673, 707, 762, 1279, 7, 3529, 554, 200, 1219, 0, 0, 0, 801, 13, 20, 18, 22, 47, 53, 29, 20, 0, 0, 0, 61, 1, 7, 13, 2, 0, 0, 0, 939, 0, 503, 11, 8, 16, 30, 32, 38, 16, 4, 0, 0, 49, 1, 3, 2, 5, 2, 9, 0, 1, 586, 0, 19, 55, 170, 153, 150, 22, 4, 0, 0, 1457, 886, 844, 166, 105, 44, 29, 0, 0, 0, 0, 0, 0, 0, 0, 0, 0, 0, 0, 0, 201, 208, 164, 242, 0, 0, 1, 5, 11, 30, 47, 10, 1, 0, 0, 0, 0, 0, 0, 0, 0, 0, 0, 0, 14, 8, 1, 0, 0, 0, 0, 0, 0, 0, 0, 0, 48, 7, 8, 8, 2, 0, 1, 0, 4, 5, 3, 0, 3, 1, 5, 0, 1, 0, 1, 1, 1, 0, 1, 1, 1, 0, 2, 0, 0, 0, 0, 1, 0, 0, 0, 0, 0, 0, 2, 0, 0, 1, 13, 4, 6, 3, 0, 0, 0, 11, 3, 8, 4, 2, 0, 0, 0, 0, 2773, 15, 0, 0, 0, 0, 0, 0, 0, 0, 0, 0, 0, 0, 0, 0, 0, 0, 0, 0, 0, 0, 0, 0, 0, 2, 0, 0, 0, 1025, 630, 0, 0, 59, 155, 9, 9, 0, 9, 0, 0, 715250, 0, 9, 1088, 320, 0, 0, 34918111839000
4646, 362, 6, 356, 4206, 94, 27, 67, 9630, 1408, 17064, 988, 564, 86, 5008, 0, 4670, 1, 2520, 90, 1649, 0, 10400, 14371, 8532, 37423, 154, 123, 65, 40, 26, 0, 4237, 3489, 0, 0, 13535, 18, 196, 132, 118, 65, 106, 70, 37, 3489, 38, 68, 168, 1188, 1342, 2996, 1928, 2555, 4846, 22, 10221, 1792, 694, 3368, 0, 0, 0, 2332, 45, 85, 59, 89, 134, 92, 29, 0, 0, 0, 21, 4, 28, 47, 17, 12, 9, 13, 12, 2702, 0, 1696, 32, 67, 32, 72, 88, 85, 21, 0, 0, 0, 9, 6, 8, 34, 18, 6, 6, 7, 11, 1988, 0, 72, 210, 494, 454, 285, 123, 11, 0, 0, 3646, 3767, 3051, 810, 519, 177, 76, 8, 13, 59, 3, 5, 0, 0, 0, 0, 0, 0, 0, 0, 505, 621, 523, 818, 0, 0, 1, 4, 52, 65, 91, 63, 14, 0, 0, 0, 0, 0, 0, 0, 0, 0, 0, 0, 28, 22, 17, 1, 1, 1, 0, 0, 0, 0, 0, 0, 167, 32, 14, 19, 7, 6, 3, 0, 2, 17, 8, 5, 5, 10, 4, 6, 4, 1, 5, 6, 2, 2, 7, 9, 4, 1, 3, 2, 3, 2, 2, 2, 5, 2, 0, 0, 0, 0, 1, 1, 0, 3, 52, 21, 11, 5, 0, 0, 0, 30, 15, 16, 13, 10, 7, 1, 0, 0, 7611, 76, 0, 0, 0, 0, 0, 0, 0, 0, 0, 0, 0, 0, 0, 0, 0, 0, 0, 0, 0, 0, 0, 0, 0, 2, 0, 0, 0, 2797, 2020, 0, 0, 208, 405, 20, 11, 9, 11, 0, 9, 838750, 737250, 22, 47317760, 192, -1, 0, 35118106000500
2293, 191, 11, 180, 1840, 52, 12, 40, 5073, 581, 9886, 882, 513, 66, 2484, 1, 2083, 2, 1164, 34, 816, 0, 5137, 7107, 4000, 16527, 130, 95, 1, 4, 36, 0, 2498, 1667, 0, 0, 6800, 17, 75, 206, 80, 21, 25, 37, 13, 1667, 23, 49, 260, 1251, 1276, 1129, 1012, 1004, 1611, 6, 6180, 766, 364, 1694, 0, 0, 0, 1018, 26, 35, 31, 50, 78, 55, 27, 20, 0, 0, 2, 62, 38, 13, 15, 8, 3, 0, 0, 1199, 0, 687, 14, 15, 21, 42, 65, 38, 13, 4, 0, 0, 66, 1, 13, 1, 5, 8, 9, 2, 8, 786, 0, 25, 69, 265, 210, 213, 29, 5, 0, 0, 2219, 1096, 933, 226, 140, 113, 48, 0, 0, 0, 0, 0, 0, 0, 0, 0, 0, 0, 0, 0, 307, 252, 257, 310, 0, 0, 0, 4, 22, 38, 55, 25, 2, 0, 0, 0, 0, 0, 0, 0, 0, 0, 0, 0, 23, 15, 3, 2, 0, 1, 0, 0, 0, 0, 0, 0, 92, 34, 10, 20, 4, 3, 19, 23, 16, 8, 3, 1, 4, 1, 6, 3, 5, 1, 1, 1, 1, 1, 0, 0, 1, 1, 2, 0, 1, 0, 1, 1, 0, 0, 0, 0, 0, 0, 1, 0, 0, 3, 25, 19, 13, 6, 1, 0, 0, 31, 14, 13, 5, 3, 2, 0, 0, 0, 4068, 20, 0, 0, 0, 0, 0, 0, 0, 0, 0, 0, 0, 0, 0, 0, 0, 0, 0, 0, 0, 0, 0, 0, 0, 2, 0, 0, 0, 1331, 843, 0, 0, 177, 214, 12, 8, 4, 8, 0, 4, 572500, 313750, 12, 1920, 384, 0, 0, 35118110943500
4266, 378, 8, 370, 4040, 89, 26, 63, 9291, 1051, 16902, 1510, 549, 65, 4644, 0, 4458, 1, 2434, 83, 1588, 0, 10047, 13729, 8146, 35656, 143, 129, 61, 40, 26, 0, 3815, 3225, 0, 0, 12439, 18, 187, 133, 115, 61, 98, 73, 36, 3225, 31, 66, 144, 1243, 1289, 2754, 1630, 2180, 4604, 19, 9860, 1726, 677, 3128, 0, 0, 0, 2193, 33, 72, 60, 75, 136, 101, 35, 2, 0, 0, 24, 2, 26, 34, 15, 25, 1, 9, 6, 2565, 0, 1572, 24, 61, 29, 66, 83, 93, 37, 1, 0, 0, 7, 2, 4, 32, 20, 5, 2, 3, 8, 1883, 0, 69, 201, 472, 446, 270, 118, 12, 0, 0, 3477, 3448, 2958, 728, 521, 171, 88, 6, 12, 50, 3, 5, 0, 0, 0, 0, 0, 0, 0, 0, 489, 592, 507, 788, 0, 0, 2, 4, 56, 79, 66, 60, 13, 0, 0, 0, 0, 0, 0, 0, 0, 0, 0, 0, 20, 20, 7, 2, 1, 0, 0, 0, 0, 0, 0, 0, 139, 31, 14, 19, 9, 3, 1, 0, 3, 15, 7, 5, 6, 7, 3, 6, 4, 3, 5, 5, 2, 1, 4, 8, 4, 1, 3, 2, 1, 1, 3, 1, 5, 2, 0, 0, 0, 0, 1, 0, 0, 3, 34, 17, 9, 3, 1, 0, 0, 24, 13, 13, 8, 5, 4, 1, 0, 0, 7230, 75, 0, 0, 0, 0, 0, 0, 0, 0, 0, 0, 0, 0, 0, 0, 0, 0, 0, 0, 0, 0, 0, 0, 0, 2, 0, 0, 0, 2661, 1915, 0, 0, 190, 419, 16, 11, 5, 11, 0, 5, 1052250, 374000, 18, 47316928, 192, -1, 0, 35318103832000
1512, 149, 9, 140, 1407, 30, 11, 19, 3622, 390, 5769, 262, 627, 27, 1661, 1, 1623, 3, 918, 27, 573, 0, 3728, 5285, 2944, 10734, 58, 88, 0, 1, 21, 0, 1077, 1133, 0, 0, 4650, 4, 43, 121, 41, 15, 16, 29, 7, 1133, 11, 24, 38, 1020, 647, 659, 646, 662, 1448, 5, 3530, 535, 210, 1232, 0, 0, 0, 810, 13, 21, 16, 22, 44, 51, 29, 20, 0, 0, 3, 61, 1, 8, 13, 2, 1, 0, 0, 937, 0, 524, 10, 8, 15, 27, 28, 37, 16, 4, 0, 0, 56, 1, 3, 2, 5, 2, 9, 0, 1, 590, 0, 19, 55, 170, 153, 150, 22, 4, 0, 0, 1434, 901, 866, 162, 115, 81, 31, 1, 1, 1, 1, 0, 0, 0, 0, 0, 0, 0, 0, 0, 201, 208, 164, 242, 0, 0, 0, 3, 15, 32, 37, 16, 1, 0, 0, 0, 0, 0, 0, 0, 0, 0, 0, 0, 15, 9, 1, 0, 0, 0, 0, 0, 0, 0, 0, 0, 48, 7, 8, 8, 2, 0, 1, 0, 4, 5, 2, 0, 3, 1, 5, 0, 1, 1, 1, 1, 1, 0, 1, 0, 1, 0, 3, 0, 1, 0, 0, 1, 0, 0, 0, 0, 0, 0, 1, 0, 0, 1, 13, 5, 6, 3, 0, 0, 0, 10, 4, 7, 5, 1, 1, 0, 0, 0, 2784, 16, 0, 0, 0, 0, 0, 0, 0, 0, 0, 0, 0, 0, 0, 0, 0, 0, 0, 0, 0, 0, 0, 0, 0, 2, 0, 0, 0, 1031, 638, 0, 0, 59, 163, 2, 1, 1, 1, 0, 1, 163750, 88750, 2, 832, 256, 0, 0, 35318106716500
3693, 280, 11, 269, 3003, 87, 26, 61, 7236, 1072, 16337, 831, 442, 74, 3973, 4, 3352, 2, 1835, 72, 1267, 0, 7795, 10876, 6491, 32661, 129, 102, 63, 20, 26, 0, 6194, 2750, 0, 0, 10637, 9, 176, 111, 77, 47, 69, 56, 28, 2750, 27, 61, 145, 1190, 1189, 2166, 1327, 1924, 3874, 16, 11112, 1305, 548, 2540, 0, 0, 0, 1669, 30, 57, 56, 57, 99, 81, 29, 2, 0, 0, 29, 1, 26, 30, 17, 16, 7, 10, 5, 1939, 0, 1194, 20, 33, 28, 66, 76, 57, 12, 0, 0, 0, 7, 0, 20, 29, 12, 5, 5, 4, 6, 1398, 0, 52, 168, 363, 375, 226, 74, 9, 0, 0, 2698, 2759, 2665, 609, 366, 117, 56, 5, 23, 22, 3, 5, 0, 0, 0, 0, 0, 0, 0, 0, 393, 480, 394, 616, 0, 0, 0, 4, 29, 50, 72, 52, 11, 0, 0, 0, 0, 0, 0, 0, 0, 0, 0, 0, 21, 17, 9, 1, 1, 1, 0, 0, 0, 0, 0, 0, 145, 27, 12, 16, 7, 4, 3, 1, 4, 14, 9, 5, 4, 6, 5, 4, 2, 2, 6, 4, 3, 2, 5, 8, 2, 1, 3, 1, 4, 0, 0, 0, 4, 2, 0, 0, 0, 1, 1, 1, 0, 9, 35, 22, 6, 5, 0, 0, 0, 35, 11, 10, 11, 4, 5, 1, 0, 0, 5875, 70, 0, 0, 0, 0, 0, 0, 0, 0, 0, 0, 0, 0, 0, 0, 0, 0, 0, 0, 0, 0, 0, 0, 0, 2, 0, 0, 0, 2053, 1421, 0, 0, 178, 326, 17, 11, 6, 11, 0, 5, 824000, 460250, 23, 24437888, 192, -1, 0, 35421491758500
1534, 205, 20, 185, 1473, 43, 6, 37, 3042, 665, 10968, 3957, 277, 75, 1740, 0, 1631, 2, 879, 45, 510, 0, 3337, 4589, 2746, 12487, 70, 33, 27, 2, 1, 0, 1388, 1265, 0, 0, 4957, 6, 37, 20, 33, 21, 9, 26, 22, 1265, 13, 25, 67, 131, 564, 833, 762, 1181, 1850, 8, 4996, 638, 235, 1142, 0, 0, 0, 874, 32, 16, 31, 37, 37, 28, 18, 0, 0, 0, 2, 1, 13, 5, 13, 0, 27, 3, 5, 1004, 0, 595, 18, 17, 22, 35, 30, 17, 1, 0, 0, 0, 5, 4, 7, 4, 8, 1, 2, 0, 2, 702, 0, 23, 55, 151, 140, 100, 36, 5, 0, 0, 1289, 1038, 552, 418, 287, 19, 48, 1, 0, 0, 0, 0, 0, 0, 0, 0, 0, 0, 0, 0, 131, 195, 184, 234, 0, 0, 0, 1, 9, 28, 35, 18, 2, 0, 0, 0, 0, 0, 0, 0, 0, 0, 0, 0, 25, 15, 7, 2, 0, 1, 0, 0, 0, 0, 0, 0, 96, 10, 9, 8, 1, 4, 0, 0, 0, 9, 4, 2, 2, 2, 1, 2, 3, 2, 1, 0, 0, 2, 0, 1, 1, 2, 2, 0, 0, 0, 1, 0, 1, 1, 0, 1, 2, 0, 2, 0, 0, 6, 33, 20, 14, 4, 0, 0, 0, 36, 15, 12, 7, 5, 2, 0, 0, 0, 2429, 10, 0, 0, 0, 0, 0, 0, 0, 0, 0, 0, 0, 0, 0, 0, 0, 0, 0, 0, 0, 0, 0, 0, 0, 2, 0, 0, 0, 1016, 693, 0, 0, 78, 180, 45, 43, 2, 43, 0, 1, 3055750, 152500, 44, 4032, 256, 674, 0, 35421497242500
51010, 3653, 421, 3232, 49100, 12548, 9389, 2965, 98241, 21100, 499399, 168398, 196, 2171, 54738, 55, 66492, 318, 28408, 880, 17679, 160, 125067, 174529, 93410, 549175, 2145, 8631, 258, 206, 40704, 0, 110097, 56732, 0, 0, 147422, 776, 1977, 1147, 1482, 1089, 739, 385, 519, 56732, 399, 1162, 3820, 9467, 20044, 31916, 25015, 27992, 44788, 159, 262001, 17085, 7647, 44261, 2, 2, 0, 25909, 818, 712, 1057, 1450, 1239, 833, 393, 404, 975, 0, 290, 138, 525, 661, 442, 443, 382, 486, 791, 29632, 0, 32023, 411, 498, 549, 847, 829, 637, 197, 134, 793, 0, 233, 175, 337, 1026, 318, 171, 170, 223, 714, 33551, 0, 851, 2752, 4953, 4120, 2941, 1790, 45, 227, 0, 43854, 37535, 18055, 10302, 5115, 1947, 1374, 264, 58, 62, 27, 12, 4, 4, 4, 3, 3, 4, 0, 0, 6956, 5511, 5212, 6656, 0, 0, 46, 223, 571, 1206, 912, 445, 57, 0, 0, 0, 0, 0, 0, 0, 0, 0, 0, 0, 782, 355, 136, 24, 24, 95, 12, 2, 0, 0, 0, 0, 2825, 342, 146, 141, 57, 52, 88, 96, 85, 173, 67, 47, 32, 64, 32, 76, 106, 58, 17, 32, 21, 35, 41, 21, 59, 15, 57, 25, 49, 42, 10, 19, 1, 17, 7, 7, 20, 9, 10, 4, 6, 139, 798, 658, 435, 210, 22, 0, 0, 1149, 381, 295, 264, 144, 86, 18, 0, 3, 85155, 80, 0, 0, 0, 0, 0, 0, 0, 0, 0, 0, 0, 0, 0, 0, 0, 0, 0, 0, 0, 0, 0, 0, 0, 14, 0, 0, 0, 34141, 35348, 0, 0, 2236, 3203, 3450, 2002, 1411, 1997, 0, 1374, 147028493, 109969354, 3496, 341376, 48640, -1, 0, 35421746921500
6854, 277, 35, 242, 4998, 229, 88, 141, 12301, 1673, 66718, 16457, 184, 158, 7132, 21, 5648, 17, 3352, 132, 2357, 64, 12697, 16034, 9826, 83294, 331, 567, 128, 18, 219, 0, 32581, 4742, 0, 0, 19295, 120, 256, 67, 280, 217, 30, 230, 19, 4742, 54, 133, 290, 427, 3939, 3840, 4826, 5158, 3194, 9, 43225, 1882, 929, 4225, 0, 0, 0, 3063, 78, 54, 78, 133, 149, 55, 31, 22, 50, 0, 7, 10, 11, 22, 51, 66, 37, 37, 93, 3379, 0, 1807, 18, 32, 33, 49, 61, 76, 34, 43, 105, 0, 13, 3, 21, 10, 12, 27, 17, 43, 62, 2050, 0, 67, 408, 817, 482, 468, 108, 6, 1, 0, 4183, 3674, 3117, 1281, 608, 151, 273, 72, 794, 53, 1, 1, 1, 1, 1, 1, 1, 0, 0, 0, 637, 876, 844, 1148, 0, 0, 0, 1, 29, 73, 135, 118, 6, 0, 0, 0, 0, 0, 0, 0, 0, 0, 0, 0, 59, 36, 9, 2, 8, 9, 2, 0, 0, 0, 0, 0, 324, 65, 60, 53, 5, 6, 4, 3, 10, 49, 9, 6, 2, 3, 9, 4, 5, 29, 3, 2, 1, 3, 3, 5, 2, 39, 2, 0, 2, 0, 0, 2, 0, 3, 2, 1, 4, 1, 32, 1, 1, 13, 81, 44, 18, 9, 3, 0, 0, 68, 32, 20, 32, 11, 9, 2, 0, 0, 9720, 7, 0, 0, 0, 0, 0, 0, 0, 0, 0, 0, 0, 0, 0, 0, 0, 0, 0, 0, 0, 0, 0, 0, 0, 4, 0, 0, 0, 3626, 2199, 0, 0, 438, 163, 286, 200, 83, 200, 0, 79, 15451250, 6675000, 290, 26496, 5376, 678, 0, 35421780280500
103772, 5300, 675, 4625, 88858, 13604, 9637, 3831, 210646, 35309, 806856, 266265, 260, 3266, 109117, 185, 109711, 559, 52547, 2800, 37436, 80, 238007, 324708, 178886, 929973, 6273, 15139, 854, 312, 43845, 0, 158369, 95083, 0, 0, 292691, 1571, 4765, 3026, 2061, 1686, 2306, 1264, 615, 95083, 741, 2995, 8321, 24166, 33933, 49840, 48507, 61332, 98342, 342, 409690, 32303, 14761, 83828, 5, 1, 0, 47912, 1424, 1498, 1965, 2535, 2570, 1806, 757, 494, 842, 0, 632, 609, 946, 1138, 982, 771, 956, 694, 1600, 53475, 0, 47267, 889, 849, 1226, 1800, 1691, 1267, 549, 207, 843, 0, 467, 924, 348, 1070, 436, 400, 571, 582, 1467, 50323, 0, 1473, 5809, 11531, 9394, 5992, 2886, 180, 165, 0, 84185, 71049, 41742, 18889, 14552, 3603, 2210, 376, 441, 126, 53, 15, 8, 8, 8, 6, 6, 6, 0, 0, 12191, 14159, 11086, 17030, 0, 0, 42, 213, 773, 1801, 2320, 1455, 111, 0, 0, 0, 0, 0, 0, 0, 0, 0, 0, 0, 1180, 626, 197, 30, 33, 191, 15, 5, 0, 0, 0, 0, 4524, 772, 328, 352, 369, 251, 58, 228, 196, 311, 166, 79, 84, 90, 75, 126, 241, 242, 114, 121, 136, 98, 134, 37, 141, 97, 46, 64, 73, 56, 15, 72, 51, 34, 35, 25, 18, 15, 32, 26, 101, 202, 1183, 1031, 624, 254, 43, 0, 0, 1822, 501, 466, 396, 213, 131, 14, 0, 6, 177918, 108, 0, 0, 0, 0, 0, 0, 0, 0, 0, 0, 0, 0, 0, 0, 0, 0, 0, 0, 0, 0, 0, 0, 0, 10, 0, 0, 0, 60724, 54576, 0, 0, 5560, 4101, 4856, 2989, 1828, 2984, 0, 1793, 224108744, 159141557, 4880, 466240, 102016, -1, 0, 35422183708500
2081, 245, 33, 212, 1720, 113, 44, 69, 3537, 792, 28838, 14063, 122, 88, 2327, 3, 1979, 9, 1038, 52, 655, 64, 3978, 5340, 3272, 29724, 113, 58, 9, 9, 54, 0, 6510, 1609, 0, 0, 6305, 26, 60, 36, 36, 25, 21, 31, 16, 1609, 27, 50, 106, 173, 922, 1333, 878, 1223, 2314, 6, 12421, 699, 278, 1377, 0, 0, 0, 986, 33, 26, 37, 56, 62, 24, 26, 7, 0, 0, 3, 11, 6, 8, 17, 13, 8, 1, 14, 1176, 0, 691, 11, 25, 18, 35, 51, 49, 13, 0, 0, 0, 11, 1, 13, 2, 0, 1, 1, 5, 5, 854, 0, 24, 97, 199, 176, 123, 30, 5, 1, 0, 1391, 1330, 506, 399, 219, 91, 44, 5, 4, 4, 1, 1, 1, 1, 1, 1, 1, 0, 0, 0, 167, 255, 233, 296, 0, 0, 2, 2, 10, 30, 38, 24, 5, 0, 0, 0, 0, 0, 0, 0, 0, 0, 0, 0, 40, 11, 5, 2, 5, 6, 0, 0, 0, 0, 0, 0, 130, 16, 12, 11, 5, 4, 1, 3, 5, 13, 5, 3, 1, 2, 5, 5, 6, 3, 2, 2, 2, 1, 2, 2, 1, 0, 2, 0, 1, 0, 2, 1, 0, 4, 3, 0, 1, 1, 0, 2, 2, 4, 36, 27, 11, 11, 1, 0, 0, 42, 12, 14, 12, 4, 5, 4, 0, 0, 2927, 4, 0, 0, 0, 0, 0, 0, 0, 0, 0, 0, 0, 0, 0, 0, 0, 0, 0, 0, 0, 0, 0, 0, 0, 4, 0, 0, 0, 1224, 842, 0, 0, 133, 99, 203, 157, 43, 157, 0, 43, 11588000, 3430250, 209, 16448, 2176, 678, 0, 35422198127500
35419, 3389, 363, 3026, 32786, 4580, 3020, 1528, 68529, 15852, 382339, 123092, 179, 1531, 38834, 15, 39923, 327, 19248, 589, 12329, 32, 79644, 110065, 60946, 396335, 1374, 5829, 286, 49, 16568, 0, 107176, 37757, 0, 0, 104496, 420, 1204, 1542, 1026, 711, 514, 423, 245, 37757, 285, 629, 2365, 8674, 14100, 22306, 17505, 19859, 30799, 116, 212417, 12627, 6046, 28157, 0, 0, 0, 18074, 550, 673, 759, 1004, 918, 493, 162, 200, 672, 0, 185, 272, 554, 633, 593, 488, 421, 194, 156, 20009, 0, 17203, 316, 335, 361, 581, 656, 426, 161, 54, 245, 0, 295, 108, 155, 616, 174, 99, 90, 120, 175, 18506, 0, 392, 1828, 3673, 3459, 1992, 808, 46, 131, 0, 28919, 24607, 13981, 7772, 4985, 1096, 1965, 273, 56, 23, 36, 3, 0, 0, 0, 0, 0, 0, 0, 0, 4063, 4629, 3637, 5394, 0, 0, 3, 36, 336, 713, 740, 365, 40, 0, 0, 0, 0, 0, 0, 0, 0, 0, 0, 0, 574, 274, 97, 20, 21, 65, 8, 2, 0, 0, 0, 0, 1967, 200, 80, 75, 64, 32, 108, 71, 57, 96, 44, 25, 25, 23, 18, 41, 45, 34, 29, 21, 15, 20, 15, 9, 30, 9, 86, 14, 23, 15, 6, 9, 2, 5, 8, 7, 3, 4, 9, 5, 13, 82, 505, 548, 292, 107, 23, 0, 0, 877, 222, 230, 146, 112, 48, 6, 0, 0, 57664, 39, 0, 0, 0, 0, 0, 0, 0, 0, 0, 0, 0, 0, 0, 0, 0, 0, 0, 0, 0, 0, 0, 0, 0, 6, 0, 0, 0, 22881, 19383, 0, 0, 1417, 2804, 2121, 1325, 781, 1321, 0, 768, 99896000, 61661667, 2257, 195456, 26816, -1, 0, 35422389297000
10602, 230, 21, 209, 8149, 158, 78, 80, 20268, 946, 84358, 10912, 240, 84, 10833, 2, 8794, 5, 5502, 204, 3931, 64, 20669, 24965, 15360, 112260, 493, 1095, 234, 10, 331, 0, 52360, 6997, 0, 0, 28862, 283, 432, 106, 570, 414, 43, 422, 19, 6997, 72, 138, 306, 606, 7604, 4812, 8395, 8722, 2460, 7, 63010, 2666, 1297, 6473, 0, 0, 0, 4742, 105, 30, 93, 193, 209, 58, 39, 55, 161, 0, 3, 8, 6, 9, 13, 82, 10, 2, 24, 5528, 0, 2619, 13, 22, 23, 37, 58, 60, 58, 78, 321, 0, 7, 1, 16, 1, 0, 3, 5, 16, 16, 3224, 0, 100, 697, 1387, 776, 787, 178, 5, 1, 0, 6049, 5645, 5660, 1851, 679, 262, 467, 74, 1599, 2, 4, 1, 1, 1, 1, 1, 1, 0, 0, 0, 1067, 1439, 1425, 1928, 0, 0, 2, 2, 50, 92, 232, 202, 11, 0, 0, 0, 0, 0, 0, 0, 0, 0, 0, 0, 37, 11, 10, 2, 4, 2, 0, 0, 0, 0, 0, 0, 359, 94, 88, 88, 3, 8, 2, 5, 11, 87, 8, 4, 2, 2, 9, 4, 3, 76, 3, 2, 3, 1, 0, 1, 0, 74, 6, 0, 1, 0, 2, 1, 0, 4, 3, 2, 6, 1, 73, 1, 2, 6, 34, 25, 14, 10, 0, 0, 0, 35, 20, 15, 10, 4, 5, 1, 0, 0, 15333, 4, 0, 0, 0, 0, 0, 0, 0, 0, 0, 0, 0, 0, 0, 0, 0, 0, 0, 0, 0, 0, 0, 0, 0, 4, 0, 0, 0, 5690, 3252, 0, 0, 680, 137, 168, 131, 37, 131, 0, 36, 9375750, 2923000, 177, 21248, 1408, 678, 0, 35422431476000
87383, 2446, 272, 2174, 80061, 7524, 4649, 2874, 209616, 42865, 477409, 95107, 429, 2601, 89858, 16, 93049, 400, 53846, 950, 37045, 64, 201612, 295006, 153661, 686727, 2218, 10519, 1239, 754, 16603, 0, 58210, 153045, 0, 0, 229795, 7017, 4171, 2426, 1260, 1630, 1477, 2034, 1584, 153045, 730, 1516, 23724, 23305, 21772, 30968, 43672, 47404, 67796, 268, 267177, 18792, 17250, 79082, 1, 0, 0, 56003, 1207, 1301, 1304, 1600, 1553, 1228, 431, 191, 478, 0, 2393, 3971, 1546, 754, 861, 907, 1136, 1123, 1772, 50833, 0, 29889, 801, 549, 675, 1003, 1077, 946, 491, 119, 286, 0, 255, 1232, 315, 711, 424, 287, 237, 596, 1100, 30679, 0, 1001, 7617, 12344, 9646, 4500, 1488, 166, 269, 14, 51943, 117359, 57828, 11403, 7922, 6791, 2235, 221, 179, 45, 21, 4, 0, 0, 0, 0, 0, 0, 0, 0, 20812, 8462, 7771, 10252, 0, 0, 27, 118, 850, 1672, 1894, 1214, 188, 0, 0, 0, 0, 0, 0, 0, 0, 0, 0, 0, 1107, 725, 215, 49, 42, 198, 55, 7, 0, 0, 0, 0, 3122, 262, 142, 136, 124, 57, 21, 68, 85, 148, 71, 23, 29, 22, 24, 49, 87, 82, 43, 41, 49, 44, 29, 8, 54, 46, 14, 12, 16, 11, 12, 20, 5, 9, 12, 9, 4, 2, 2, 10, 48, 72, 815, 1185, 504, 215, 43, 0, 0, 1066, 390, 433, 357, 323, 298, 33, 0, 0, 164076, 256, 0, 0, 0, 0, 0, 0, 0, 0, 0, 0, 0, 0, 0, 0, 0, 0, 0, 0, 0, 0, 0, 0, 0, 8, 0, 0, 0, 62814, 34394, 0, 0, 1951, 2975, 2491, 1035, 1434, 1034, 0, 1420, 78163000, 113318433, 2506, 245632, 38528, -1, 0, 35422670180500
2121, 248, 20, 228, 1728, 176, 89, 87, 3751, 742, 29318, 13539, 127, 74, 2369, 4, 2058, 11, 1092, 54, 693, 64, 4215, 5580, 3380, 31260, 120, 34, 9, 3, 36, 0, 7276, 1661, 0, 0, 6385, 31, 56, 27, 51, 33, 23, 42, 19, 1661, 19, 51, 77, 196, 908, 1350, 900, 1253, 2381, 9, 13337, 721, 295, 1425, 0, 1, 0, 1012, 32, 24, 44, 49, 62, 45, 23, 1, 0, 0, 1, 4, 11, 6, 14, 19, 17, 5, 22, 1193, 0, 736, 12, 24, 26, 41, 48, 44, 19, 0, 0, 0, 6, 4, 20, 0, 0, 1, 5, 12, 8, 894, 0, 25, 104, 215, 180, 126, 37, 5, 1, 0, 1578, 1249, 553, 428, 148, 70, 98, 5, 4, 2, 3, 1, 1, 1, 1, 1, 1, 0, 0, 0, 180, 271, 242, 306, 0, 0, 1, 2, 8, 32, 44, 29, 2, 0, 0, 0, 0, 0, 0, 0, 0, 0, 0, 0, 30, 13, 5, 3, 2, 1, 1, 0, 0, 0, 0, 0, 123, 19, 12, 12, 6, 5, 0, 4, 4, 14, 10, 4, 4, 1, 5, 1, 3, 4, 5, 2, 2, 1, 3, 2, 1, 4, 2, 0, 1, 0, 0, 0, 1, 3, 1, 2, 2, 1, 1, 0, 1, 5, 31, 20, 10, 10, 0, 0, 0, 34, 13, 14, 8, 6, 2, 1, 0, 0, 3058, 4, 0, 0, 0, 0, 0, 0, 0, 0, 0, 0, 0, 0, 0, 0, 0, 0, 0, 0, 0, 0, 0, 0, 0, 4, 0, 0, 0, 1255, 891, 0, 0, 144, 148, 190, 149, 40, 149, 0, 40, 10903750, 3081500, 196, 16128, 1280, 678, 0, 35422684839500
65896, 2174, 240, 1934, 32230, 3260, 1980, 1280, 81500, 13375, 366370, 118138, 221, 1008, 68090, 48, 37235, 209, 19733, 628, 19495, 16, 88822, 118494, 68338, 1197558, 1361, 1457, 283, 390, 5654, 0, 99931, 39964, 0, 0, 139294, 1058, 1049, 5279, 425, 452, 613, 438, 221, 39964, 3407, 998, 4429, 7896, 85837, 13082, 12497, 16643, 26682, 103, 197026, 15644, 5928, 29633, 1, 0, 0, 18031, 412, 410, 525, 663, 757, 549, 185, 138, 1200, 0, 203, 675, 370, 188, 238, 198, 221, 260, 482, 20035, 0, 13062, 248, 256, 351, 513, 536, 473, 208, 152, 1362, 0, 106, 43, 63, 139, 114, 73, 102, 101, 218, 16202, 0, 359, 5049, 7799, 3968, 1505, 731, 63, 20, 1, 27731, 29138, 20251, 4552, 4008, 1355, 411, 71, 84, 13, 2, 0, 0, 0, 0, 0, 0, 0, 0, 0, 8702, 4912, 5881, 6920, 0, 1, 5, 811, 167, 558, 557, 383, 32, 1, 0, 0, 0, 0, 0, 0, 0, 0, 0, 0, 335, 242, 90, 15, 16, 96, 22, 2, 0, 0, 0, 0, 2816, 175, 72, 71, 78, 53, 33, 48, 37, 86, 44, 17, 35, 21, 1501, 24, 41, 66, 28, 36, 23, 16, 22, 9, 35, 35, 9, 7, 6, 8, 7, 8, 4, 2, 5, 13, 3, 6, 0, 12, 32, 59, 354, 374, 180, 81, 11, 0, 0, 424, 170, 141, 139, 119, 92, 21, 0, 0, 70853, 85, 0, 0, 0, 0, 0, 0, 0, 0, 0, 0, 0, 0, 0, 0, 0, 0, 0, 0, 0, 0, 0, 0, 0, 5, 0, 0, 0, 22220, 16703, 0, 0, 2740, 1399, 2036, 1337, 673, 1336, 0, 657, 97528750, 54930502, 2056, 186560, 25408, -1, 0, 35422868024500
2715, 255, 30, 225, 2198, 160, 78, 82, 4971, 719, 31095, 11436, 159, 78, 2970, 0, 2531, 11, 1412, 64, 930, 64, 5407, 6968, 4238, 36044, 143, 99, 20, 2, 118, 0, 9969, 2009, 0, 0, 7954, 43, 90, 41, 86, 54, 27, 65, 16, 2009, 27, 67, 106, 276, 1470, 1488, 1562, 1884, 2081, 9, 16679, 832, 354, 1794, 0, 0, 0, 1279, 35, 22, 42, 70, 77, 44, 27, 3, 0, 0, 3, 9, 11, 13, 16, 23, 3, 6, 25, 1490, 0, 830, 13, 21, 19, 35, 41, 50, 24, 38, 14, 0, 9, 2, 15, 1, 2, 2, 1, 3, 12, 1038, 0, 30, 146, 298, 226, 180, 44, 5, 1, 0, 1821, 1712, 897, 509, 222, 119, 114, 8, 92, 1, 1, 1, 1, 1, 1, 1, 1, 0, 0, 0, 243, 353, 334, 434, 0, 0, 0, 3, 13, 33, 58, 43, 2, 0, 0, 0, 0, 0, 0, 0, 0, 0, 0, 0, 41, 10, 7, 1, 4, 5, 0, 0, 0, 0, 0, 0, 139, 25, 18, 17, 5, 4, 2, 5, 3, 20, 3, 5, 3, 3, 4, 2, 3, 8, 3, 2, 1, 0, 2, 1, 1, 7, 3, 1, 1, 0, 0, 1, 0, 3, 3, 0, 3, 1, 8, 0, 1, 5, 31, 29, 11, 8, 2, 0, 0, 40, 15, 9, 11, 6, 5, 2, 0, 0, 3938, 6, 0, 0, 0, 0, 0, 0, 0, 0, 0, 0, 0, 0, 0, 0, 0, 0, 0, 0, 0, 0, 0, 0, 0, 4, 0, 0, 0, 1564, 1050, 0, 0, 175, 147, 173, 135, 37, 135, 0, 36, 10165000, 2778250, 178, 15360, 1344, 678, 0, 35422883572000
45369, 1224, 115, 1109, 16093, 799, 471, 328, 39673, 4086, 169353, 50151, 234, 353, 46596, 27, 17358, 28, 10102, 148, 11388, 0, 45231, 56312, 35294, 356297, 295, 109, 9, 23, 1416, 0, 56408, 14865, 0, 0, 82998, 99, 222, 4617, 144, 172, 81, 82, 54, 14865, 3195, 527, 1121, 2345, 80444, 3958, 3182, 4600, 8259, 33, 93033, 10608, 2500, 13061, 0, 0, 0, 8222, 132, 157, 208, 284, 241, 179, 114, 130, 1216, 0, 23, 16, 36, 59, 33, 39, 49, 101, 160, 10367, 0, 5062, 69, 79, 94, 194, 224, 172, 94, 81, 1370, 0, 35, 9, 37, 18, 37, 21, 31, 63, 123, 7065, 0, 54, 3328, 5179, 2102, 489, 209, 27, 0, 0, 15529, 11948, 7955, 837, 584, 401, 135, 20, 32, 26, 8, 3, 4, 0, 0, 0, 0, 0, 0, 0, 5156, 2456, 3776, 4120, 0, 0, 1, 789, 57, 154, 155, 87, 7, 0, 0, 0, 0, 0, 0, 0, 0, 0, 0, 0, 130, 61, 15, 5, 6, 9, 2, 0, 0, 0, 0, 0, 1962, 54, 21, 24, 10, 8, 18, 12, 11, 29, 20, 11, 15, 12, 1488, 12, 9, 16, 6, 6, 7, 2, 10, 1, 7, 7, 2, 1, 2, 1, 0, 4, 1, 0, 3, 1, 1, 2, 1, 4, 2, 26, 146, 91, 67, 27, 5, 0, 0, 175, 75, 54, 39, 15, 7, 1, 0, 0, 35383, 25, 0, 0, 0, 0, 0, 0, 0, 0, 0, 0, 0, 0, 0, 0, 0, 0, 0, 0, 0, 0, 0, 0, 0, 2, 0, 0, 0, 10734, 7261, 0, 0, 1855, 870, 660, 541, 112, 541, 0, 112, 40041000, 9442749, 681, 65984, 6976, -1, 0, 35422968248500
2047, 268, 20, 248, 1704, 109, 49, 60, 3732, 654, 20378, 6483, 183, 66, 2315, 4, 1984, 9, 1090, 54, 689, 0, 4131, 5479, 3324, 28102, 120, 36, 8, 0, 12, 0, 6454, 1615, 0, 0, 6215, 36, 49, 33, 53, 30, 24, 33, 12, 1615, 22, 50, 68, 209, 952, 1059, 767, 1182, 2642, 10, 11547, 675, 290, 1383, 0, 0, 0, 980, 32, 25, 46, 44, 78, 23, 31, 0, 0, 0, 2, 3, 6, 16, 10, 3, 9, 1, 19, 1190, 0, 671, 14, 21, 16, 48, 46, 43, 14, 0, 0, 0, 6, 2, 15, 0, 0, 3, 2, 9, 9, 827, 0, 26, 102, 215, 178, 126, 37, 5, 0, 0, 1512, 1292, 571, 462, 135, 86, 18, 1, 1, 1, 2, 0, 0, 0, 0, 0, 0, 0, 0, 0, 179, 269, 241, 304, 0, 0, 1, 0, 9, 24, 48, 32, 2, 0, 0, 0, 0, 0, 0, 0, 0, 0, 0, 0, 29, 8, 5, 0, 3, 4, 0, 0, 0, 0, 0, 0, 112, 19, 14, 12, 5, 2, 1, 4, 3, 14, 6, 8, 1, 3, 6, 0, 2, 5, 5, 2, 1, 1, 3, 1, 2, 2, 1, 1, 1, 1, 0, 1, 0, 1, 3, 1, 3, 1, 0, 1, 1, 3, 27, 21, 8, 7, 2, 0, 0, 33, 11, 8, 9, 5, 1, 3, 0, 0, 3021, 4, 0, 0, 0, 0, 0, 0, 0, 0, 0, 0, 0, 0, 0, 0, 0, 0, 0, 0, 0, 0, 0, 0, 0, 2, 0, 0, 0, 1244, 829, 0, 0, 140, 234, 93, 75, 16, 75, 0, 16, 5436750, 1166750, 99, 8256, 448, 678, 0, 35422978437500
178514, 3758, 250, 3508, 60783, 2564, 1489, 1072, 154102, 13570, 513828, 86981, 299, 919, 182277, 83, 64920, 75, 38382, 535, 45156, 0, 174805, 215779, 135251, 863363, 1097, 527, 172, 153, 5249, 0, 209454, 56376, 0, 0, 319585, 418, 805, 18500, 596, 524, 318, 346, 198, 56376, 12748, 1973, 4108, 9089, 321211, 13446, 11068, 16314, 27390, 99, 327134, 40182, 9605, 49925, 1, 0, 0, 30708, 400, 402, 618, 889, 1013, 634, 420, 555, 4881, 0, 81, 46, 173, 139, 155, 113, 237, 428, 651, 38497, 0, 18896, 240, 250, 306, 533, 731, 652, 428, 352, 5425, 0, 108, 15, 78, 44, 85, 99, 490, 995, 631, 25268, 0, 241, 13368, 20745, 8230, 1710, 750, 112, 0, 0, 57782, 45718, 31937, 4507, 2927, 1374, 620, 257, 137, 93, 51, 27, 31, 13, 12, 6, 0, 0, 0, 0, 20470, 9878, 14808, 16364, 0, 2, 7, 3145, 201, 601, 588, 271, 27, 0, 0, 0, 0, 0, 0, 0, 0, 0, 0, 0, 370, 165, 72, 14, 8, 21, 3, 0, 0, 0, 0, 0, 7247, 172, 82, 84, 42, 22, 36, 39, 28, 92, 59, 42, 57, 33, 5945, 74, 27, 57, 22, 24, 19, 15, 22, 6, 29, 17, 15, 4, 20, 10, 3, 18, 2, 5, 3, 8, 1, 2, 5, 5, 5, 66, 403, 269, 163, 44, 17, 0, 0, 442, 195, 141, 113, 68, 13, 1, 0, 0, 137553, 112, 0, 0, 0, 0, 0, 0, 0, 0, 0, 0, 0, 0, 0, 0, 0, 0, 0, 0, 0, 0, 0, 0, 0, 2, 0, 0, 0, 40049, 27305, 0, 0, 7163, 3705, 1145, 874, 263, 874, 0, 260, 68074750, 22095753, 1196, 144832, 15104, 0, 0, 35423235351500
2724, 441, 29, 412, 2645, 186, 77, 109, 5794, 937, 29560, 10488, 196, 101, 3165, 4, 3056, 10, 1819, 70, 939, 0, 6572, 8950, 5466, 45547, 153, 43, 11, 9, 224, 0, 7276, 2266, 0, 0, 8666, 33, 75, 59, 61, 78, 21, 47, 20, 2266, 20, 85, 155, 337, 1007, 1917, 1184, 1591, 3341, 10, 15444, 1057, 383, 2188, 0, 0, 0, 1673, 56, 54, 56, 104, 96, 48, 6, 10, 0, 0, 1, 9, 8, 22, 26, 24, 17, 38, 32, 1926, 0, 1011, 22, 24, 36, 59, 78, 74, 35, 4, 0, 0, 5, 1, 11, 8, 14, 14, 10, 4, 5, 1271, 0, 30, 119, 284, 232, 201, 55, 18, 0, 0, 2581, 1823, 719, 377, 371, 191, 85, 10, 9, 10, 5, 3, 4, 3, 4, 3, 0, 0, 0, 0, 266, 360, 313, 414, 0, 0, 1, 1, 15, 51, 60, 50, 3, 0, 0, 0, 0, 0, 0, 0, 0, 0, 0, 0, 39, 24, 7, 2, 0, 4, 1, 1, 0, 0, 0, 0, 151, 29, 14, 15, 6, 4, 3, 3, 3, 25, 5, 7, 2, 5, 7, 5, 2, 6, 1, 1, 2, 2, 7, 1, 2, 1, 3, 0, 1, 1, 0, 3, 0, 0, 0, 1, 1, 2, 3, 1, 1, 10, 47, 29, 13, 3, 1, 0, 0, 39, 23, 20, 11, 4, 8, 1, 0, 0, 4596, 4, 0, 0, 0, 0, 0, 0, 0, 0, 0, 0, 0, 0, 0, 0, 0, 0, 0, 0, 0, 0, 0, 0, 0, 2, 0, 0, 0, 2007, 1265, 0, 0, 175, 400, 149, 106, 42, 105, 0, 41, 8741500, 3572000, 155, 12992, 1344, 678, 0, 35423250131500
42307, 714, 34, 680, 13301, 605, 412, 193, 33796, 2710, 108460, 15005, 311, 138, 43021, 15, 14164, 7, 8242, 82, 10416, 0, 38611, 47027, 29671, 203483, 149, 43, 17, 21, 1336, 0, 46879, 12248, 0, 0, 72820, 68, 171, 4539, 94, 84, 43, 63, 41, 12248, 3159, 392, 939, 1973, 79119, 1740, 1834, 2934, 4432, 19, 71380, 9198, 2104, 10773, 0, 0, 0, 6428, 59, 73, 99, 150, 167, 149, 107, 129, 1215, 0, 18, 7, 19, 14, 12, 14, 30, 71, 145, 8246, 0, 4080, 48, 38, 50, 101, 120, 119, 94, 84, 1369, 0, 31, 2, 8, 10, 10, 17, 20, 59, 109, 5837, 0, 35, 3194, 4867, 1872, 281, 156, 11, 0, 0, 12690, 9969, 7224, 565, 353, 137, 21, 14, 8, 8, 6, 3, 4, 0, 0, 0, 0, 0, 0, 0, 4895, 2051, 3470, 3686, 0, 0, 0, 786, 51, 118, 75, 33, 4, 0, 0, 0, 0, 0, 0, 0, 0, 0, 0, 0, 64, 17, 7, 1, 0, 3, 0, 0, 0, 0, 0, 0, 1684, 20, 13, 10, 4, 3, 4, 7, 6, 10, 10, 3, 10, 8, 1477, 9, 4, 9, 3, 2, 3, 1, 2, 2, 6, 3, 2, 1, 3, 2, 1, 0, 0, 0, 1, 1, 0, 1, 1, 1, 1, 8, 60, 44, 21, 12, 1, 0, 0, 80, 20, 24, 15, 7, 2, 0, 0, 0, 30517, 18, 0, 0, 0, 0, 0, 0, 0, 0, 0, 0, 0, 0, 0, 0, 0, 0, 0, 0, 0, 0, 0, 0, 0, 2, 0, 0, 0, 8524, 5994, 0, 0, 1647, 730, 186, 145, 40, 145, 0, 39, 10888750, 2994259, 193, 27840, 3072, 0, 0, 35423304361500
2577, 420, 15, 405, 2651, 167, 60, 107, 5765, 759, 22713, 6255, 253, 78, 2997, 7, 3045, 5, 1813, 70, 932, 0, 6544, 8857, 5370, 37383, 151, 55, 14, 118, 13, 0, 5965, 2173, 0, 0, 8216, 29, 73, 53, 53, 72, 27, 44, 21, 2173, 26, 79, 147, 262, 940, 1671, 1313, 1709, 2986, 9, 12907, 1058, 372, 2121, 0, 0, 0, 1644, 48, 50, 67, 89, 103, 47, 3, 9, 0, 0, 2, 8, 7, 19, 19, 23, 19, 36, 33, 1894, 0, 992, 21, 34, 28, 61, 83, 65, 21, 0, 0, 0, 8, 4, 7, 13, 16, 6, 6, 3, 5, 1237, 0, 29, 121, 283, 225, 200, 56, 18, 0, 0, 2497, 1731, 683, 397, 348, 251, 91, 10, 25, 11, 5, 3, 4, 3, 4, 3, 0, 0, 0, 0, 262, 358, 312, 410, 0, 0, 0, 0, 15, 51, 57, 54, 3, 0, 0, 0, 0, 0, 0, 0, 0, 0, 0, 0, 32, 23, 8, 2, 0, 0, 0, 0, 0, 0, 0, 0, 127, 26, 14, 16, 9, 3, 3, 5, 2, 19, 4, 7, 2, 4, 6, 8, 3, 5, 2, 2, 2, 4, 4, 2, 1, 3, 1, 1, 1, 1, 0, 3, 0, 0, 0, 3, 2, 2, 1, 1, 1, 8, 40, 22, 6, 4, 1, 0, 0, 30, 18, 16, 10, 7, 1, 0, 0, 0, 4495, 4, 0, 0, 0, 0, 0, 0, 0, 0, 0, 0, 0, 0, 0, 0, 0, 0, 0, 0, 0, 0, 0, 0, 0, 2, 0, 0, 0, 1989, 1253, 0, 0, 174, 459, 78, 63, 14, 63, 0, 12, 4963750, 1092500, 84, 7488, 512, 678, 0, 35423315718000
83608, 2461, 202, 2259, 45362, 2082, 700, 1382, 118659, 16452, 390417, 96402, 302, 1177, 86086, 55, 50557, 204, 29868, 1334, 26498, 0, 125258, 160975, 97185, 521616, 2323, 2295, 315, 307, 1670, 0, 108690, 49537, 0, 0, 185665, 947, 1951, 6048, 839, 970, 1192, 489, 290, 49537, 3464, 1110, 5100, 12500, 91427, 18435, 21005, 32649, 38244, 126, 224067, 19435, 8201, 42308, 2, 0, 0, 26768, 675, 620, 785, 1176, 1254, 719, 289, 177, 1275, 0, 551, 454, 226, 314, 321, 331, 647, 843, 1106, 28945, 0, 15863, 441, 422, 476, 702, 752, 563, 316, 167, 1368, 0, 172, 22, 104, 259, 108, 274, 421, 521, 880, 18309, 0, 531, 5752, 10364, 6200, 2632, 943, 63, 13, 0, 39973, 39694, 28287, 9438, 6506, 2248, 1779, 223, 176, 72, 57, 6, 8, 3, 4, 3, 0, 0, 0, 0, 10091, 8319, 8088, 11170, 0, 1, 2, 806, 354, 767, 991, 612, 39, 0, 0, 0, 0, 0, 0, 0, 0, 0, 0, 0, 412, 269, 61, 17, 15, 112, 25, 9, 0, 0, 0, 0, 3147, 274, 117, 123, 50, 39, 41, 69, 59, 104, 78, 54, 37, 43, 1521, 73, 72, 128, 37, 48, 40, 42, 36, 41, 38, 40, 43, 23, 44, 61, 3, 25, 24, 12, 6, 11, 1, 7, 14, 12, 42, 60, 478, 368, 229, 98, 23, 0, 0, 526, 210, 189, 161, 126, 65, 16, 0, 2, 100809, 59, 0, 0, 0, 0, 0, 0, 0, 0, 0, 0, 0, 0, 0, 0, 0, 0, 0, 0, 0, 0, 0, 0, 0, 2, 0, 0, 0, 32865, 20139, 0, 0, 3546, 2073, 1850, 1073, 753, 1072, 0, 746, 81371750, 60802747, 1866, 170688, 20352, 674, 0, 35423510926500
408293, 24283, 1008, 23275, 335701, 22371, 13595, 8583, 766542, 91875, 2240752, 247289, 342, 8274, 434020, 331, 387305, 639, 201707, 14238, 144078, 160, 856486, 1097575, 657037, 4287668, 29967, 19794, 1379, 484, 43302, 0, 968763, 385548, 0, 0, 1116198, 6313, 12625, 8421, 9743, 5947, 6526, 6485, 5267, 385548, 2865, 7025, 16621, 38773, 149234, 254660, 214160, 225091, 365336, 1348, 1549955, 100056, 50716, 292724, 3, 2, 1, 171856, 4175, 4089, 6488, 9526, 10728, 11600, 2244, 496, 951, 0, 1236, 456, 1148, 2005, 2366, 1193, 880, 812, 3352, 208705, 0, 151781, 2384, 3135, 3985, 6499, 10265, 9458, 2077, 149, 921, 0, 710, 458, 1279, 1735, 2118, 603, 558, 1136, 860, 181197, 0, 6322, 24665, 39989, 37750, 26738, 7712, 706, 196, 0, 274369, 270329, 117985, 72715, 37890, 16174, 8987, 1039, 336, 770, 50, 18, 4, 4, 4, 3, 3, 4, 0, 0, 55115, 40390, 48573, 53768, 0, 0, 54, 495, 2893, 7490, 7843, 4958, 370, 0, 0, 0, 0, 0, 0, 0, 0, 0, 0, 0, 3364, 1384, 601, 137, 138, 116, 29, 7, 0, 0, 0, 0, 17082, 4435, 2997, 2860, 804, 828, 165, 997, 996, 2685, 641, 821, 150, 618, 507, 873, 1177, 995, 678, 375, 422, 1147, 1043, 240, 189, 254, 29, 134, 452, 162, 141, 15, 113, 317, 554, 118, 249, 8, 178, 182, 118, 461, 3887, 1633, 1235, 522, 44, 0, 0, 3349, 2274, 881, 1365, 509, 156, 18, 0, 4, 626447, 323, 0, 0, 0, 0, 0, 0, 0, 0, 0, 0, 0, 0, 0, 0, 0, 0, 0, 0, 0, 0, 0, 0, 0, 14, 0, 0, 0, 220053, 182548, 0, 0, 29915, 29000, 4465, 2787, 1603, 2780, 0, 1572, 208250985, 142090601, 5116, 595776, 68352, -1, 0, 35424631302500
962, 80, 11, 69, 728, 106, 54, 52, 1665, 402, 11000, 4056, 151, 38, 1043, 1, 932, 6, 468, 25, 277, 64, 1840, 2520, 1480, 10810, 65, 32, 5, 146, 210, 0, 2888, 807, 0, 0, 3012, 6, 31, 13, 21, 9, 6, 11, 19, 807, 8, 24, 97, 61, 353, 652, 423, 558, 1121, 3, 5828, 351, 123, 642, 0, 0, 0, 453, 17, 22, 20, 20, 24, 11, 3, 0, 0, 0, 2, 2, 6, 10, 8, 0, 0, 1, 2, 539, 0, 392, 12, 15, 11, 16, 14, 10, 1, 0, 0, 0, 3, 2, 12, 6, 11, 9, 0, 1, 0, 427, 0, 12, 33, 90, 66, 57, 15, 3, 1, 0, 702, 579, 325, 247, 57, 18, 70, 10, 1, 1, 1, 1, 1, 1, 1, 1, 1, 0, 0, 0, 73, 115, 89, 140, 0, 0, 1, 4, 1, 11, 20, 11, 3, 0, 0, 0, 0, 0, 0, 0, 0, 0, 0, 0, 13, 8, 1, 0, 0, 4, 0, 0, 0, 0, 0, 0, 57, 13, 5, 6, 2, 1, 2, 2, 0, 4, 3, 2, 3, 2, 1, 1, 2, 1, 3, 0, 1, 1, 0, 0, 0, 0, 2, 0, 0, 0, 0, 0, 0, 1, 0, 0, 1, 0, 1, 0, 0, 5, 16, 11, 2, 4, 1, 0, 0, 13, 11, 7, 5, 3, 1, 0, 0, 0, 1325, 6, 0, 0, 0, 0, 0, 0, 0, 0, 0, 0, 0, 0, 0, 0, 0, 0, 0, 0, 0, 0, 0, 0, 0, 4, 0, 0, 0, 543, 436, 0, 0, 62, 40, 93, 57, 35, 57, 0, 35, 4409750, 2945000, 93, 6272, 2048, 679, 0, 35424636802500
249226, 5267, 616, 4651, 117670, 10076, 6702, 3239, 293239, 34822, 1057288, 291115, 277, 2482, 254520, 178, 134880, 338, 72888, 2450, 70900, 0, 327013, 419242, 249120, 1490413, 5433, 8562, 769, 222, 26765, 0, 324230, 111987, 0, 0, 509607, 1316, 4533, 21046, 1899, 1707, 1974, 1077, 507, 111987, 13197, 4189, 9801, 27206, 341532, 43086, 43649, 57855, 91473, 331, 584805, 58280, 18843, 104240, 1, 0, 0, 62625, 1318, 1170, 1808, 2490, 2507, 1821, 895, 702, 5290, 0, 695, 532, 743, 726, 653, 508, 906, 1119, 2199, 72545, 0, 47411, 866, 851, 1065, 1752, 1821, 1334, 691, 546, 5696, 0, 287, 91, 246, 834, 430, 353, 581, 1018, 1803, 56390, 0, 1282, 17363, 28782, 14621, 5838, 2764, 184, 66, 0, 107517, 93092, 62085, 17204, 14256, 3870, 2230, 520, 456, 137, 89, 111, 19, 17, 20, 15, 6, 6, 0, 0, 28221, 20228, 22451, 28886, 0, 0, 34, 3316, 710, 1700, 2038, 1279, 102, 0, 0, 0, 0, 0, 0, 0, 0, 0, 0, 0, 894, 497, 149, 31, 33, 190, 22, 4, 0, 0, 0, 0, 9661, 691, 293, 372, 317, 158, 58, 190, 148, 311, 134, 88, 93, 97, 5986, 162, 243, 233, 73, 120, 101, 82, 106, 29, 150, 84, 56, 28, 58, 53, 20, 102, 42, 41, 26, 26, 13, 21, 17, 21, 85, 136, 918, 770, 502, 199, 42, 0, 0, 1318, 392, 306, 312, 224, 123, 19, 0, 5, 253147, 150, 0, 0, 0, 0, 0, 0, 0, 0, 0, 0, 0, 0, 0, 0, 0, 0, 0, 0, 0, 0, 0, 0, 0, 4, 0, 0, 0, 79782, 60464, 0, 0, 10953, 3591, 4872, 3165, 1666, 3161, 0, 1642, 237279749, 134397765, 4936, 466432, 111040, 0, 0, 35425165446500
2757, 489, 46, 443, 2626, 248, 82, 166, 5794, 1070, 50680, 27223, 114, 124, 3246, 5, 3135, 13, 1819, 70, 939, 0, 6576, 9105, 5546, 56320, 153, 37, 12, 3, 67, 0, 9001, 2315, 0, 0, 9000, 43, 57, 53, 58, 73, 20, 46, 24, 2315, 28, 88, 198, 309, 994, 1907, 1246, 2016, 3159, 11, 19695, 1192, 395, 2175, 0, 0, 0, 1660, 59, 52, 60, 97, 112, 55, 3, 11, 8, 0, 4, 9, 6, 26, 19, 29, 5, 5, 1, 2013, 0, 988, 25, 37, 36, 63, 87, 59, 35, 11, 0, 0, 6, 3, 6, 12, 13, 14, 0, 2, 6, 1279, 0, 29, 119, 284, 234, 200, 55, 18, 0, 0, 2721, 1775, 616, 317, 341, 193, 83, 8, 6, 10, 3, 3, 4, 3, 4, 3, 0, 0, 0, 0, 266, 360, 313, 414, 0, 0, 1, 3, 11, 48, 67, 50, 1, 0, 0, 0, 0, 0, 0, 0, 0, 0, 0, 0, 49, 17, 8, 1, 2, 6, 3, 0, 0, 0, 0, 0, 173, 30, 14, 14, 7, 2, 2, 7, 0, 20, 6, 5, 3, 3, 10, 6, 2, 5, 2, 2, 2, 4, 3, 2, 2, 1, 2, 2, 3, 0, 0, 2, 1, 2, 1, 1, 0, 1, 2, 1, 0, 12, 53, 35, 13, 7, 1, 0, 0, 52, 26, 23, 8, 11, 6, 1, 0, 0, 4685, 4, 0, 0, 0, 0, 0, 0, 0, 0, 0, 0, 0, 0, 0, 0, 0, 0, 0, 0, 0, 0, 0, 0, 0, 2, 0, 0, 0, 2050, 1279, 0, 0, 175, 246, 401, 302, 95, 301, 0, 89, 22543500, 7891750, 402, 31488, 5568, 679, 0, 35425190786500
42569, 585, 32, 553, 13081, 215, 74, 141, 34261, 2622, 111216, 20073, 308, 127, 43154, 12, 13538, 3, 8370, 75, 10595, 0, 38307, 46080, 29844, 192132, 169, 147, 28, 47, 181, 0, 47003, 12138, 0, 0, 73168, 89, 103, 4607, 118, 91, 45, 58, 29, 12138, 3167, 480, 815, 1759, 79468, 2064, 1847, 2820, 4463, 17, 69211, 9114, 2106, 10711, 0, 0, 0, 6581, 64, 67, 100, 148, 172, 135, 100, 128, 1221, 0, 24, 8, 48, 24, 25, 24, 41, 74, 147, 8301, 0, 3424, 32, 41, 39, 83, 119, 118, 87, 76, 1341, 0, 10, 1, 10, 14, 11, 24, 31, 56, 229, 4974, 0, 38, 3231, 4989, 1927, 286, 112, 12, 0, 0, 12489, 10068, 7654, 601, 604, 119, 93, 22, 1, 1, 2, 0, 0, 0, 0, 0, 0, 0, 0, 0, 4897, 2222, 3476, 3806, 0, 0, 0, 783, 46, 101, 87, 44, 2, 0, 0, 0, 0, 0, 0, 0, 0, 0, 0, 0, 51, 22, 9, 2, 0, 5, 0, 0, 0, 0, 0, 0, 1663, 22, 10, 9, 8, 4, 6, 7, 8, 13, 4, 4, 10, 8, 1479, 14, 4, 14, 3, 4, 4, 2, 2, 4, 7, 4, 4, 1, 4, 1, 0, 1, 0, 0, 0, 1, 0, 0, 0, 0, 0, 11, 46, 40, 18, 16, 3, 0, 0, 73, 20, 17, 13, 9, 5, 0, 0, 0, 30862, 19, 0, 0, 0, 0, 0, 0, 0, 0, 0, 0, 0, 0, 0, 0, 0, 0, 0, 0, 0, 0, 0, 0, 0, 2, 0, 0, 0, 8618, 5277, 0, 0, 1667, 481, 241, 203, 38, 203, 0, 38, 15480004, 2900500, 249, 28800, 3520, 0, 0, 35425246394500
2548, 403, 24, 379, 2679, 131, 39, 92, 5794, 745, 25304, 7975, 228, 76, 2951, 5, 3045, 8, 1819, 70, 939, 0, 6577, 8878, 5406, 36335, 153, 35, 10, 2, 224, 0, 6122, 2101, 0, 0, 8142, 30, 71, 45, 57, 67, 22, 53, 21, 2101, 19, 78, 180, 296, 882, 1826, 1145, 1615, 3024, 13, 13792, 1037, 373, 2127, 0, 0, 0, 1636, 43, 47, 63, 95, 106, 45, 5, 9, 0, 0, 5, 9, 2, 23, 12, 22, 15, 33, 32, 1896, 0, 972, 21, 30, 30, 52, 84, 70, 33, 4, 0, 0, 7, 0, 3, 7, 15, 7, 4, 2, 5, 1246, 0, 30, 119, 284, 232, 201, 55, 18, 0, 0, 2583, 1745, 631, 338, 406, 196, 81, 9, 37, 10, 5, 3, 4, 3, 4, 3, 0, 0, 0, 0, 266, 360, 313, 414, 0, 0, 0, 2, 11, 48, 59, 56, 5, 0, 0, 0, 0, 0, 0, 0, 0, 0, 0, 0, 28, 17, 4, 2, 0, 5, 0, 0, 0, 0, 0, 0, 126, 28, 15, 14, 5, 4, 3, 3, 1, 21, 5, 6, 3, 6, 7, 5, 3, 6, 2, 2, 3, 2, 5, 0, 4, 2, 4, 1, 1, 1, 0, 1, 1, 0, 1, 1, 0, 0, 1, 0, 1, 8, 35, 20, 8, 5, 1, 0, 0, 27, 18, 15, 8, 5, 6, 0, 0, 0, 4513, 4, 0, 0, 0, 0, 0, 0, 0, 0, 0, 0, 0, 0, 0, 0, 0, 0, 0, 0, 0, 0, 0, 0, 0, 2, 0, 0, 0, 1979, 1255, 0, 0, 171, 399, 101, 81, 20, 80, 0, 20, 6416500, 1568750, 108, 9600, 1536, 679, 0, 35425259046500
103674, 1470, 87, 1383, 43615, 892, 377, 514, 111050, 9454, 273137, 32949, 406, 575, 105145, 57, 46285, 25, 28313, 485, 28154, 0, 119747, 152230, 93566, 524839, 1086, 1720, 315, 324, 4120, 0, 110620, 38008, 0, 0, 200126, 300, 442, 10065, 666, 609, 331, 390, 445, 38008, 6419, 1170, 2219, 7987, 162845, 18041, 13953, 16516, 23784, 83, 173461, 24520, 6254, 35948, 0, 0, 0, 24114, 289, 375, 383, 602, 646, 670, 343, 303, 2513, 0, 44, 27, 408, 93, 159, 151, 242, 410, 646, 28058, 0, 13000, 231, 272, 261, 411, 474, 552, 320, 294, 2470, 0, 109, 21, 61, 64, 53, 132, 98, 432, 432, 16883, 0, 266, 7429, 12003, 5806, 1837, 739, 74, 0, 0, 37852, 38457, 22231, 5384, 3287, 2501, 262, 85, 47, 35, 22, 15, 15, 9, 12, 9, 0, 0, 0, 0, 11786, 7644, 8724, 11170, 0, 0, 5, 1588, 182, 583, 576, 402, 11, 0, 0, 0, 0, 0, 0, 0, 0, 0, 0, 0, 219, 111, 36, 35, 2, 8, 4, 0, 0, 0, 0, 0, 3795, 70, 69, 70, 19, 13, 19, 74, 19, 47, 25, 28, 17, 54, 2967, 39, 25, 45, 50, 8, 6, 9, 21, 31, 16, 36, 41, 7, 17, 11, 30, 5, 2, 2, 1, 5, 1, 3, 4, 2, 1, 61, 192, 232, 97, 33, 9, 0, 0, 321, 73, 66, 79, 76, 19, 0, 0, 0, 93687, 76, 0, 0, 0, 0, 0, 0, 0, 0, 0, 0, 0, 0, 0, 0, 0, 0, 0, 0, 0, 0, 0, 0, 0, 2, 0, 0, 0, 29907, 17866, 0, 0, 3923, 1590, 459, 320, 136, 320, 0, 134, 26109516, 11101750, 481, 63680, 37760, 0, 0, 35425395615000
43938, 688, 32, 656, 13858, 372, 112, 260, 37337, 2925, 122965, 19770, 303, 158, 44627, 18, 14667, 14, 9288, 173, 10968, 0, 41445, 50242, 32784, 202119, 301, 178, 21, 9, 212, 0, 51673, 13136, 0, 0, 77369, 86, 130, 4583, 144, 111, 58, 79, 39, 13136, 3166, 453, 906, 2079, 79375, 3257, 3869, 3318, 5108, 15, 79781, 9415, 2229, 11769, 0, 0, 0, 7420, 78, 76, 123, 183, 190, 123, 127, 165, 1213, 0, 15, 10, 14, 38, 29, 36, 70, 142, 217, 9127, 0, 3467, 89, 74, 82, 125, 135, 145, 133, 130, 1216, 0, 17, 5, 9, 6, 58, 26, 9, 59, 54, 5353, 0, 100, 3259, 5055, 2004, 393, 133, 24, 0, 0, 13596, 11601, 7643, 666, 565, 282, 175, 21, 59, 15, 8, 6, 8, 3, 4, 3, 0, 0, 0, 0, 5048, 2299, 3621, 3978, 0, 0, 1, 776, 45, 107, 112, 93, 14, 0, 0, 0, 0, 0, 0, 0, 0, 0, 0, 0, 61, 38, 8, 3, 1, 6, 2, 0, 0, 0, 0, 0, 1727, 39, 20, 19, 10, 6, 5, 11, 6, 21, 7, 12, 6, 12, 1504, 12, 7, 11, 7, 3, 25, 5, 5, 0, 6, 3, 3, 1, 0, 1, 0, 5, 1, 4, 2, 1, 2, 1, 5, 0, 1, 11, 62, 48, 17, 19, 4, 0, 0, 66, 41, 22, 13, 15, 8, 1, 0, 0, 33257, 45, 0, 0, 0, 0, 0, 0, 0, 0, 0, 0, 0, 0, 0, 0, 0, 0, 0, 0, 0, 0, 0, 0, 0, 2, 0, 0, 0, 9593, 5507, 0, 0, 1793, 713, 262, 180, 82, 179, 0, 80, 14939750, 6788500, 275, 38912, 86912, 679, 0, 35425485527500
113277, 1868, 119, 1749, 53789, 1759, 946, 809, 137074, 11114, 355442, 76004, 385, 689, 115149, 55, 58320, 39, 34656, 599, 30757, 0, 148517, 193807, 116874, 574036, 1342, 2182, 379, 217, 6007, 0, 121567, 46266, 0, 0, 230921, 869, 803, 10046, 859, 692, 388, 350, 388, 46266, 6496, 2140, 4010, 7606, 166211, 20695, 18930, 23637, 36251, 137, 197894, 29380, 7979, 44182, 0, 0, 0, 29260, 414, 408, 488, 811, 734, 868, 535, 564, 2784, 0, 78, 71, 94, 151, 179, 186, 296, 543, 684, 34584, 0, 17691, 336, 362, 344, 568, 669, 737, 514, 384, 2490, 0, 143, 907, 81, 78, 180, 124, 136, 599, 285, 21562, 0, 385, 7871, 12388, 6677, 2386, 884, 127, 33, 0, 50873, 44275, 26215, 8209, 4754, 2458, 407, 94, 97, 51, 40, 79, 11, 9, 12, 9, 0, 0, 0, 0, 12766, 8625, 9366, 11904, 0, 0, 2, 1612, 232, 765, 1002, 480, 25, 0, 0, 0, 0, 0, 0, 0, 0, 0, 0, 0, 241, 110, 45, 37, 4, 23, 4, 1, 0, 0, 0, 0, 3989, 140, 77, 99, 50, 41, 21, 91, 20, 61, 32, 31, 22, 43, 2971, 42, 23, 89, 41, 13, 8, 11, 20, 29, 20, 41, 38, 9, 12, 17, 26, 39, 9, 2, 4, 2, 5, 4, 5, 4, 6, 61, 236, 214, 146, 57, 12, 0, 0, 382, 94, 95, 95, 61, 17, 3, 0, 0, 113626, 71, 0, 0, 0, 0, 0, 0, 0, 0, 0, 0, 0, 0, 0, 0, 0, 0, 0, 0, 0, 0, 0, 0, 0, 2, 0, 0, 0, 36655, 23525, 0, 0, 4221, 1626, 1059, 741, 310, 739, 0, 303, 59105000, 25741993, 1082, 115328, 40832, 0, 0, 35425663248500
88667, 1183, 66, 1117, 28947, 633, 210, 423, 76432, 5732, 234918, 31919, 325, 258, 89851, 35, 30454, 24, 19470, 291, 22190, 0, 85012, 103223, 67284, 417893, 558, 449, 57, 329, 598, 0, 105695, 26635, 0, 0, 155957, 206, 235, 9213, 314, 256, 134, 161, 116, 26635, 6342, 930, 1862, 3756, 159256, 9221, 6758, 5732, 10817, 43, 155201, 19202, 4617, 23976, 1, 0, 0, 15680, 172, 130, 241, 337, 405, 266, 219, 315, 2457, 0, 12, 22, 25, 57, 49, 62, 116, 233, 330, 19316, 0, 7201, 123, 105, 148, 206, 302, 278, 293, 228, 2573, 0, 18, 7, 37, 34, 64, 38, 75, 112, 111, 10961, 0, 172, 6515, 10261, 4072, 819, 292, 59, 0, 0, 27734, 23611, 15431, 1787, 1294, 1294, 350, 78, 114, 27, 14, 12, 16, 9, 12, 9, 0, 0, 0, 0, 10201, 4656, 7333, 8054, 0, 0, 1, 1559, 77, 200, 275, 209, 29, 0, 0, 0, 0, 0, 0, 0, 0, 0, 0, 0, 102, 55, 29, 2, 4, 5, 1, 0, 0, 0, 0, 0, 3418, 85, 44, 43, 19, 11, 11, 23, 10, 48, 5, 26, 13, 13, 2971, 58, 22, 34, 15, 7, 9, 9, 11, 2, 13, 16, 3, 1, 3, 5, 1, 12, 2, 3, 4, 3, 8, 3, 6, 2, 1, 18, 92, 79, 42, 31, 10, 0, 0, 104, 52, 50, 24, 31, 18, 0, 0, 0, 67502, 68, 0, 0, 0, 0, 0, 0, 0, 0, 0, 0, 0, 0, 0, 0, 0, 0, 0, 0, 0, 0, 0, 0, 0, 2, 0, 0, 0, 20045, 11247, 0, 0, 3584, 1241, 407, 283, 120, 283, 0, 118, 23026500, 9704248, 444, 63104, 101952, 679, 0, 35425816475000
71319, 1204, 95, 1109, 41916, 3431, 2512, 917, 100843, 10171, 256721, 60519, 392, 633, 72526, 58, 48181, 44, 25488, 560, 21131, 0, 109950, 147179, 83895, 404750, 1359, 4512, 399, 146, 14858, 0, 72232, 35351, 0, 0, 157954, 341, 848, 5561, 889, 549, 556, 615, 378, 35351, 3388, 1524, 1747, 7464, 86642, 17074, 20250, 22400, 29371, 111, 136590, 19033, 5696, 34882, 0, 0, 0, 22222, 381, 382, 406, 737, 592, 759, 429, 271, 1574, 0, 101, 91, 114, 114, 96, 240, 323, 522, 578, 25574, 0, 17804, 353, 310, 379, 558, 595, 452, 225, 244, 1298, 0, 127, 17, 56, 260, 206, 166, 302, 807, 267, 20010, 0, 507, 4768, 7813, 4509, 2255, 1154, 61, 64, 0, 33518, 36340, 21136, 6667, 4410, 2138, 621, 75, 54, 44, 42, 96, 12, 8, 8, 0, 0, 0, 0, 0, 7956, 6961, 6214, 8896, 0, 0, 6, 836, 326, 797, 743, 339, 24, 0, 0, 0, 0, 0, 0, 0, 0, 0, 0, 0, 201, 139, 34, 33, 4, 17, 7, 0, 0, 0, 0, 0, 2372, 103, 62, 105, 71, 51, 18, 93, 15, 46, 28, 20, 15, 45, 1485, 17, 25, 76, 45, 9, 12, 17, 13, 33, 15, 38, 36, 1, 11, 12, 30, 32, 7, 6, 1, 4, 3, 3, 1, 7, 4, 57, 230, 185, 144, 46, 5, 0, 0, 341, 89, 46, 118, 68, 26, 3, 0, 0, 81992, 57, 0, 0, 0, 0, 0, 0, 0, 0, 0, 0, 0, 0, 0, 0, 0, 0, 0, 0, 0, 0, 0, 0, 0, 2, 0, 0, 0, 27789, 21526, 0, 0, 2620, 1317, 875, 527, 345, 526, 0, 330, 47842545, 31395971, 870, 102144, 143360, 0, 0, 35425944835500
3704, 458, 46, 412, 3131, 354, 124, 230, 8926, 932, 44894, 16004, 198, 100, 4162, 3, 3892, 6, 2341, 163, 1475, 0, 9458, 12634, 7688, 57867, 277, 183, 14, 0, 11, 0, 9545, 2889, 0, 0, 11335, 38, 111, 89, 97, 73, 22, 40, 27, 2889, 29, 109, 226, 759, 1084, 1939, 3464, 1892, 3122, 10, 23996, 1257, 498, 3139, 0, 0, 0, 2070, 55, 45, 61, 99, 114, 80, 32, 48, 17, 0, 14, 7, 8, 22, 13, 13, 8, 5, 5, 2526, 0, 1152, 81, 69, 60, 59, 88, 76, 27, 25, 0, 0, 12, 4, 2, 22, 61, 3, 1, 2, 6, 1524, 0, 93, 215, 413, 353, 295, 88, 18, 0, 0, 3219, 3269, 1194, 420, 407, 219, 75, 6, 52, 5, 5, 3, 4, 3, 4, 3, 0, 0, 0, 0, 452, 583, 440, 732, 0, 0, 0, 1, 21, 58, 87, 77, 20, 0, 0, 0, 0, 0, 0, 0, 0, 0, 0, 0, 42, 18, 9, 4, 3, 4, 0, 1, 0, 0, 0, 0, 149, 29, 14, 15, 5, 4, 3, 5, 0, 23, 6, 7, 5, 2, 25, 8, 15, 5, 1, 3, 21, 0, 5, 1, 0, 1, 1, 0, 1, 0, 2, 4, 1, 2, 0, 0, 11, 1, 5, 1, 0, 11, 45, 27, 13, 9, 2, 0, 0, 40, 19, 21, 8, 9, 11, 2, 0, 0, 7069, 35, 0, 0, 0, 0, 0, 0, 0, 0, 0, 0, 0, 0, 0, 0, 0, 0, 0, 0, 0, 0, 0, 0, 0, 2, 0, 0, 0, 2554, 1585, 0, 0, 236, 403, 259, 172, 87, 172, 0, 85, 13024500, 7235250, 265, 22528, 4160, 679, 0, 35425967282500
66447, 908, 81, 827, 36133, 836, 382, 444, 92505, 7305, 192241, 33748, 481, 401, 67359, 51, 39189, 12, 23056, 459, 20194, 0, 96203, 125617, 74120, 329795, 1096, 2060, 397, 268, 3099, 0, 62483, 29468, 0, 0, 142532, 319, 651, 5638, 684, 506, 359, 418, 394, 29468, 3306, 1406, 1567, 7077, 84641, 17224, 16337, 16810, 24676, 106, 106543, 17058, 4995, 29895, 0, 0, 0, 20172, 279, 306, 339, 600, 511, 704, 255, 155, 1316, 0, 82, 28, 406, 81, 77, 86, 186, 381, 496, 22814, 0, 12165, 288, 338, 233, 423, 451, 442, 215, 285, 1152, 0, 121, 4, 27, 106, 184, 82, 155, 751, 320, 14242, 0, 428, 4676, 7656, 4522, 1940, 930, 42, 0, 0, 27820, 33146, 19125, 6346, 4004, 2362, 420, 48, 41, 35, 34, 81, 4, 0, 0, 0, 0, 0, 0, 0, 7687, 6625, 5882, 8738, 0, 0, 2, 827, 209, 611, 636, 370, 49, 0, 0, 0, 0, 0, 0, 0, 0, 0, 0, 0, 135, 64, 27, 32, 1, 11, 2, 1, 0, 0, 0, 0, 2094, 80, 53, 71, 83, 53, 15, 86, 15, 23, 10, 11, 11, 39, 1478, 10, 20, 63, 41, 10, 5, 7, 6, 34, 9, 32, 37, 1, 9, 9, 38, 28, 3, 2, 0, 1, 0, 1, 2, 2, 3, 49, 128, 149, 88, 19, 3, 0, 0, 242, 41, 35, 78, 33, 13, 3, 0, 0, 74111, 54, 0, 0, 0, 0, 0, 0, 0, 0, 0, 0, 0, 0, 0, 0, 0, 0, 0, 0, 0, 0, 0, 0, 0, 2, 0, 0, 0, 24574, 15512, 0, 0, 2401, 914, 476, 343, 129, 341, 0, 129, 26252500, 9900991, 480, 55680, 13312, 0, 0, 35426063403000
4081, 522, 39, 483, 3611, 274, 68, 206, 9741, 936, 47525, 17636, 204, 102, 4603, 3, 4296, 9, 2583, 179, 1621, 0, 10412, 13768, 8416, 52878, 295, 193, 8, 0, 14, 0, 9883, 3154, 0, 0, 12478, 40, 109, 100, 108, 76, 36, 48, 31, 3154, 32, 115, 197, 759, 1152, 2163, 3757, 1902, 3834, 12, 24456, 1496, 542, 3393, 0, 1, 0, 2242, 57, 58, 81, 111, 136, 77, 34, 58, 7, 0, 13, 9, 10, 27, 3, 20, 6, 10, 6, 2757, 0, 1328, 85, 70, 71, 70, 88, 68, 41, 25, 0, 0, 12, 2, 6, 7, 61, 5, 16, 4, 4, 1729, 0, 105, 231, 443, 405, 320, 99, 18, 0, 0, 3628, 3464, 1299, 450, 420, 204, 146, 6, 7, 6, 14, 3, 4, 3, 4, 3, 0, 0, 0, 0, 496, 628, 497, 782, 0, 0, 0, 1, 25, 55, 111, 85, 13, 0, 0, 0, 0, 0, 0, 0, 0, 0, 0, 0, 43, 17, 8, 5, 1, 3, 0, 1, 0, 0, 0, 0, 155, 32, 17, 14, 9, 3, 3, 4, 2, 20, 10, 10, 5, 6, 24, 36, 9, 6, 3, 1, 16, 3, 4, 2, 3, 3, 3, 1, 0, 0, 0, 2, 3, 1, 0, 0, 1, 0, 5, 0, 1, 10, 45, 25, 14, 10, 1, 0, 0, 39, 22, 21, 7, 12, 5, 1, 0, 0, 7683, 41, 0, 0, 0, 0, 0, 0, 0, 0, 0, 0, 0, 0, 0, 0, 0, 0, 0, 0, 0, 0, 0, 0, 0, 2, 0, 0, 0, 2790, 1779, 0, 0, 265, 461, 251, 165, 85, 164, 0, 83, 13813500, 6746250, 256, 33856, 125888, 679, 0, 35426135839000
109882, 2891, 277, 2614, 44215, 2914, 1823, 1088, 119964, 11607, 449409, 124091, 266, 934, 112795, 103, 48811, 117, 27241, 862, 32937, 80, 130830, 166215, 97867, 632116, 3423, 1325, 282, 240, 5747, 0, 149298, 44544, 0, 0, 212600, 2430, 1275, 9748, 512, 444, 690, 415, 273, 44544, 6474, 7405, 5023, 8475, 166368, 13877, 13099, 17753, 31270, 118, 251797, 26075, 7154, 40291, 1, 0, 0, 22467, 405, 437, 646, 785, 888, 696, 340, 282, 2431, 0, 233, 95, 296, 170, 153, 81, 132, 236, 444, 27537, 0, 16162, 283, 208, 379, 691, 654, 528, 285, 285, 2709, 0, 109, 153, 81, 77, 76, 87, 64, 155, 495, 20887, 0, 2041, 8068, 14084, 5865, 1900, 909, 69, 1, 0, 42942, 34700, 25417, 5619, 4309, 1163, 523, 92, 100, 13, 11, 6, 8, 3, 4, 3, 0, 0, 0, 0, 14259, 9175, 9503, 14338, 0, 2, 7, 1597, 175, 644, 769, 461, 38, 0, 0, 0, 0, 0, 0, 0, 0, 0, 0, 0, 319, 192, 45, 9, 16, 54, 7, 0, 0, 0, 0, 0, 4342, 269, 102, 146, 1144, 538, 31, 77, 36, 107, 48, 48, 55, 32, 2972, 37, 50, 83, 40, 57, 36, 21, 54, 7, 39, 40, 13, 8, 8, 4, 11, 23, 6, 8, 17, 2, 9, 5, 6, 7, 48, 71, 359, 287, 131, 65, 15, 0, 0, 461, 186, 118, 126, 70, 20, 5, 0, 0, 105868, 79, 0, 0, 0, 0, 0, 0, 0, 0, 0, 0, 0, 0, 0, 0, 0, 0, 0, 0, 0, 0, 0, 0, 0, 10, 0, 0, 0, 28863, 21663, 0, 0, 6257, 2135, 1834, 1364, 456, 1359, 0, 445, 100932249, 35007752, 1858, 183680, 21696, 0, 0, 35426360543500
2739, 428, 26, 402, 2721, 214, 88, 126, 5812, 962, 34431, 13909, 168, 94, 3167, 4, 3160, 8, 1821, 70, 943, 64, 6655, 9032, 5481, 49032, 153, 44, 17, 6, 258, 0, 7924, 2282, 0, 0, 8691, 37, 82, 62, 66, 72, 19, 46, 22, 2282, 24, 97, 211, 300, 1193, 1980, 1383, 1609, 2878, 12, 16840, 1079, 387, 2216, 0, 0, 0, 1692, 52, 51, 77, 110, 110, 29, 4, 4, 0, 0, 2, 10, 12, 31, 30, 30, 21, 39, 32, 1922, 0, 1052, 22, 36, 40, 72, 83, 56, 34, 4, 0, 0, 6, 6, 11, 8, 3, 8, 6, 7, 6, 1338, 0, 30, 120, 284, 234, 201, 55, 18, 1, 0, 2568, 1774, 743, 356, 385, 232, 131, 10, 8, 11, 6, 4, 5, 4, 5, 4, 1, 0, 0, 0, 267, 362, 314, 416, 0, 0, 1, 1, 9, 53, 80, 36, 3, 0, 0, 0, 0, 0, 0, 0, 0, 0, 0, 0, 36, 21, 7, 4, 0, 1, 1, 0, 0, 0, 0, 0, 152, 24, 15, 16, 4, 3, 3, 4, 3, 21, 5, 9, 4, 6, 6, 4, 4, 5, 3, 1, 1, 3, 5, 2, 2, 0, 1, 2, 0, 1, 2, 4, 0, 0, 0, 1, 0, 3, 2, 0, 0, 11, 43, 30, 12, 7, 0, 0, 0, 41, 23, 13, 11, 7, 9, 0, 0, 0, 4582, 4, 0, 0, 0, 0, 0, 0, 0, 0, 0, 0, 0, 0, 0, 0, 0, 0, 0, 0, 0, 0, 0, 0, 0, 4, 0, 0, 0, 2036, 1329, 0, 0, 176, 370, 186, 140, 46, 138, 0, 43, 10864000, 3892000, 189, 16064, 2112, 679, 0, 35426377759000
158289, 4176, 344, 3832, 66432, 2769, 1525, 1226, 173365, 18656, 592318, 165174, 292, 1504, 162490, 69, 71825, 93, 40896, 882, 45916, 0, 188973, 239420, 145342, 839138, 2548, 2128, 242, 55, 5473, 0, 186598, 75069, 0, 0, 303866, 1636, 1556, 15136, 940, 856, 640, 578, 624, 75069, 9707, 4949, 5358, 14689, 247026, 17904, 20378, 24922, 41381, 145, 320030, 37245, 11383, 58480, 1, 0, 0, 34464, 663, 757, 884, 1138, 1256, 932, 541, 434, 3634, 0, 476, 125, 323, 402, 351, 197, 330, 573, 899, 41027, 0, 22813, 344, 404, 568, 744, 949, 893, 535, 468, 3763, 0, 159, 44, 138, 204, 189, 123, 113, 334, 707, 29470, 0, 1523, 11844, 19562, 8852, 2921, 1102, 111, 1, 0, 62631, 57636, 36209, 5972, 5024, 1780, 494, 224, 105, 64, 31, 28, 20, 10, 12, 9, 3, 3, 0, 0, 20569, 11372, 13975, 17526, 0, 1, 12, 2463, 425, 955, 899, 452, 112, 0, 0, 0, 0, 0, 0, 0, 0, 0, 0, 0, 595, 240, 82, 13, 10, 44, 6, 2, 0, 0, 0, 0, 6399, 225, 92, 213, 546, 264, 42, 76, 33, 97, 56, 52, 38, 34, 4456, 48, 42, 97, 46, 37, 26, 37, 24, 10, 58, 26, 32, 4, 14, 10, 16, 18, 17, 9, 12, 4, 2, 3, 7, 11, 23, 111, 552, 458, 291, 94, 24, 0, 0, 810, 309, 161, 175, 101, 39, 4, 0, 1, 152382, 102, 0, 0, 0, 0, 0, 0, 0, 0, 0, 0, 0, 0, 0, 0, 0, 0, 0, 0, 0, 0, 0, 0, 0, 2, 0, 0, 0, 43951, 30769, 0, 0, 6874, 3123, 2198, 1736, 447, 1732, 0, 440, 130771244, 36416004, 2232, 220608, 46976, 0, 0, 35426673918000
2918, 437, 23, 414, 2780, 223, 89, 134, 6271, 951, 33480, 13116, 187, 90, 3355, 1, 3274, 7, 1933, 82, 1022, 0, 7055, 9624, 5847, 51825, 167, 59, 14, 9, 15, 0, 7641, 2414, 0, 0, 9277, 41, 75, 67, 63, 84, 22, 46, 26, 2414, 25, 100, 183, 325, 1012, 2024, 1535, 2018, 3072, 11, 16493, 1146, 401, 2324, 0, 0, 0, 1753, 56, 46, 70, 115, 112, 45, 3, 11, 0, 0, 4, 9, 8, 21, 22, 23, 2, 16, 1, 2105, 0, 1042, 27, 33, 35, 66, 77, 61, 36, 24, 0, 0, 8, 0, 9, 7, 8, 11, 1, 3, 4, 1350, 0, 35, 131, 312, 248, 217, 61, 18, 0, 0, 2727, 1862, 752, 444, 437, 200, 123, 10, 39, 6, 14, 3, 4, 3, 4, 3, 0, 0, 0, 0, 289, 395, 338, 460, 0, 0, 1, 2, 21, 51, 64, 51, 5, 0, 0, 0, 0, 0, 0, 0, 0, 0, 0, 0, 33, 21, 5, 2, 0, 10, 1, 0, 0, 0, 0, 0, 140, 26, 15, 17, 4, 3, 2, 6, 3, 20, 7, 6, 3, 2, 7, 13, 7, 4, 1, 1, 2, 4, 6, 0, 1, 2, 2, 2, 2, 1, 2, 1, 1, 0, 0, 0, 0, 2, 1, 1, 1, 7, 40, 25, 11, 9, 1, 0, 0, 36, 16, 19, 9, 8, 7, 1, 0, 0, 4958, 7, 0, 0, 0, 0, 0, 0, 0, 0, 0, 0, 0, 0, 0, 0, 0, 0, 0, 0, 0, 0, 0, 0, 0, 2, 0, 0, 0, 2141, 1343, 0, 0, 181, 378, 189, 143, 46, 143, 0, 43, 10594500, 3696750, 194, 16064, 960, 679, 0, 35426690658000
123137, 3438, 330, 3108, 64095, 2487, 1356, 1101, 167916, 18091, 504121, 158967, 333, 1564, 126603, 55, 69892, 64, 38242, 981, 41003, 33, 178956, 228469, 135090, 691408, 1858, 2628, 271, 126, 5827, 0, 130768, 88671, 0, 0, 247276, 1419, 1737, 11373, 1122, 1167, 762, 761, 1031, 88671, 6588, 3215, 5041, 16319, 169678, 16946, 18062, 26843, 46186, 170, 245476, 29813, 11976, 57889, 0, 0, 0, 32656, 744, 730, 944, 1108, 1354, 931, 802, 356, 2417, 0, 739, 175, 304, 388, 351, 245, 298, 319, 601, 38622, 0, 25611, 306, 394, 523, 737, 907, 913, 644, 399, 2424, 0, 245, 65, 211, 318, 79, 93, 987, 1356, 1399, 28105, 0, 1234, 9725, 16592, 8967, 3133, 1223, 129, 0, 0, 58726, 66573, 30867, 6360, 3247, 2283, 1397, 512, 107, 101, 12, 8, 4, 3, 4, 3, 0, 0, 0, 0, 19295, 9814, 11894, 14592, 0, 2, 45, 1794, 812, 1156, 779, 324, 209, 1, 0, 0, 0, 0, 0, 0, 0, 0, 0, 0, 584, 240, 103, 11, 12, 51, 10, 0, 0, 0, 0, 0, 4808, 160, 56, 120, 265, 134, 37, 49, 30, 71, 35, 34, 29, 19, 2984, 43, 26, 44, 18, 27, 20, 48, 19, 15, 69, 17, 42, 4, 8, 12, 18, 6, 38, 5, 32, 6, 4, 3, 5, 7, 14, 109, 624, 449, 312, 92, 22, 0, 0, 831, 300, 200, 171, 109, 36, 5, 0, 0, 144708, 143, 0, 0, 0, 0, 0, 0, 0, 0, 0, 0, 0, 0, 0, 0, 0, 0, 0, 0, 1, 0, 4, 4, 0, 22, 2, 0, 0, 41450, 32024, 0, 0, 4587, 2066, 2301, 1775, 517, 1771, 0, 505, 128124000, 39899756, 2313, 216576, 20608, 0, 0, 35426942718500
2559, 449, 36, 413, 2695, 209, 85, 124, 5812, 828, 34011, 14258, 170, 96, 3008, 4, 3123, 9, 1821, 70, 943, 64, 6655, 8987, 5441, 47772, 153, 47, 10, 12, 42, 0, 6979, 2168, 0, 0, 8249, 37, 72, 53, 59, 70, 18, 45, 27, 2168, 24, 75, 198, 300, 981, 1779, 1169, 1798, 2849, 10, 16098, 1129, 364, 2162, 0, 0, 0, 1642, 50, 42, 65, 101, 112, 52, 4, 11, 0, 0, 1, 7, 4, 27, 18, 14, 11, 20, 11, 1966, 0, 1026, 20, 27, 36, 66, 86, 69, 35, 4, 0, 0, 6, 2, 9, 8, 9, 9, 8, 3, 3, 1312, 0, 30, 120, 284, 234, 201, 55, 18, 1, 0, 2590, 1692, 668, 384, 426, 227, 92, 10, 8, 12, 6, 4, 5, 4, 5, 4, 1, 0, 0, 0, 267, 362, 314, 416, 0, 0, 1, 1, 9, 53, 80, 36, 3, 0, 0, 0, 0, 0, 0, 0, 0, 0, 0, 0, 37, 21, 9, 2, 0, 3, 0, 0, 0, 0, 0, 0, 144, 25, 14, 17, 6, 4, 2, 5, 2, 25, 3, 6, 3, 6, 7, 4, 4, 3, 3, 1, 1, 1, 5, 1, 3, 0, 3, 1, 0, 1, 1, 3, 0, 0, 0, 1, 0, 3, 3, 1, 1, 12, 48, 27, 7, 7, 1, 0, 0, 44, 19, 17, 12, 6, 6, 0, 0, 0, 4570, 4, 0, 0, 0, 0, 0, 0, 0, 0, 0, 0, 0, 0, 0, 0, 0, 0, 0, 0, 0, 0, 0, 0, 0, 4, 0, 0, 0, 2012, 1308, 0, 0, 172, 360, 205, 152, 52, 150, 0, 49, 11883750, 4135250, 208, 17280, 1792, 679, 0, 35426959724000
89080, 1536, 85, 1451, 28838, 575, 200, 375, 76218, 5906, 235716, 32394, 323, 329, 90618, 28, 30154, 12, 18739, 264, 22791, 0, 84485, 102825, 65804, 422277, 522, 474, 56, 39, 1007, 0, 103801, 26937, 0, 0, 156522, 200, 339, 9294, 757, 234, 116, 148, 72, 26937, 6350, 1020, 3224, 3854, 160671, 5960, 4938, 7213, 12135, 47, 154925, 19849, 4579, 23969, 0, 0, 0, 14654, 159, 164, 262, 390, 482, 316, 282, 406, 2448, 0, 71, 21, 121, 37, 75, 34, 116, 191, 355, 18542, 0, 7647, 111, 118, 119, 228, 325, 302, 254, 319, 2433, 0, 43, 24, 22, 19, 29, 46, 24, 122, 277, 11250, 0, 106, 6842, 10660, 4076, 801, 267, 39, 0, 0, 28453, 21964, 16724, 1604, 1494, 598, 283, 100, 21, 28, 12, 10, 12, 3, 4, 3, 0, 0, 0, 0, 10355, 4923, 7513, 8186, 0, 2, 1, 1571, 86, 271, 280, 136, 10, 0, 0, 0, 0, 0, 0, 0, 0, 0, 0, 0, 116, 66, 24, 8, 4, 10, 1, 0, 0, 0, 0, 0, 3458, 70, 32, 35, 27, 5, 17, 15, 14, 43, 13, 15, 23, 22, 2965, 51, 17, 28, 13, 13, 7, 2, 10, 5, 16, 9, 5, 8, 5, 3, 1, 5, 2, 2, 1, 3, 1, 1, 2, 1, 1, 23, 133, 113, 42, 31, 5, 0, 0, 176, 61, 38, 48, 23, 5, 1, 0, 0, 68185, 54, 0, 0, 0, 0, 0, 0, 0, 0, 0, 0, 0, 0, 0, 0, 0, 0, 0, 0, 0, 0, 0, 0, 0, 2, 0, 0, 0, 19341, 11712, 0, 0, 3512, 1460, 448, 334, 111, 334, 0, 110, 25457750, 8583500, 474, 57408, 5376, 0, 0, 35427077582000
2518, 407, 19, 388, 2647, 152, 52, 100, 5795, 678, 21972, 5200, 263, 74, 2925, 4, 3021, 9, 1819, 70, 939, 0, 6578, 8844, 5371, 38279, 153, 32, 11, 3, 237, 0, 6056, 2117, 0, 0, 8102, 26, 76, 59, 59, 62, 22, 41, 23, 2117, 23, 73, 183, 299, 907, 1821, 1302, 1441, 2946, 13, 13250, 1046, 369, 2107, 0, 0, 0, 1607, 49, 41, 50, 104, 107, 45, 7, 9, 0, 0, 1, 7, 4, 17, 12, 19, 17, 34, 31, 1877, 0, 978, 21, 32, 33, 62, 76, 62, 36, 4, 0, 0, 5, 1, 7, 8, 9, 12, 8, 2, 3, 1249, 0, 30, 119, 284, 232, 201, 55, 18, 0, 0, 2552, 1686, 714, 361, 369, 173, 69, 7, 6, 5, 5, 3, 4, 3, 4, 3, 0, 0, 0, 0, 266, 360, 313, 414, 0, 0, 1, 1, 15, 56, 60, 43, 5, 0, 0, 0, 0, 0, 0, 0, 0, 0, 0, 0, 29, 17, 6, 2, 0, 2, 0, 0, 0, 0, 0, 0, 123, 27, 15, 16, 6, 3, 4, 3, 2, 22, 1, 7, 1, 5, 10, 5, 4, 4, 7, 1, 2, 1, 5, 0, 3, 1, 2, 1, 0, 0, 1, 1, 1, 2, 0, 1, 0, 0, 2, 1, 1, 8, 35, 21, 8, 4, 1, 0, 0, 27, 21, 15, 10, 3, 2, 0, 0, 0, 4495, 4, 0, 0, 0, 0, 0, 0, 0, 0, 0, 0, 0, 0, 0, 0, 0, 0, 0, 0, 0, 0, 0, 0, 0, 2, 0, 0, 0, 1970, 1251, 0, 0, 171, 458, 59, 47, 12, 47, 0, 12, 3922250, 970500, 67, 6336, 320, 679, 0, 35427088568000
109813, 5841, 626, 5215, 102218, 17379, 13452, 3920, 259495, 31827, 855205, 273107, 303, 2931, 115748, 66, 127235, 338, 53614, 2508, 46608, 6457, 283060, 384007, 191481, 1100706, 8538, 4763, 620, 1310, 41380, 372, 197674, 141948, 0, 0, 309003, 3264, 6321, 4620, 2477, 1568, 2043, 1202, 1252, 141948, 758, 6258, 10326, 36636, 51058, 44647, 45174, 63639, 89635, 290, 430744, 34585, 16634, 100127, 4, 2, 0, 47750, 1487, 1256, 2100, 2696, 2798, 1788, 746, 487, 935, 0, 1018, 595, 598, 945, 760, 605, 1469, 1484, 1890, 52679, 0, 63514, 1081, 781, 1273, 1554, 1667, 1451, 711, 525, 1592, 0, 2323, 141, 1241, 795, 516, 894, 719, 726, 904, 65890, 0, 2499, 6694, 14017, 10872, 7877, 4421, 226, 2, 0, 79753, 86104, 52051, 37763, 30327, 13870, 2182, 2075, 80, 48, 65, 45, 20, 29, 4, 3, 3, 3, 0, 0, 21152, 14286, 11170, 18924, 0, 2, 12, 110, 924, 3156, 2260, 1403, 208, 40, 45, 45, 1, 0, 0, 0, 0, 0, 0, 0, 1082, 496, 181, 15, 20, 121, 24, 8, 0, 0, 0, 0, 4049, 584, 244, 339, 916, 418, 83, 156, 137, 228, 192, 114, 78, 94, 69, 126, 114, 293, 92, 86, 77, 106, 76, 78, 132, 88, 57, 25, 56, 103, 15, 54, 67, 45, 47, 36, 27, 24, 29, 14, 68, 152, 1063, 824, 632, 288, 49, 0, 0, 1594, 514, 417, 301, 180, 95, 22, 0, 2, 213675, 231, 0, 0, 0, 0, 0, 0, 0, 0, 0, 0, 0, 0, 0, 0, 0, 0, 0, 0, 776, 0, 257, 81, 10, 1445, 440, 648, 0, 60462, 72109, 0, 0, 5631, 5289, 4256, 2985, 1228, 2978, 0, 1168, 225334000, 101903543, 4241, 501696, 130240, 674, 0, 35427516170500
71164, 5225, 472, 4753, 66819, 13873, 10240, 3443, 138994, 22384, 645873, 214847, 215, 2160, 76581, 105, 86806, 340, 38274, 1884, 24547, 160, 171695, 232673, 127519, 790384, 4312, 11482, 264, 272, 43313, 0, 148969, 73085, 0, 0, 202927, 900, 2657, 2024, 1836, 1234, 996, 774, 761, 73085, 529, 1445, 4428, 14658, 26398, 41780, 33178, 40685, 65397, 258, 341108, 20776, 9827, 59307, 1, 1, 0, 33797, 950, 892, 1352, 1886, 1919, 1427, 496, 291, 853, 0, 171, 134, 583, 677, 542, 416, 378, 615, 883, 39464, 0, 40920, 520, 662, 760, 1137, 1526, 1266, 287, 118, 859, 0, 273, 147, 307, 1159, 350, 181, 196, 347, 593, 44502, 0, 977, 3798, 6695, 5779, 4563, 2432, 108, 195, 0, 57665, 48493, 24885, 16127, 7807, 3560, 2277, 553, 118, 424, 53, 7, 0, 0, 0, 0, 0, 0, 0, 0, 9016, 7639, 7892, 9616, 0, 0, 37, 234, 642, 1550, 1458, 770, 70, 0, 0, 0, 0, 0, 0, 0, 0, 0, 0, 0, 756, 356, 106, 25, 27, 114, 23, 6, 0, 0, 0, 0, 3373, 661, 367, 350, 105, 108, 61, 151, 146, 394, 107, 98, 34, 88, 86, 138, 181, 152, 66, 65, 58, 102, 100, 48, 72, 32, 22, 27, 45, 68, 31, 17, 13, 39, 30, 15, 58, 7, 33, 11, 19, 127, 850, 590, 370, 185, 36, 0, 0, 1091, 401, 262, 274, 162, 90, 19, 0, 4, 116893, 85, 0, 0, 0, 0, 0, 0, 0, 0, 0, 0, 0, 0, 0, 0, 0, 0, 0, 0, 0, 0, 0, 0, 0, 14, 0, 0, 0, 44026, 46274, 0, 0, 4245, 4678, 4097, 2496, 1541, 2488, 0, 1511, 188455240, 126415643, 4120, 406208, 77312, -1, 0, 35427839094000
913, 76, 14, 62, 688, 101, 51, 50, 1528, 352, 10033, 3714, 152, 35, 989, 1, 878, 5, 448, 25, 264, 64, 1699, 2274, 1365, 10004, 65, 38, 135, 137, 41, 0, 2759, 738, 0, 0, 2814, 5, 33, 10, 19, 8, 6, 11, 11, 738, 7, 19, 97, 76, 318, 570, 423, 585, 996, 2, 5321, 285, 109, 604, 0, 0, 0, 429, 14, 17, 17, 25, 21, 8, 5, 1, 0, 0, 3, 2, 4, 9, 10, 0, 2, 2, 0, 505, 0, 360, 17, 15, 10, 12, 11, 8, 4, 0, 0, 0, 3, 2, 12, 0, 4, 3, 0, 1, 0, 412, 0, 10, 29, 91, 66, 51, 14, 2, 1, 0, 620, 516, 265, 205, 97, 19, 47, 3, 1, 1, 1, 1, 1, 1, 1, 1, 1, 0, 0, 0, 70, 106, 88, 134, 0, 0, 0, 5, 1, 10, 20, 11, 0, 0, 0, 0, 0, 0, 0, 0, 0, 0, 0, 0, 14, 7, 1, 0, 0, 4, 0, 0, 0, 0, 0, 0, 51, 13, 5, 6, 3, 2, 2, 2, 0, 4, 3, 1, 2, 2, 2, 1, 1, 1, 2, 1, 1, 1, 0, 0, 0, 0, 2, 0, 0, 0, 0, 0, 0, 0, 0, 0, 1, 0, 1, 0, 0, 5, 14, 8, 3, 5, 1, 0, 0, 14, 9, 6, 4, 3, 1, 0, 0, 0, 1211, 2, 0, 0, 0, 0, 0, 0, 0, 0, 0, 0, 0, 0, 0, 0, 0, 0, 0, 0, 0, 0, 0, 0, 0, 4, 0, 0, 0, 514, 401, 0, 0, 61, 37, 86, 54, 31, 54, 0, 31, 4078750, 2655000, 86, 6976, 2368, 680, 0, 35427844110500
73097, 3296, 438, 2858, 61784, 9769, 6976, 2665, 145696, 21298, 567974, 187189, 256, 1750, 76423, 122, 76760, 291, 36372, 2089, 27510, 0, 165154, 221423, 121479, 661492, 4738, 10823, 660, 256, 29738, 0, 116657, 59430, 0, 0, 197494, 1393, 3916, 2730, 1301, 1271, 1775, 921, 367, 59430, 498, 2785, 7773, 19288, 21925, 31813, 31280, 43388, 65437, 236, 292241, 20806, 10277, 57457, 1, 0, 0, 32800, 933, 883, 1325, 1693, 1897, 1273, 472, 225, 540, 0, 608, 528, 616, 663, 516, 411, 591, 543, 1373, 36192, 0, 33326, 621, 597, 818, 1223, 1153, 865, 289, 135, 652, 0, 260, 808, 162, 906, 230, 261, 477, 541, 1089, 34945, 0, 1179, 4208, 8567, 6915, 4269, 2173, 101, 98, 0, 54703, 48381, 30286, 14353, 11132, 2815, 1886, 287, 346, 89, 62, 0, 0, 0, 0, 0, 0, 0, 0, 0, 8781, 10631, 8098, 13098, 0, 0, 33, 176, 522, 1289, 1556, 1038, 78, 0, 0, 0, 0, 0, 0, 0, 0, 0, 0, 0, 628, 365, 135, 28, 19, 126, 18, 1, 0, 0, 0, 0, 2698, 568, 247, 338, 302, 172, 39, 150, 140, 248, 127, 65, 52, 72, 50, 112, 164, 165, 62, 103, 110, 78, 84, 40, 119, 49, 50, 23, 49, 50, 14, 53, 41, 37, 29, 19, 16, 16, 14, 16, 84, 69, 662, 519, 368, 150, 34, 0, 0, 928, 283, 236, 219, 150, 82, 16, 0, 5, 122277, 89, 0, 0, 0, 0, 0, 0, 0, 0, 0, 0, 0, 0, 0, 0, 0, 0, 0, 0, 0, 0, 0, 0, 0, 4, 0, 0, 0, 41547, 38509, 0, 0, 4189, 2443, 3402, 2061, 1312, 2059, 0, 1282, 154410999, 115106336, 3408, 332608, 82624, -1, 0, 35428128097500
1013, 113, 24, 89, 781, 55, 26, 29, 1681, 375, 11063, 5226, 151, 46, 1126, 2, 904, 4, 479, 30, 285, 0, 1830, 2453, 1484, 9182, 50, 15, 6, 6, 114, 0, 2276, 756, 0, 0, 3111, 5, 43, 21, 13, 16, 8, 16, 17, 756, 8, 18, 65, 110, 429, 829, 425, 586, 982, 3, 4728, 342, 134, 633, 0, 0, 0, 454, 11, 10, 16, 28, 33, 24, 0, 0, 0, 0, 0, 3, 16, 5, 14, 4, 1, 4, 0, 529, 0, 340, 5, 9, 22, 17, 22, 11, 5, 0, 0, 0, 1, 6, 9, 3, 8, 1, 3, 1, 0, 399, 0, 12, 31, 85, 80, 61, 14, 2, 0, 0, 759, 573, 198, 172, 96, 32, 17, 1, 0, 0, 0, 0, 0, 0, 0, 0, 0, 0, 0, 0, 73, 110, 102, 148, 0, 0, 0, 0, 5, 17, 19, 8, 2, 0, 0, 0, 0, 0, 0, 0, 0, 0, 0, 0, 23, 10, 1, 0, 0, 2, 0, 0, 0, 0, 0, 0, 62, 7, 8, 7, 1, 1, 0, 2, 1, 10, 0, 2, 0, 1, 2, 1, 2, 1, 3, 0, 0, 2, 1, 2, 0, 0, 2, 0, 0, 0, 0, 1, 0, 0, 0, 0, 0, 0, 1, 0, 0, 3, 15, 14, 10, 4, 0, 0, 0, 19, 15, 6, 6, 1, 0, 1, 0, 0, 1335, 3, 0, 0, 0, 0, 0, 0, 0, 0, 0, 0, 0, 0, 0, 0, 0, 0, 0, 0, 0, 0, 0, 0, 0, 2, 0, 0, 0, 550, 390, 0, 0, 60, 35, 87, 65, 22, 65, 0, 21, 4599250, 1731750, 86, 6784, 1280, 680, 0, 35428133629000
